digraph MDP {
node [label="",shape="box"];
0 [label="0\n(0,10,0,10,0,0)"];
0 -> n0_0 [label="0:1.0: [contribute2_7]--[contribute1_5]",arrowhead="none"];
n0_0 [ shape=point,width=0.1,height=0.1,label="" ];
n0_0 -> 1 [label="1.0"];
0 -> n0_1 [label="1:1.0: [contribute2_7]--[contribute1_3]",arrowhead="none"];
n0_1 [ shape=point,width=0.1,height=0.1,label="" ];
n0_1 -> 3 [label="1.0"];
0 -> n0_2 [label="2:1.0: [contribute2_7]--[contribute1_6]",arrowhead="none"];
n0_2 [ shape=point,width=0.1,height=0.1,label="" ];
n0_2 -> 5 [label="1.0"];
0 -> n0_3 [label="3:1.0: [contribute2_7]--[contribute1_7]",arrowhead="none"];
n0_3 [ shape=point,width=0.1,height=0.1,label="" ];
n0_3 -> 7 [label="1.0"];
0 -> n0_4 [label="4:1.0: [contribute2_7]--[contribute1_0]",arrowhead="none"];
n0_4 [ shape=point,width=0.1,height=0.1,label="" ];
n0_4 -> 9 [label="1.0"];
0 -> n0_5 [label="5:1.0: [contribute2_7]--[contribute1_1]",arrowhead="none"];
n0_5 [ shape=point,width=0.1,height=0.1,label="" ];
n0_5 -> 11 [label="1.0"];
0 -> n0_6 [label="6:1.0: [contribute2_7]--[contribute1_2]",arrowhead="none"];
n0_6 [ shape=point,width=0.1,height=0.1,label="" ];
n0_6 -> 13 [label="1.0"];
0 -> n0_7 [label="7:1.0: [contribute2_7]--[contribute1_4]",arrowhead="none"];
n0_7 [ shape=point,width=0.1,height=0.1,label="" ];
n0_7 -> 15 [label="1.0"];
1 [label="1\n(7,10,10,10,0,1)"];
1 -> n1_0 [label="0:1.0: [update2]--[update1]",arrowhead="none"];
n1_0 [ shape=point,width=0.1,height=0.1,label="" ];
n1_0 -> 2 [label="1.0"];
2 [label="2\n(0,20,0,17,1,0)"];
2 -> n2_0 [label="0:Sat",arrowhead="none"];
n2_0 [ shape=point,width=0.1,height=0.1,label="" ];
n2_0 -> 2 [label="1.0"];
3 [label="3\n(4,10,10,10,0,1)"];
3 -> n3_0 [label="0:1.0: [update2]--[update1]",arrowhead="none"];
n3_0 [ shape=point,width=0.1,height=0.1,label="" ];
n3_0 -> 4 [label="1.0"];
4 [label="4\n(0,20,0,14,1,0)"];
4 -> n4_0 [label="0:Sat",arrowhead="none"];
n4_0 [ shape=point,width=0.1,height=0.1,label="" ];
n4_0 -> 4 [label="1.0"];
5 [label="5\n(8,10,10,10,0,1)"];
5 -> n5_0 [label="0:1.0: [update2]--[update1]",arrowhead="none"];
n5_0 [ shape=point,width=0.1,height=0.1,label="" ];
n5_0 -> 6 [label="1.0"];
6 [label="6\n(0,20,0,18,1,0)"];
6 -> n6_0 [label="0:Sat",arrowhead="none"];
n6_0 [ shape=point,width=0.1,height=0.1,label="" ];
n6_0 -> 6 [label="1.0"];
7 [label="7\n(10,10,10,10,0,1)"];
7 -> n7_0 [label="0:1.0: [update2]--[update1]",arrowhead="none"];
n7_0 [ shape=point,width=0.1,height=0.1,label="" ];
n7_0 -> 8 [label="1.0"];
8 [label="8\n(0,20,0,20,1,0)"];
8 -> n8_0 [label="0:Sat",arrowhead="none"];
n8_0 [ shape=point,width=0.1,height=0.1,label="" ];
n8_0 -> 8 [label="1.0"];
9 [label="9\n(0,10,10,10,0,1)"];
9 -> n9_0 [label="0:1.0: [update2]--[update1]",arrowhead="none"];
n9_0 [ shape=point,width=0.1,height=0.1,label="" ];
n9_0 -> 10 [label="1.0"];
10 [label="10\n(0,20,0,10,1,0)"];
10 -> n10_0 [label="0:Sat",arrowhead="none"];
n10_0 [ shape=point,width=0.1,height=0.1,label="" ];
n10_0 -> 10 [label="1.0"];
11 [label="11\n(1,10,10,10,0,1)"];
11 -> n11_0 [label="0:1.0: [update2]--[update1]",arrowhead="none"];
n11_0 [ shape=point,width=0.1,height=0.1,label="" ];
n11_0 -> 12 [label="1.0"];
12 [label="12\n(0,20,0,11,1,0)"];
12 -> n12_0 [label="0:Sat",arrowhead="none"];
n12_0 [ shape=point,width=0.1,height=0.1,label="" ];
n12_0 -> 12 [label="1.0"];
13 [label="13\n(2,10,10,10,0,1)"];
13 -> n13_0 [label="0:1.0: [update2]--[update1]",arrowhead="none"];
n13_0 [ shape=point,width=0.1,height=0.1,label="" ];
n13_0 -> 14 [label="1.0"];
14 [label="14\n(0,20,0,12,1,0)"];
14 -> n14_0 [label="0:Sat",arrowhead="none"];
n14_0 [ shape=point,width=0.1,height=0.1,label="" ];
n14_0 -> 14 [label="1.0"];
15 [label="15\n(5,10,10,10,0,1)"];
15 -> n15_0 [label="0:1.0: [update2]--[update1]",arrowhead="none"];
n15_0 [ shape=point,width=0.1,height=0.1,label="" ];
n15_0 -> 16 [label="1.0"];
16 [label="16\n(0,20,0,15,1,0)"];
16 -> n16_0 [label="0:Sat",arrowhead="none"];
n16_0 [ shape=point,width=0.1,height=0.1,label="" ];
n16_0 -> 16 [label="1.0"];
}

/*
 -- Transitions --  
17 24 24
0 0 1 1 1.0: [contribute2_7]--[contribute1_5]
0 1 3 1 1.0: [contribute2_7]--[contribute1_3]
0 2 5 1 1.0: [contribute2_7]--[contribute1_6]
0 3 7 1 1.0: [contribute2_7]--[contribute1_7]
0 4 9 1 1.0: [contribute2_7]--[contribute1_0]
0 5 11 1 1.0: [contribute2_7]--[contribute1_1]
0 6 13 1 1.0: [contribute2_7]--[contribute1_2]
0 7 15 1 1.0: [contribute2_7]--[contribute1_4]
1 0 2 1 1.0: [update2]--[update1]
2 0 2 1 Sat
3 0 4 1 1.0: [update2]--[update1]
4 0 4 1 Sat
5 0 6 1 1.0: [update2]--[update1]
6 0 6 1 Sat
7 0 8 1 1.0: [update2]--[update1]
8 0 8 1 Sat
9 0 10 1 1.0: [update2]--[update1]
10 0 10 1 Sat
11 0 12 1 1.0: [update2]--[update1]
12 0 12 1 Sat
13 0 14 1 1.0: [update2]--[update1]
14 0 14 1 Sat
15 0 16 1 1.0: [update2]--[update1]
16 0 16 1 Sat

 -- States --  
(c1,p1,c2,p2,rounds,s)
0:(0,10,0,10,0,0)
1:(7,10,10,10,0,1)
2:(0,20,0,17,1,0)
3:(4,10,10,10,0,1)
4:(0,20,0,14,1,0)
5:(8,10,10,10,0,1)
6:(0,20,0,18,1,0)
7:(10,10,10,10,0,1)
8:(0,20,0,20,1,0)
9:(0,10,10,10,0,1)
10:(0,20,0,10,1,0)
11:(1,10,10,10,0,1)
12:(0,20,0,11,1,0)
13:(2,10,10,10,0,1)
14:(0,20,0,12,1,0)
15:(5,10,10,10,0,1)
16:(0,20,0,15,1,0)
*/
