digraph MDP {
node [label="",shape="box"];
0 [label="0\n(0,10,0,10,0,0)"];
0 -> n0_0 [label="0:1.0: [contribute2_7]--[contribute1_5]",arrowhead="none"];
n0_0 [ shape=point,width=0.1,height=0.1,label="" ];
n0_0 -> 1 [label="1.0"];
0 -> n0_1 [label="1:1.0: [contribute2_7]--[contribute1_3]",arrowhead="none"];
n0_1 [ shape=point,width=0.1,height=0.1,label="" ];
n0_1 -> 19 [label="1.0"];
0 -> n0_2 [label="2:1.0: [contribute2_7]--[contribute1_6]",arrowhead="none"];
n0_2 [ shape=point,width=0.1,height=0.1,label="" ];
n0_2 -> 37 [label="1.0"];
0 -> n0_3 [label="3:1.0: [contribute2_7]--[contribute1_7]",arrowhead="none"];
n0_3 [ shape=point,width=0.1,height=0.1,label="" ];
n0_3 -> 55 [label="1.0"];
0 -> n0_4 [label="4:1.0: [contribute2_7]--[contribute1_0]",arrowhead="none"];
n0_4 [ shape=point,width=0.1,height=0.1,label="" ];
n0_4 -> 73 [label="1.0"];
0 -> n0_5 [label="5:1.0: [contribute2_7]--[contribute1_1]",arrowhead="none"];
n0_5 [ shape=point,width=0.1,height=0.1,label="" ];
n0_5 -> 91 [label="1.0"];
0 -> n0_6 [label="6:1.0: [contribute2_7]--[contribute1_2]",arrowhead="none"];
n0_6 [ shape=point,width=0.1,height=0.1,label="" ];
n0_6 -> 108 [label="1.0"];
0 -> n0_7 [label="7:1.0: [contribute2_7]--[contribute1_4]",arrowhead="none"];
n0_7 [ shape=point,width=0.1,height=0.1,label="" ];
n0_7 -> 122 [label="1.0"];
1 [label="1\n(7,10,10,10,0,1)"];
1 -> n1_0 [label="0:1.0: [update2]--[update1]",arrowhead="none"];
n1_0 [ shape=point,width=0.1,height=0.1,label="" ];
n1_0 -> 2 [label="1.0"];
2 [label="2\n(0,18,0,15,1,0)"];
2 -> n2_0 [label="0:1.0: [contribute2_7]--[contribute1_5]",arrowhead="none"];
n2_0 [ shape=point,width=0.1,height=0.1,label="" ];
n2_0 -> 3 [label="1.0"];
2 -> n2_1 [label="1:1.0: [contribute2_7]--[contribute1_3]",arrowhead="none"];
n2_1 [ shape=point,width=0.1,height=0.1,label="" ];
n2_1 -> 5 [label="1.0"];
2 -> n2_2 [label="2:1.0: [contribute2_7]--[contribute1_6]",arrowhead="none"];
n2_2 [ shape=point,width=0.1,height=0.1,label="" ];
n2_2 -> 7 [label="1.0"];
2 -> n2_3 [label="3:1.0: [contribute2_7]--[contribute1_7]",arrowhead="none"];
n2_3 [ shape=point,width=0.1,height=0.1,label="" ];
n2_3 -> 9 [label="1.0"];
2 -> n2_4 [label="4:1.0: [contribute2_7]--[contribute1_0]",arrowhead="none"];
n2_4 [ shape=point,width=0.1,height=0.1,label="" ];
n2_4 -> 11 [label="1.0"];
2 -> n2_5 [label="5:1.0: [contribute2_7]--[contribute1_1]",arrowhead="none"];
n2_5 [ shape=point,width=0.1,height=0.1,label="" ];
n2_5 -> 13 [label="1.0"];
2 -> n2_6 [label="6:1.0: [contribute2_7]--[contribute1_2]",arrowhead="none"];
n2_6 [ shape=point,width=0.1,height=0.1,label="" ];
n2_6 -> 15 [label="1.0"];
2 -> n2_7 [label="7:1.0: [contribute2_7]--[contribute1_4]",arrowhead="none"];
n2_7 [ shape=point,width=0.1,height=0.1,label="" ];
n2_7 -> 17 [label="1.0"];
3 [label="3\n(12,18,15,15,1,1)"];
3 -> n3_0 [label="0:1.0: [update2]--[update1]",arrowhead="none"];
n3_0 [ shape=point,width=0.1,height=0.1,label="" ];
n3_0 -> 4 [label="1.0"];
4 [label="4\n(0,30,0,24,2,0)"];
4 -> n4_0 [label="0:Sat",arrowhead="none"];
n4_0 [ shape=point,width=0.1,height=0.1,label="" ];
n4_0 -> 4 [label="1.0"];
5 [label="5\n(7,18,15,15,1,1)"];
5 -> n5_0 [label="0:1.0: [update2]--[update1]",arrowhead="none"];
n5_0 [ shape=point,width=0.1,height=0.1,label="" ];
n5_0 -> 6 [label="1.0"];
6 [label="6\n(0,31,0,20,2,0)"];
6 -> n6_0 [label="0:Sat",arrowhead="none"];
n6_0 [ shape=point,width=0.1,height=0.1,label="" ];
n6_0 -> 6 [label="1.0"];
7 [label="7\n(15,18,15,15,1,1)"];
7 -> n7_0 [label="0:1.0: [update2]--[update1]",arrowhead="none"];
n7_0 [ shape=point,width=0.1,height=0.1,label="" ];
n7_0 -> 8 [label="1.0"];
8 [label="8\n(0,30,0,27,2,0)"];
8 -> n8_0 [label="0:Sat",arrowhead="none"];
n8_0 [ shape=point,width=0.1,height=0.1,label="" ];
n8_0 -> 8 [label="1.0"];
9 [label="9\n(18,18,15,15,1,1)"];
9 -> n9_0 [label="0:1.0: [update2]--[update1]",arrowhead="none"];
n9_0 [ shape=point,width=0.1,height=0.1,label="" ];
n9_0 -> 10 [label="1.0"];
10 [label="10\n(0,30,0,30,2,0)"];
10 -> n10_0 [label="0:Sat",arrowhead="none"];
n10_0 [ shape=point,width=0.1,height=0.1,label="" ];
n10_0 -> 10 [label="1.0"];
11 [label="11\n(0,18,15,15,1,1)"];
11 -> n11_0 [label="0:1.0: [update2]--[update1]",arrowhead="none"];
n11_0 [ shape=point,width=0.1,height=0.1,label="" ];
n11_0 -> 12 [label="1.0"];
12 [label="12\n(0,31,0,13,2,0)"];
12 -> n12_0 [label="0:Sat",arrowhead="none"];
n12_0 [ shape=point,width=0.1,height=0.1,label="" ];
n12_0 -> 12 [label="1.0"];
13 [label="13\n(2,18,15,15,1,1)"];
13 -> n13_0 [label="0:1.0: [update2]--[update1]",arrowhead="none"];
n13_0 [ shape=point,width=0.1,height=0.1,label="" ];
n13_0 -> 14 [label="1.0"];
14 [label="14\n(0,31,0,15,2,0)"];
14 -> n14_0 [label="0:Sat",arrowhead="none"];
n14_0 [ shape=point,width=0.1,height=0.1,label="" ];
n14_0 -> 14 [label="1.0"];
15 [label="15\n(5,18,15,15,1,1)"];
15 -> n15_0 [label="0:1.0: [update2]--[update1]",arrowhead="none"];
n15_0 [ shape=point,width=0.1,height=0.1,label="" ];
n15_0 -> 16 [label="1.0"];
16 [label="16\n(0,31,0,18,2,0)"];
16 -> n16_0 [label="0:Sat",arrowhead="none"];
n16_0 [ shape=point,width=0.1,height=0.1,label="" ];
n16_0 -> 16 [label="1.0"];
17 [label="17\n(10,18,15,15,1,1)"];
17 -> n17_0 [label="0:1.0: [update2]--[update1]",arrowhead="none"];
n17_0 [ shape=point,width=0.1,height=0.1,label="" ];
n17_0 -> 18 [label="1.0"];
18 [label="18\n(0,31,0,23,2,0)"];
18 -> n18_0 [label="0:Sat",arrowhead="none"];
n18_0 [ shape=point,width=0.1,height=0.1,label="" ];
n18_0 -> 18 [label="1.0"];
19 [label="19\n(4,10,10,10,0,1)"];
19 -> n19_0 [label="0:1.0: [update2]--[update1]",arrowhead="none"];
n19_0 [ shape=point,width=0.1,height=0.1,label="" ];
n19_0 -> 20 [label="1.0"];
20 [label="20\n(0,18,0,12,1,0)"];
20 -> n20_0 [label="0:1.0: [contribute2_7]--[contribute1_5]",arrowhead="none"];
n20_0 [ shape=point,width=0.1,height=0.1,label="" ];
n20_0 -> 21 [label="1.0"];
20 -> n20_1 [label="1:1.0: [contribute2_7]--[contribute1_3]",arrowhead="none"];
n20_1 [ shape=point,width=0.1,height=0.1,label="" ];
n20_1 -> 23 [label="1.0"];
20 -> n20_2 [label="2:1.0: [contribute2_7]--[contribute1_6]",arrowhead="none"];
n20_2 [ shape=point,width=0.1,height=0.1,label="" ];
n20_2 -> 25 [label="1.0"];
20 -> n20_3 [label="3:1.0: [contribute2_7]--[contribute1_7]",arrowhead="none"];
n20_3 [ shape=point,width=0.1,height=0.1,label="" ];
n20_3 -> 27 [label="1.0"];
20 -> n20_4 [label="4:1.0: [contribute2_7]--[contribute1_0]",arrowhead="none"];
n20_4 [ shape=point,width=0.1,height=0.1,label="" ];
n20_4 -> 29 [label="1.0"];
20 -> n20_5 [label="5:1.0: [contribute2_7]--[contribute1_1]",arrowhead="none"];
n20_5 [ shape=point,width=0.1,height=0.1,label="" ];
n20_5 -> 31 [label="1.0"];
20 -> n20_6 [label="6:1.0: [contribute2_7]--[contribute1_2]",arrowhead="none"];
n20_6 [ shape=point,width=0.1,height=0.1,label="" ];
n20_6 -> 33 [label="1.0"];
20 -> n20_7 [label="7:1.0: [contribute2_7]--[contribute1_4]",arrowhead="none"];
n20_7 [ shape=point,width=0.1,height=0.1,label="" ];
n20_7 -> 35 [label="1.0"];
21 [label="21\n(12,18,12,12,1,1)"];
21 -> n21_0 [label="0:1.0: [update2]--[update1]",arrowhead="none"];
n21_0 [ shape=point,width=0.1,height=0.1,label="" ];
n21_0 -> 22 [label="1.0"];
22 [label="22\n(0,28,0,22,2,0)"];
22 -> n22_0 [label="0:Sat",arrowhead="none"];
n22_0 [ shape=point,width=0.1,height=0.1,label="" ];
n22_0 -> 22 [label="1.0"];
23 [label="23\n(7,18,12,12,1,1)"];
23 -> n23_0 [label="0:1.0: [update2]--[update1]",arrowhead="none"];
n23_0 [ shape=point,width=0.1,height=0.1,label="" ];
n23_0 -> 24 [label="1.0"];
24 [label="24\n(0,28,0,17,2,0)"];
24 -> n24_0 [label="0:Sat",arrowhead="none"];
n24_0 [ shape=point,width=0.1,height=0.1,label="" ];
n24_0 -> 24 [label="1.0"];
25 [label="25\n(15,18,12,12,1,1)"];
25 -> n25_0 [label="0:1.0: [update2]--[update1]",arrowhead="none"];
n25_0 [ shape=point,width=0.1,height=0.1,label="" ];
n25_0 -> 26 [label="1.0"];
26 [label="26\n(0,27,0,24,2,0)"];
26 -> n26_0 [label="0:Sat",arrowhead="none"];
n26_0 [ shape=point,width=0.1,height=0.1,label="" ];
n26_0 -> 26 [label="1.0"];
27 [label="27\n(18,18,12,12,1,1)"];
27 -> n27_0 [label="0:1.0: [update2]--[update1]",arrowhead="none"];
n27_0 [ shape=point,width=0.1,height=0.1,label="" ];
n27_0 -> 28 [label="1.0"];
28 [label="28\n(0,27,0,27,2,0)"];
28 -> n28_0 [label="0:Sat",arrowhead="none"];
n28_0 [ shape=point,width=0.1,height=0.1,label="" ];
n28_0 -> 28 [label="1.0"];
29 [label="29\n(0,18,12,12,1,1)"];
29 -> n29_0 [label="0:1.0: [update2]--[update1]",arrowhead="none"];
n29_0 [ shape=point,width=0.1,height=0.1,label="" ];
n29_0 -> 30 [label="1.0"];
30 [label="30\n(0,29,0,11,2,0)"];
30 -> n30_0 [label="0:Sat",arrowhead="none"];
n30_0 [ shape=point,width=0.1,height=0.1,label="" ];
n30_0 -> 30 [label="1.0"];
31 [label="31\n(2,18,12,12,1,1)"];
31 -> n31_0 [label="0:1.0: [update2]--[update1]",arrowhead="none"];
n31_0 [ shape=point,width=0.1,height=0.1,label="" ];
n31_0 -> 32 [label="1.0"];
32 [label="32\n(0,28,0,12,2,0)"];
32 -> n32_0 [label="0:Sat",arrowhead="none"];
n32_0 [ shape=point,width=0.1,height=0.1,label="" ];
n32_0 -> 32 [label="1.0"];
33 [label="33\n(5,18,12,12,1,1)"];
33 -> n33_0 [label="0:1.0: [update2]--[update1]",arrowhead="none"];
n33_0 [ shape=point,width=0.1,height=0.1,label="" ];
n33_0 -> 34 [label="1.0"];
34 [label="34\n(0,28,0,15,2,0)"];
34 -> n34_0 [label="0:Sat",arrowhead="none"];
n34_0 [ shape=point,width=0.1,height=0.1,label="" ];
n34_0 -> 34 [label="1.0"];
35 [label="35\n(10,18,12,12,1,1)"];
35 -> n35_0 [label="0:1.0: [update2]--[update1]",arrowhead="none"];
n35_0 [ shape=point,width=0.1,height=0.1,label="" ];
n35_0 -> 36 [label="1.0"];
36 [label="36\n(0,28,0,20,2,0)"];
36 -> n36_0 [label="0:Sat",arrowhead="none"];
n36_0 [ shape=point,width=0.1,height=0.1,label="" ];
n36_0 -> 36 [label="1.0"];
37 [label="37\n(8,10,10,10,0,1)"];
37 -> n37_0 [label="0:1.0: [update2]--[update1]",arrowhead="none"];
n37_0 [ shape=point,width=0.1,height=0.1,label="" ];
n37_0 -> 38 [label="1.0"];
38 [label="38\n(0,18,0,16,1,0)"];
38 -> n38_0 [label="0:1.0: [contribute2_7]--[contribute1_5]",arrowhead="none"];
n38_0 [ shape=point,width=0.1,height=0.1,label="" ];
n38_0 -> 39 [label="1.0"];
38 -> n38_1 [label="1:1.0: [contribute2_7]--[contribute1_3]",arrowhead="none"];
n38_1 [ shape=point,width=0.1,height=0.1,label="" ];
n38_1 -> 41 [label="1.0"];
38 -> n38_2 [label="2:1.0: [contribute2_7]--[contribute1_6]",arrowhead="none"];
n38_2 [ shape=point,width=0.1,height=0.1,label="" ];
n38_2 -> 43 [label="1.0"];
38 -> n38_3 [label="3:1.0: [contribute2_7]--[contribute1_7]",arrowhead="none"];
n38_3 [ shape=point,width=0.1,height=0.1,label="" ];
n38_3 -> 45 [label="1.0"];
38 -> n38_4 [label="4:1.0: [contribute2_7]--[contribute1_0]",arrowhead="none"];
n38_4 [ shape=point,width=0.1,height=0.1,label="" ];
n38_4 -> 47 [label="1.0"];
38 -> n38_5 [label="5:1.0: [contribute2_7]--[contribute1_1]",arrowhead="none"];
n38_5 [ shape=point,width=0.1,height=0.1,label="" ];
n38_5 -> 49 [label="1.0"];
38 -> n38_6 [label="6:1.0: [contribute2_7]--[contribute1_2]",arrowhead="none"];
n38_6 [ shape=point,width=0.1,height=0.1,label="" ];
n38_6 -> 51 [label="1.0"];
38 -> n38_7 [label="7:1.0: [contribute2_7]--[contribute1_4]",arrowhead="none"];
n38_7 [ shape=point,width=0.1,height=0.1,label="" ];
n38_7 -> 53 [label="1.0"];
39 [label="39\n(12,18,16,16,1,1)"];
39 -> n39_0 [label="0:1.0: [update2]--[update1]",arrowhead="none"];
n39_0 [ shape=point,width=0.1,height=0.1,label="" ];
n39_0 -> 40 [label="1.0"];
40 [label="40\n(0,31,0,25,2,0)"];
40 -> n40_0 [label="0:Sat",arrowhead="none"];
n40_0 [ shape=point,width=0.1,height=0.1,label="" ];
n40_0 -> 40 [label="1.0"];
41 [label="41\n(7,18,16,16,1,1)"];
41 -> n41_0 [label="0:1.0: [update2]--[update1]",arrowhead="none"];
n41_0 [ shape=point,width=0.1,height=0.1,label="" ];
n41_0 -> 42 [label="1.0"];
42 [label="42\n(0,32,0,21,2,0)"];
42 -> n42_0 [label="0:Sat",arrowhead="none"];
n42_0 [ shape=point,width=0.1,height=0.1,label="" ];
n42_0 -> 42 [label="1.0"];
43 [label="43\n(15,18,16,16,1,1)"];
43 -> n43_0 [label="0:1.0: [update2]--[update1]",arrowhead="none"];
n43_0 [ shape=point,width=0.1,height=0.1,label="" ];
n43_0 -> 44 [label="1.0"];
44 [label="44\n(0,31,0,28,2,0)"];
44 -> n44_0 [label="0:Sat",arrowhead="none"];
n44_0 [ shape=point,width=0.1,height=0.1,label="" ];
n44_0 -> 44 [label="1.0"];
45 [label="45\n(18,18,16,16,1,1)"];
45 -> n45_0 [label="0:1.0: [update2]--[update1]",arrowhead="none"];
n45_0 [ shape=point,width=0.1,height=0.1,label="" ];
n45_0 -> 46 [label="1.0"];
46 [label="46\n(0,31,0,31,2,0)"];
46 -> n46_0 [label="0:Sat",arrowhead="none"];
n46_0 [ shape=point,width=0.1,height=0.1,label="" ];
n46_0 -> 46 [label="1.0"];
47 [label="47\n(0,18,16,16,1,1)"];
47 -> n47_0 [label="0:1.0: [update2]--[update1]",arrowhead="none"];
n47_0 [ shape=point,width=0.1,height=0.1,label="" ];
n47_0 -> 48 [label="1.0"];
48 [label="48\n(0,32,0,14,2,0)"];
48 -> n48_0 [label="0:Sat",arrowhead="none"];
n48_0 [ shape=point,width=0.1,height=0.1,label="" ];
n48_0 -> 48 [label="1.0"];
49 [label="49\n(2,18,16,16,1,1)"];
49 -> n49_0 [label="0:1.0: [update2]--[update1]",arrowhead="none"];
n49_0 [ shape=point,width=0.1,height=0.1,label="" ];
n49_0 -> 50 [label="1.0"];
50 [label="50\n(0,32,0,16,2,0)"];
50 -> n50_0 [label="0:Sat",arrowhead="none"];
n50_0 [ shape=point,width=0.1,height=0.1,label="" ];
n50_0 -> 50 [label="1.0"];
51 [label="51\n(5,18,16,16,1,1)"];
51 -> n51_0 [label="0:1.0: [update2]--[update1]",arrowhead="none"];
n51_0 [ shape=point,width=0.1,height=0.1,label="" ];
n51_0 -> 52 [label="1.0"];
52 [label="52\n(0,32,0,19,2,0)"];
52 -> n52_0 [label="0:Sat",arrowhead="none"];
n52_0 [ shape=point,width=0.1,height=0.1,label="" ];
n52_0 -> 52 [label="1.0"];
53 [label="53\n(10,18,16,16,1,1)"];
53 -> n53_0 [label="0:1.0: [update2]--[update1]",arrowhead="none"];
n53_0 [ shape=point,width=0.1,height=0.1,label="" ];
n53_0 -> 54 [label="1.0"];
54 [label="54\n(0,32,0,24,2,0)"];
54 -> n54_0 [label="0:Sat",arrowhead="none"];
n54_0 [ shape=point,width=0.1,height=0.1,label="" ];
n54_0 -> 54 [label="1.0"];
55 [label="55\n(10,10,10,10,0,1)"];
55 -> n55_0 [label="0:1.0: [update2]--[update1]",arrowhead="none"];
n55_0 [ shape=point,width=0.1,height=0.1,label="" ];
n55_0 -> 56 [label="1.0"];
56 [label="56\n(0,18,0,18,1,0)"];
56 -> n56_0 [label="0:1.0: [contribute2_7]--[contribute1_5]",arrowhead="none"];
n56_0 [ shape=point,width=0.1,height=0.1,label="" ];
n56_0 -> 57 [label="1.0"];
56 -> n56_1 [label="1:1.0: [contribute2_7]--[contribute1_3]",arrowhead="none"];
n56_1 [ shape=point,width=0.1,height=0.1,label="" ];
n56_1 -> 59 [label="1.0"];
56 -> n56_2 [label="2:1.0: [contribute2_7]--[contribute1_6]",arrowhead="none"];
n56_2 [ shape=point,width=0.1,height=0.1,label="" ];
n56_2 -> 61 [label="1.0"];
56 -> n56_3 [label="3:1.0: [contribute2_7]--[contribute1_7]",arrowhead="none"];
n56_3 [ shape=point,width=0.1,height=0.1,label="" ];
n56_3 -> 63 [label="1.0"];
56 -> n56_4 [label="4:1.0: [contribute2_7]--[contribute1_0]",arrowhead="none"];
n56_4 [ shape=point,width=0.1,height=0.1,label="" ];
n56_4 -> 65 [label="1.0"];
56 -> n56_5 [label="5:1.0: [contribute2_7]--[contribute1_1]",arrowhead="none"];
n56_5 [ shape=point,width=0.1,height=0.1,label="" ];
n56_5 -> 67 [label="1.0"];
56 -> n56_6 [label="6:1.0: [contribute2_7]--[contribute1_2]",arrowhead="none"];
n56_6 [ shape=point,width=0.1,height=0.1,label="" ];
n56_6 -> 69 [label="1.0"];
56 -> n56_7 [label="7:1.0: [contribute2_7]--[contribute1_4]",arrowhead="none"];
n56_7 [ shape=point,width=0.1,height=0.1,label="" ];
n56_7 -> 71 [label="1.0"];
57 [label="57\n(12,18,18,18,1,1)"];
57 -> n57_0 [label="0:1.0: [update2]--[update1]",arrowhead="none"];
n57_0 [ shape=point,width=0.1,height=0.1,label="" ];
n57_0 -> 58 [label="1.0"];
58 [label="58\n(0,33,0,27,2,0)"];
58 -> n58_0 [label="0:Sat",arrowhead="none"];
n58_0 [ shape=point,width=0.1,height=0.1,label="" ];
n58_0 -> 58 [label="1.0"];
59 [label="59\n(7,18,18,18,1,1)"];
59 -> n59_0 [label="0:1.0: [update2]--[update1]",arrowhead="none"];
n59_0 [ shape=point,width=0.1,height=0.1,label="" ];
n59_0 -> 60 [label="1.0"];
60 [label="60\n(0,34,0,23,2,0)"];
60 -> n60_0 [label="0:Sat",arrowhead="none"];
n60_0 [ shape=point,width=0.1,height=0.1,label="" ];
n60_0 -> 60 [label="1.0"];
61 [label="61\n(15,18,18,18,1,1)"];
61 -> n61_0 [label="0:1.0: [update2]--[update1]",arrowhead="none"];
n61_0 [ shape=point,width=0.1,height=0.1,label="" ];
n61_0 -> 62 [label="1.0"];
62 [label="62\n(0,33,0,30,2,0)"];
62 -> n62_0 [label="0:Sat",arrowhead="none"];
n62_0 [ shape=point,width=0.1,height=0.1,label="" ];
n62_0 -> 62 [label="1.0"];
63 [label="63\n(18,18,18,18,1,1)"];
63 -> n63_0 [label="0:1.0: [update2]--[update1]",arrowhead="none"];
n63_0 [ shape=point,width=0.1,height=0.1,label="" ];
n63_0 -> 64 [label="1.0"];
64 [label="64\n(0,33,0,33,2,0)"];
64 -> n64_0 [label="0:Sat",arrowhead="none"];
n64_0 [ shape=point,width=0.1,height=0.1,label="" ];
n64_0 -> 64 [label="1.0"];
65 [label="65\n(0,18,18,18,1,1)"];
65 -> n65_0 [label="0:1.0: [update2]--[update1]",arrowhead="none"];
n65_0 [ shape=point,width=0.1,height=0.1,label="" ];
n65_0 -> 66 [label="1.0"];
66 [label="66\n(0,34,0,16,2,0)"];
66 -> n66_0 [label="0:Sat",arrowhead="none"];
n66_0 [ shape=point,width=0.1,height=0.1,label="" ];
n66_0 -> 66 [label="1.0"];
67 [label="67\n(2,18,18,18,1,1)"];
67 -> n67_0 [label="0:1.0: [update2]--[update1]",arrowhead="none"];
n67_0 [ shape=point,width=0.1,height=0.1,label="" ];
n67_0 -> 68 [label="1.0"];
68 [label="68\n(0,34,0,18,2,0)"];
68 -> n68_0 [label="0:Sat",arrowhead="none"];
n68_0 [ shape=point,width=0.1,height=0.1,label="" ];
n68_0 -> 68 [label="1.0"];
69 [label="69\n(5,18,18,18,1,1)"];
69 -> n69_0 [label="0:1.0: [update2]--[update1]",arrowhead="none"];
n69_0 [ shape=point,width=0.1,height=0.1,label="" ];
n69_0 -> 70 [label="1.0"];
70 [label="70\n(0,34,0,21,2,0)"];
70 -> n70_0 [label="0:Sat",arrowhead="none"];
n70_0 [ shape=point,width=0.1,height=0.1,label="" ];
n70_0 -> 70 [label="1.0"];
71 [label="71\n(10,18,18,18,1,1)"];
71 -> n71_0 [label="0:1.0: [update2]--[update1]",arrowhead="none"];
n71_0 [ shape=point,width=0.1,height=0.1,label="" ];
n71_0 -> 72 [label="1.0"];
72 [label="72\n(0,33,0,25,2,0)"];
72 -> n72_0 [label="0:Sat",arrowhead="none"];
n72_0 [ shape=point,width=0.1,height=0.1,label="" ];
n72_0 -> 72 [label="1.0"];
73 [label="73\n(0,10,10,10,0,1)"];
73 -> n73_0 [label="0:1.0: [update2]--[update1]",arrowhead="none"];
n73_0 [ shape=point,width=0.1,height=0.1,label="" ];
n73_0 -> 74 [label="1.0"];
74 [label="74\n(0,19,0,9,1,0)"];
74 -> n74_0 [label="0:1.0: [contribute2_7]--[contribute1_5]",arrowhead="none"];
n74_0 [ shape=point,width=0.1,height=0.1,label="" ];
n74_0 -> 75 [label="1.0"];
74 -> n74_1 [label="1:1.0: [contribute2_7]--[contribute1_3]",arrowhead="none"];
n74_1 [ shape=point,width=0.1,height=0.1,label="" ];
n74_1 -> 77 [label="1.0"];
74 -> n74_2 [label="2:1.0: [contribute2_7]--[contribute1_6]",arrowhead="none"];
n74_2 [ shape=point,width=0.1,height=0.1,label="" ];
n74_2 -> 79 [label="1.0"];
74 -> n74_3 [label="3:1.0: [contribute2_7]--[contribute1_7]",arrowhead="none"];
n74_3 [ shape=point,width=0.1,height=0.1,label="" ];
n74_3 -> 81 [label="1.0"];
74 -> n74_4 [label="4:1.0: [contribute2_7]--[contribute1_0]",arrowhead="none"];
n74_4 [ shape=point,width=0.1,height=0.1,label="" ];
n74_4 -> 83 [label="1.0"];
74 -> n74_5 [label="5:1.0: [contribute2_7]--[contribute1_1]",arrowhead="none"];
n74_5 [ shape=point,width=0.1,height=0.1,label="" ];
n74_5 -> 85 [label="1.0"];
74 -> n74_6 [label="6:1.0: [contribute2_7]--[contribute1_2]",arrowhead="none"];
n74_6 [ shape=point,width=0.1,height=0.1,label="" ];
n74_6 -> 87 [label="1.0"];
74 -> n74_7 [label="7:1.0: [contribute2_7]--[contribute1_4]",arrowhead="none"];
n74_7 [ shape=point,width=0.1,height=0.1,label="" ];
n74_7 -> 89 [label="1.0"];
75 [label="75\n(13,19,9,9,1,1)"];
75 -> n75_0 [label="0:1.0: [update2]--[update1]",arrowhead="none"];
n75_0 [ shape=point,width=0.1,height=0.1,label="" ];
n75_0 -> 76 [label="1.0"];
76 [label="76\n(0,26,0,20,2,0)"];
76 -> n76_0 [label="0:Sat",arrowhead="none"];
n76_0 [ shape=point,width=0.1,height=0.1,label="" ];
n76_0 -> 76 [label="1.0"];
77 [label="77\n(8,19,9,9,1,1)"];
77 -> n77_0 [label="0:1.0: [update2]--[update1]",arrowhead="none"];
n77_0 [ shape=point,width=0.1,height=0.1,label="" ];
n77_0 -> 78 [label="1.0"];
78 [label="78\n(0,26,0,15,2,0)"];
78 -> n78_0 [label="0:Sat",arrowhead="none"];
n78_0 [ shape=point,width=0.1,height=0.1,label="" ];
n78_0 -> 78 [label="1.0"];
79 [label="79\n(16,19,9,9,1,1)"];
79 -> n79_0 [label="0:1.0: [update2]--[update1]",arrowhead="none"];
n79_0 [ shape=point,width=0.1,height=0.1,label="" ];
n79_0 -> 80 [label="1.0"];
80 [label="80\n(0,26,0,23,2,0)"];
80 -> n80_0 [label="0:Sat",arrowhead="none"];
n80_0 [ shape=point,width=0.1,height=0.1,label="" ];
n80_0 -> 80 [label="1.0"];
81 [label="81\n(19,19,9,9,1,1)"];
81 -> n81_0 [label="0:1.0: [update2]--[update1]",arrowhead="none"];
n81_0 [ shape=point,width=0.1,height=0.1,label="" ];
n81_0 -> 82 [label="1.0"];
82 [label="82\n(0,25,0,25,2,0)"];
82 -> n82_0 [label="0:Sat",arrowhead="none"];
n82_0 [ shape=point,width=0.1,height=0.1,label="" ];
n82_0 -> 82 [label="1.0"];
83 [label="83\n(0,19,9,9,1,1)"];
83 -> n83_0 [label="0:1.0: [update2]--[update1]",arrowhead="none"];
n83_0 [ shape=point,width=0.1,height=0.1,label="" ];
n83_0 -> 84 [label="1.0"];
84 [label="84\n(0,27,0,8,2,0)"];
84 -> n84_0 [label="0:Sat",arrowhead="none"];
n84_0 [ shape=point,width=0.1,height=0.1,label="" ];
n84_0 -> 84 [label="1.0"];
85 [label="85\n(2,19,9,9,1,1)"];
85 -> n85_0 [label="0:1.0: [update2]--[update1]",arrowhead="none"];
n85_0 [ shape=point,width=0.1,height=0.1,label="" ];
n85_0 -> 86 [label="1.0"];
86 [label="86\n(0,27,0,10,2,0)"];
86 -> n86_0 [label="0:Sat",arrowhead="none"];
n86_0 [ shape=point,width=0.1,height=0.1,label="" ];
n86_0 -> 86 [label="1.0"];
87 [label="87\n(5,19,9,9,1,1)"];
87 -> n87_0 [label="0:1.0: [update2]--[update1]",arrowhead="none"];
n87_0 [ shape=point,width=0.1,height=0.1,label="" ];
n87_0 -> 88 [label="1.0"];
88 [label="88\n(0,26,0,12,2,0)"];
88 -> n88_0 [label="0:Sat",arrowhead="none"];
n88_0 [ shape=point,width=0.1,height=0.1,label="" ];
n88_0 -> 88 [label="1.0"];
89 [label="89\n(10,19,9,9,1,1)"];
89 -> n89_0 [label="0:1.0: [update2]--[update1]",arrowhead="none"];
n89_0 [ shape=point,width=0.1,height=0.1,label="" ];
n89_0 -> 90 [label="1.0"];
90 [label="90\n(0,26,0,17,2,0)"];
90 -> n90_0 [label="0:Sat",arrowhead="none"];
n90_0 [ shape=point,width=0.1,height=0.1,label="" ];
n90_0 -> 90 [label="1.0"];
91 [label="91\n(1,10,10,10,0,1)"];
91 -> n91_0 [label="0:1.0: [update2]--[update1]",arrowhead="none"];
n91_0 [ shape=point,width=0.1,height=0.1,label="" ];
n91_0 -> 92 [label="1.0"];
92 [label="92\n(0,19,0,10,1,0)"];
92 -> n92_0 [label="0:1.0: [contribute2_7]--[contribute1_5]",arrowhead="none"];
n92_0 [ shape=point,width=0.1,height=0.1,label="" ];
n92_0 -> 93 [label="1.0"];
92 -> n92_1 [label="1:1.0: [contribute2_7]--[contribute1_3]",arrowhead="none"];
n92_1 [ shape=point,width=0.1,height=0.1,label="" ];
n92_1 -> 95 [label="1.0"];
92 -> n92_2 [label="2:1.0: [contribute2_7]--[contribute1_6]",arrowhead="none"];
n92_2 [ shape=point,width=0.1,height=0.1,label="" ];
n92_2 -> 97 [label="1.0"];
92 -> n92_3 [label="3:1.0: [contribute2_7]--[contribute1_7]",arrowhead="none"];
n92_3 [ shape=point,width=0.1,height=0.1,label="" ];
n92_3 -> 98 [label="1.0"];
92 -> n92_4 [label="4:1.0: [contribute2_7]--[contribute1_0]",arrowhead="none"];
n92_4 [ shape=point,width=0.1,height=0.1,label="" ];
n92_4 -> 100 [label="1.0"];
92 -> n92_5 [label="5:1.0: [contribute2_7]--[contribute1_1]",arrowhead="none"];
n92_5 [ shape=point,width=0.1,height=0.1,label="" ];
n92_5 -> 102 [label="1.0"];
92 -> n92_6 [label="6:1.0: [contribute2_7]--[contribute1_2]",arrowhead="none"];
n92_6 [ shape=point,width=0.1,height=0.1,label="" ];
n92_6 -> 104 [label="1.0"];
92 -> n92_7 [label="7:1.0: [contribute2_7]--[contribute1_4]",arrowhead="none"];
n92_7 [ shape=point,width=0.1,height=0.1,label="" ];
n92_7 -> 106 [label="1.0"];
93 [label="93\n(13,19,10,10,1,1)"];
93 -> n93_0 [label="0:1.0: [update2]--[update1]",arrowhead="none"];
n93_0 [ shape=point,width=0.1,height=0.1,label="" ];
n93_0 -> 94 [label="1.0"];
94 [label="94\n(0,27,0,21,2,0)"];
94 -> n94_0 [label="0:Sat",arrowhead="none"];
n94_0 [ shape=point,width=0.1,height=0.1,label="" ];
n94_0 -> 94 [label="1.0"];
95 [label="95\n(8,19,10,10,1,1)"];
95 -> n95_0 [label="0:1.0: [update2]--[update1]",arrowhead="none"];
n95_0 [ shape=point,width=0.1,height=0.1,label="" ];
n95_0 -> 96 [label="1.0"];
96 [label="96\n(0,27,0,16,2,0)"];
96 -> n96_0 [label="0:Sat",arrowhead="none"];
n96_0 [ shape=point,width=0.1,height=0.1,label="" ];
n96_0 -> 96 [label="1.0"];
97 [label="97\n(16,19,10,10,1,1)"];
97 -> n97_0 [label="0:1.0: [update2]--[update1]",arrowhead="none"];
n97_0 [ shape=point,width=0.1,height=0.1,label="" ];
n97_0 -> 26 [label="1.0"];
98 [label="98\n(19,19,10,10,1,1)"];
98 -> n98_0 [label="0:1.0: [update2]--[update1]",arrowhead="none"];
n98_0 [ shape=point,width=0.1,height=0.1,label="" ];
n98_0 -> 99 [label="1.0"];
99 [label="99\n(0,26,0,26,2,0)"];
99 -> n99_0 [label="0:Sat",arrowhead="none"];
n99_0 [ shape=point,width=0.1,height=0.1,label="" ];
n99_0 -> 99 [label="1.0"];
100 [label="100\n(0,19,10,10,1,1)"];
100 -> n100_0 [label="0:1.0: [update2]--[update1]",arrowhead="none"];
n100_0 [ shape=point,width=0.1,height=0.1,label="" ];
n100_0 -> 101 [label="1.0"];
101 [label="101\n(0,28,0,9,2,0)"];
101 -> n101_0 [label="0:Sat",arrowhead="none"];
n101_0 [ shape=point,width=0.1,height=0.1,label="" ];
n101_0 -> 101 [label="1.0"];
102 [label="102\n(2,19,10,10,1,1)"];
102 -> n102_0 [label="0:1.0: [update2]--[update1]",arrowhead="none"];
n102_0 [ shape=point,width=0.1,height=0.1,label="" ];
n102_0 -> 103 [label="1.0"];
103 [label="103\n(0,28,0,11,2,0)"];
103 -> n103_0 [label="0:Sat",arrowhead="none"];
n103_0 [ shape=point,width=0.1,height=0.1,label="" ];
n103_0 -> 103 [label="1.0"];
104 [label="104\n(5,19,10,10,1,1)"];
104 -> n104_0 [label="0:1.0: [update2]--[update1]",arrowhead="none"];
n104_0 [ shape=point,width=0.1,height=0.1,label="" ];
n104_0 -> 105 [label="1.0"];
105 [label="105\n(0,27,0,13,2,0)"];
105 -> n105_0 [label="0:Sat",arrowhead="none"];
n105_0 [ shape=point,width=0.1,height=0.1,label="" ];
n105_0 -> 105 [label="1.0"];
106 [label="106\n(10,19,10,10,1,1)"];
106 -> n106_0 [label="0:1.0: [update2]--[update1]",arrowhead="none"];
n106_0 [ shape=point,width=0.1,height=0.1,label="" ];
n106_0 -> 107 [label="1.0"];
107 [label="107\n(0,27,0,18,2,0)"];
107 -> n107_0 [label="0:Sat",arrowhead="none"];
n107_0 [ shape=point,width=0.1,height=0.1,label="" ];
n107_0 -> 107 [label="1.0"];
108 [label="108\n(2,10,10,10,0,1)"];
108 -> n108_0 [label="0:1.0: [update2]--[update1]",arrowhead="none"];
n108_0 [ shape=point,width=0.1,height=0.1,label="" ];
n108_0 -> 109 [label="1.0"];
109 [label="109\n(0,19,0,11,1,0)"];
109 -> n109_0 [label="0:1.0: [contribute2_7]--[contribute1_5]",arrowhead="none"];
n109_0 [ shape=point,width=0.1,height=0.1,label="" ];
n109_0 -> 110 [label="1.0"];
109 -> n109_1 [label="1:1.0: [contribute2_7]--[contribute1_3]",arrowhead="none"];
n109_1 [ shape=point,width=0.1,height=0.1,label="" ];
n109_1 -> 111 [label="1.0"];
109 -> n109_2 [label="2:1.0: [contribute2_7]--[contribute1_6]",arrowhead="none"];
n109_2 [ shape=point,width=0.1,height=0.1,label="" ];
n109_2 -> 112 [label="1.0"];
109 -> n109_3 [label="3:1.0: [contribute2_7]--[contribute1_7]",arrowhead="none"];
n109_3 [ shape=point,width=0.1,height=0.1,label="" ];
n109_3 -> 113 [label="1.0"];
109 -> n109_4 [label="4:1.0: [contribute2_7]--[contribute1_0]",arrowhead="none"];
n109_4 [ shape=point,width=0.1,height=0.1,label="" ];
n109_4 -> 114 [label="1.0"];
109 -> n109_5 [label="5:1.0: [contribute2_7]--[contribute1_1]",arrowhead="none"];
n109_5 [ shape=point,width=0.1,height=0.1,label="" ];
n109_5 -> 116 [label="1.0"];
109 -> n109_6 [label="6:1.0: [contribute2_7]--[contribute1_2]",arrowhead="none"];
n109_6 [ shape=point,width=0.1,height=0.1,label="" ];
n109_6 -> 118 [label="1.0"];
109 -> n109_7 [label="7:1.0: [contribute2_7]--[contribute1_4]",arrowhead="none"];
n109_7 [ shape=point,width=0.1,height=0.1,label="" ];
n109_7 -> 120 [label="1.0"];
110 [label="110\n(13,19,11,11,1,1)"];
110 -> n110_0 [label="0:1.0: [update2]--[update1]",arrowhead="none"];
n110_0 [ shape=point,width=0.1,height=0.1,label="" ];
n110_0 -> 22 [label="1.0"];
111 [label="111\n(8,19,11,11,1,1)"];
111 -> n111_0 [label="0:1.0: [update2]--[update1]",arrowhead="none"];
n111_0 [ shape=point,width=0.1,height=0.1,label="" ];
n111_0 -> 24 [label="1.0"];
112 [label="112\n(16,19,11,11,1,1)"];
112 -> n112_0 [label="0:1.0: [update2]--[update1]",arrowhead="none"];
n112_0 [ shape=point,width=0.1,height=0.1,label="" ];
n112_0 -> 26 [label="1.0"];
113 [label="113\n(19,19,11,11,1,1)"];
113 -> n113_0 [label="0:1.0: [update2]--[update1]",arrowhead="none"];
n113_0 [ shape=point,width=0.1,height=0.1,label="" ];
n113_0 -> 28 [label="1.0"];
114 [label="114\n(0,19,11,11,1,1)"];
114 -> n114_0 [label="0:1.0: [update2]--[update1]",arrowhead="none"];
n114_0 [ shape=point,width=0.1,height=0.1,label="" ];
n114_0 -> 115 [label="1.0"];
115 [label="115\n(0,29,0,10,2,0)"];
115 -> n115_0 [label="0:Sat",arrowhead="none"];
n115_0 [ shape=point,width=0.1,height=0.1,label="" ];
n115_0 -> 115 [label="1.0"];
116 [label="116\n(2,19,11,11,1,1)"];
116 -> n116_0 [label="0:1.0: [update2]--[update1]",arrowhead="none"];
n116_0 [ shape=point,width=0.1,height=0.1,label="" ];
n116_0 -> 117 [label="1.0"];
117 [label="117\n(0,29,0,12,2,0)"];
117 -> n117_0 [label="0:Sat",arrowhead="none"];
n117_0 [ shape=point,width=0.1,height=0.1,label="" ];
n117_0 -> 117 [label="1.0"];
118 [label="118\n(5,19,11,11,1,1)"];
118 -> n118_0 [label="0:1.0: [update2]--[update1]",arrowhead="none"];
n118_0 [ shape=point,width=0.1,height=0.1,label="" ];
n118_0 -> 119 [label="1.0"];
119 [label="119\n(0,28,0,14,2,0)"];
119 -> n119_0 [label="0:Sat",arrowhead="none"];
n119_0 [ shape=point,width=0.1,height=0.1,label="" ];
n119_0 -> 119 [label="1.0"];
120 [label="120\n(10,19,11,11,1,1)"];
120 -> n120_0 [label="0:1.0: [update2]--[update1]",arrowhead="none"];
n120_0 [ shape=point,width=0.1,height=0.1,label="" ];
n120_0 -> 121 [label="1.0"];
121 [label="121\n(0,28,0,19,2,0)"];
121 -> n121_0 [label="0:Sat",arrowhead="none"];
n121_0 [ shape=point,width=0.1,height=0.1,label="" ];
n121_0 -> 121 [label="1.0"];
122 [label="122\n(5,10,10,10,0,1)"];
122 -> n122_0 [label="0:1.0: [update2]--[update1]",arrowhead="none"];
n122_0 [ shape=point,width=0.1,height=0.1,label="" ];
n122_0 -> 123 [label="1.0"];
123 [label="123\n(0,18,0,13,1,0)"];
123 -> n123_0 [label="0:1.0: [contribute2_7]--[contribute1_5]",arrowhead="none"];
n123_0 [ shape=point,width=0.1,height=0.1,label="" ];
n123_0 -> 124 [label="1.0"];
123 -> n123_1 [label="1:1.0: [contribute2_7]--[contribute1_3]",arrowhead="none"];
n123_1 [ shape=point,width=0.1,height=0.1,label="" ];
n123_1 -> 126 [label="1.0"];
123 -> n123_2 [label="2:1.0: [contribute2_7]--[contribute1_6]",arrowhead="none"];
n123_2 [ shape=point,width=0.1,height=0.1,label="" ];
n123_2 -> 128 [label="1.0"];
123 -> n123_3 [label="3:1.0: [contribute2_7]--[contribute1_7]",arrowhead="none"];
n123_3 [ shape=point,width=0.1,height=0.1,label="" ];
n123_3 -> 130 [label="1.0"];
123 -> n123_4 [label="4:1.0: [contribute2_7]--[contribute1_0]",arrowhead="none"];
n123_4 [ shape=point,width=0.1,height=0.1,label="" ];
n123_4 -> 132 [label="1.0"];
123 -> n123_5 [label="5:1.0: [contribute2_7]--[contribute1_1]",arrowhead="none"];
n123_5 [ shape=point,width=0.1,height=0.1,label="" ];
n123_5 -> 134 [label="1.0"];
123 -> n123_6 [label="6:1.0: [contribute2_7]--[contribute1_2]",arrowhead="none"];
n123_6 [ shape=point,width=0.1,height=0.1,label="" ];
n123_6 -> 136 [label="1.0"];
123 -> n123_7 [label="7:1.0: [contribute2_7]--[contribute1_4]",arrowhead="none"];
n123_7 [ shape=point,width=0.1,height=0.1,label="" ];
n123_7 -> 138 [label="1.0"];
124 [label="124\n(12,18,13,13,1,1)"];
124 -> n124_0 [label="0:1.0: [update2]--[update1]",arrowhead="none"];
n124_0 [ shape=point,width=0.1,height=0.1,label="" ];
n124_0 -> 125 [label="1.0"];
125 [label="125\n(0,29,0,23,2,0)"];
125 -> n125_0 [label="0:Sat",arrowhead="none"];
n125_0 [ shape=point,width=0.1,height=0.1,label="" ];
n125_0 -> 125 [label="1.0"];
126 [label="126\n(7,18,13,13,1,1)"];
126 -> n126_0 [label="0:1.0: [update2]--[update1]",arrowhead="none"];
n126_0 [ shape=point,width=0.1,height=0.1,label="" ];
n126_0 -> 127 [label="1.0"];
127 [label="127\n(0,29,0,18,2,0)"];
127 -> n127_0 [label="0:Sat",arrowhead="none"];
n127_0 [ shape=point,width=0.1,height=0.1,label="" ];
n127_0 -> 127 [label="1.0"];
128 [label="128\n(15,18,13,13,1,1)"];
128 -> n128_0 [label="0:1.0: [update2]--[update1]",arrowhead="none"];
n128_0 [ shape=point,width=0.1,height=0.1,label="" ];
n128_0 -> 129 [label="1.0"];
129 [label="129\n(0,28,0,25,2,0)"];
129 -> n129_0 [label="0:Sat",arrowhead="none"];
n129_0 [ shape=point,width=0.1,height=0.1,label="" ];
n129_0 -> 129 [label="1.0"];
130 [label="130\n(18,18,13,13,1,1)"];
130 -> n130_0 [label="0:1.0: [update2]--[update1]",arrowhead="none"];
n130_0 [ shape=point,width=0.1,height=0.1,label="" ];
n130_0 -> 131 [label="1.0"];
131 [label="131\n(0,28,0,28,2,0)"];
131 -> n131_0 [label="0:Sat",arrowhead="none"];
n131_0 [ shape=point,width=0.1,height=0.1,label="" ];
n131_0 -> 131 [label="1.0"];
132 [label="132\n(0,18,13,13,1,1)"];
132 -> n132_0 [label="0:1.0: [update2]--[update1]",arrowhead="none"];
n132_0 [ shape=point,width=0.1,height=0.1,label="" ];
n132_0 -> 133 [label="1.0"];
133 [label="133\n(0,30,0,12,2,0)"];
133 -> n133_0 [label="0:Sat",arrowhead="none"];
n133_0 [ shape=point,width=0.1,height=0.1,label="" ];
n133_0 -> 133 [label="1.0"];
134 [label="134\n(2,18,13,13,1,1)"];
134 -> n134_0 [label="0:1.0: [update2]--[update1]",arrowhead="none"];
n134_0 [ shape=point,width=0.1,height=0.1,label="" ];
n134_0 -> 135 [label="1.0"];
135 [label="135\n(0,29,0,13,2,0)"];
135 -> n135_0 [label="0:Sat",arrowhead="none"];
n135_0 [ shape=point,width=0.1,height=0.1,label="" ];
n135_0 -> 135 [label="1.0"];
136 [label="136\n(5,18,13,13,1,1)"];
136 -> n136_0 [label="0:1.0: [update2]--[update1]",arrowhead="none"];
n136_0 [ shape=point,width=0.1,height=0.1,label="" ];
n136_0 -> 137 [label="1.0"];
137 [label="137\n(0,29,0,16,2,0)"];
137 -> n137_0 [label="0:Sat",arrowhead="none"];
n137_0 [ shape=point,width=0.1,height=0.1,label="" ];
n137_0 -> 137 [label="1.0"];
138 [label="138\n(10,18,13,13,1,1)"];
138 -> n138_0 [label="0:1.0: [update2]--[update1]",arrowhead="none"];
n138_0 [ shape=point,width=0.1,height=0.1,label="" ];
n138_0 -> 139 [label="1.0"];
139 [label="139\n(0,29,0,21,2,0)"];
139 -> n139_0 [label="0:Sat",arrowhead="none"];
n139_0 [ shape=point,width=0.1,height=0.1,label="" ];
n139_0 -> 139 [label="1.0"];
}

/*
 -- Transitions --  
140 203 203
0 0 1 1 1.0: [contribute2_7]--[contribute1_5]
0 1 19 1 1.0: [contribute2_7]--[contribute1_3]
0 2 37 1 1.0: [contribute2_7]--[contribute1_6]
0 3 55 1 1.0: [contribute2_7]--[contribute1_7]
0 4 73 1 1.0: [contribute2_7]--[contribute1_0]
0 5 91 1 1.0: [contribute2_7]--[contribute1_1]
0 6 108 1 1.0: [contribute2_7]--[contribute1_2]
0 7 122 1 1.0: [contribute2_7]--[contribute1_4]
1 0 2 1 1.0: [update2]--[update1]
2 0 3 1 1.0: [contribute2_7]--[contribute1_5]
2 1 5 1 1.0: [contribute2_7]--[contribute1_3]
2 2 7 1 1.0: [contribute2_7]--[contribute1_6]
2 3 9 1 1.0: [contribute2_7]--[contribute1_7]
2 4 11 1 1.0: [contribute2_7]--[contribute1_0]
2 5 13 1 1.0: [contribute2_7]--[contribute1_1]
2 6 15 1 1.0: [contribute2_7]--[contribute1_2]
2 7 17 1 1.0: [contribute2_7]--[contribute1_4]
3 0 4 1 1.0: [update2]--[update1]
4 0 4 1 Sat
5 0 6 1 1.0: [update2]--[update1]
6 0 6 1 Sat
7 0 8 1 1.0: [update2]--[update1]
8 0 8 1 Sat
9 0 10 1 1.0: [update2]--[update1]
10 0 10 1 Sat
11 0 12 1 1.0: [update2]--[update1]
12 0 12 1 Sat
13 0 14 1 1.0: [update2]--[update1]
14 0 14 1 Sat
15 0 16 1 1.0: [update2]--[update1]
16 0 16 1 Sat
17 0 18 1 1.0: [update2]--[update1]
18 0 18 1 Sat
19 0 20 1 1.0: [update2]--[update1]
20 0 21 1 1.0: [contribute2_7]--[contribute1_5]
20 1 23 1 1.0: [contribute2_7]--[contribute1_3]
20 2 25 1 1.0: [contribute2_7]--[contribute1_6]
20 3 27 1 1.0: [contribute2_7]--[contribute1_7]
20 4 29 1 1.0: [contribute2_7]--[contribute1_0]
20 5 31 1 1.0: [contribute2_7]--[contribute1_1]
20 6 33 1 1.0: [contribute2_7]--[contribute1_2]
20 7 35 1 1.0: [contribute2_7]--[contribute1_4]
21 0 22 1 1.0: [update2]--[update1]
22 0 22 1 Sat
23 0 24 1 1.0: [update2]--[update1]
24 0 24 1 Sat
25 0 26 1 1.0: [update2]--[update1]
26 0 26 1 Sat
27 0 28 1 1.0: [update2]--[update1]
28 0 28 1 Sat
29 0 30 1 1.0: [update2]--[update1]
30 0 30 1 Sat
31 0 32 1 1.0: [update2]--[update1]
32 0 32 1 Sat
33 0 34 1 1.0: [update2]--[update1]
34 0 34 1 Sat
35 0 36 1 1.0: [update2]--[update1]
36 0 36 1 Sat
37 0 38 1 1.0: [update2]--[update1]
38 0 39 1 1.0: [contribute2_7]--[contribute1_5]
38 1 41 1 1.0: [contribute2_7]--[contribute1_3]
38 2 43 1 1.0: [contribute2_7]--[contribute1_6]
38 3 45 1 1.0: [contribute2_7]--[contribute1_7]
38 4 47 1 1.0: [contribute2_7]--[contribute1_0]
38 5 49 1 1.0: [contribute2_7]--[contribute1_1]
38 6 51 1 1.0: [contribute2_7]--[contribute1_2]
38 7 53 1 1.0: [contribute2_7]--[contribute1_4]
39 0 40 1 1.0: [update2]--[update1]
40 0 40 1 Sat
41 0 42 1 1.0: [update2]--[update1]
42 0 42 1 Sat
43 0 44 1 1.0: [update2]--[update1]
44 0 44 1 Sat
45 0 46 1 1.0: [update2]--[update1]
46 0 46 1 Sat
47 0 48 1 1.0: [update2]--[update1]
48 0 48 1 Sat
49 0 50 1 1.0: [update2]--[update1]
50 0 50 1 Sat
51 0 52 1 1.0: [update2]--[update1]
52 0 52 1 Sat
53 0 54 1 1.0: [update2]--[update1]
54 0 54 1 Sat
55 0 56 1 1.0: [update2]--[update1]
56 0 57 1 1.0: [contribute2_7]--[contribute1_5]
56 1 59 1 1.0: [contribute2_7]--[contribute1_3]
56 2 61 1 1.0: [contribute2_7]--[contribute1_6]
56 3 63 1 1.0: [contribute2_7]--[contribute1_7]
56 4 65 1 1.0: [contribute2_7]--[contribute1_0]
56 5 67 1 1.0: [contribute2_7]--[contribute1_1]
56 6 69 1 1.0: [contribute2_7]--[contribute1_2]
56 7 71 1 1.0: [contribute2_7]--[contribute1_4]
57 0 58 1 1.0: [update2]--[update1]
58 0 58 1 Sat
59 0 60 1 1.0: [update2]--[update1]
60 0 60 1 Sat
61 0 62 1 1.0: [update2]--[update1]
62 0 62 1 Sat
63 0 64 1 1.0: [update2]--[update1]
64 0 64 1 Sat
65 0 66 1 1.0: [update2]--[update1]
66 0 66 1 Sat
67 0 68 1 1.0: [update2]--[update1]
68 0 68 1 Sat
69 0 70 1 1.0: [update2]--[update1]
70 0 70 1 Sat
71 0 72 1 1.0: [update2]--[update1]
72 0 72 1 Sat
73 0 74 1 1.0: [update2]--[update1]
74 0 75 1 1.0: [contribute2_7]--[contribute1_5]
74 1 77 1 1.0: [contribute2_7]--[contribute1_3]
74 2 79 1 1.0: [contribute2_7]--[contribute1_6]
74 3 81 1 1.0: [contribute2_7]--[contribute1_7]
74 4 83 1 1.0: [contribute2_7]--[contribute1_0]
74 5 85 1 1.0: [contribute2_7]--[contribute1_1]
74 6 87 1 1.0: [contribute2_7]--[contribute1_2]
74 7 89 1 1.0: [contribute2_7]--[contribute1_4]
75 0 76 1 1.0: [update2]--[update1]
76 0 76 1 Sat
77 0 78 1 1.0: [update2]--[update1]
78 0 78 1 Sat
79 0 80 1 1.0: [update2]--[update1]
80 0 80 1 Sat
81 0 82 1 1.0: [update2]--[update1]
82 0 82 1 Sat
83 0 84 1 1.0: [update2]--[update1]
84 0 84 1 Sat
85 0 86 1 1.0: [update2]--[update1]
86 0 86 1 Sat
87 0 88 1 1.0: [update2]--[update1]
88 0 88 1 Sat
89 0 90 1 1.0: [update2]--[update1]
90 0 90 1 Sat
91 0 92 1 1.0: [update2]--[update1]
92 0 93 1 1.0: [contribute2_7]--[contribute1_5]
92 1 95 1 1.0: [contribute2_7]--[contribute1_3]
92 2 97 1 1.0: [contribute2_7]--[contribute1_6]
92 3 98 1 1.0: [contribute2_7]--[contribute1_7]
92 4 100 1 1.0: [contribute2_7]--[contribute1_0]
92 5 102 1 1.0: [contribute2_7]--[contribute1_1]
92 6 104 1 1.0: [contribute2_7]--[contribute1_2]
92 7 106 1 1.0: [contribute2_7]--[contribute1_4]
93 0 94 1 1.0: [update2]--[update1]
94 0 94 1 Sat
95 0 96 1 1.0: [update2]--[update1]
96 0 96 1 Sat
97 0 26 1 1.0: [update2]--[update1]
98 0 99 1 1.0: [update2]--[update1]
99 0 99 1 Sat
100 0 101 1 1.0: [update2]--[update1]
101 0 101 1 Sat
102 0 103 1 1.0: [update2]--[update1]
103 0 103 1 Sat
104 0 105 1 1.0: [update2]--[update1]
105 0 105 1 Sat
106 0 107 1 1.0: [update2]--[update1]
107 0 107 1 Sat
108 0 109 1 1.0: [update2]--[update1]
109 0 110 1 1.0: [contribute2_7]--[contribute1_5]
109 1 111 1 1.0: [contribute2_7]--[contribute1_3]
109 2 112 1 1.0: [contribute2_7]--[contribute1_6]
109 3 113 1 1.0: [contribute2_7]--[contribute1_7]
109 4 114 1 1.0: [contribute2_7]--[contribute1_0]
109 5 116 1 1.0: [contribute2_7]--[contribute1_1]
109 6 118 1 1.0: [contribute2_7]--[contribute1_2]
109 7 120 1 1.0: [contribute2_7]--[contribute1_4]
110 0 22 1 1.0: [update2]--[update1]
111 0 24 1 1.0: [update2]--[update1]
112 0 26 1 1.0: [update2]--[update1]
113 0 28 1 1.0: [update2]--[update1]
114 0 115 1 1.0: [update2]--[update1]
115 0 115 1 Sat
116 0 117 1 1.0: [update2]--[update1]
117 0 117 1 Sat
118 0 119 1 1.0: [update2]--[update1]
119 0 119 1 Sat
120 0 121 1 1.0: [update2]--[update1]
121 0 121 1 Sat
122 0 123 1 1.0: [update2]--[update1]
123 0 124 1 1.0: [contribute2_7]--[contribute1_5]
123 1 126 1 1.0: [contribute2_7]--[contribute1_3]
123 2 128 1 1.0: [contribute2_7]--[contribute1_6]
123 3 130 1 1.0: [contribute2_7]--[contribute1_7]
123 4 132 1 1.0: [contribute2_7]--[contribute1_0]
123 5 134 1 1.0: [contribute2_7]--[contribute1_1]
123 6 136 1 1.0: [contribute2_7]--[contribute1_2]
123 7 138 1 1.0: [contribute2_7]--[contribute1_4]
124 0 125 1 1.0: [update2]--[update1]
125 0 125 1 Sat
126 0 127 1 1.0: [update2]--[update1]
127 0 127 1 Sat
128 0 129 1 1.0: [update2]--[update1]
129 0 129 1 Sat
130 0 131 1 1.0: [update2]--[update1]
131 0 131 1 Sat
132 0 133 1 1.0: [update2]--[update1]
133 0 133 1 Sat
134 0 135 1 1.0: [update2]--[update1]
135 0 135 1 Sat
136 0 137 1 1.0: [update2]--[update1]
137 0 137 1 Sat
138 0 139 1 1.0: [update2]--[update1]
139 0 139 1 Sat

 -- States --  
(c1,p1,c2,p2,rounds,s)
0:(0,10,0,10,0,0)
1:(7,10,10,10,0,1)
2:(0,18,0,15,1,0)
3:(12,18,15,15,1,1)
4:(0,30,0,24,2,0)
5:(7,18,15,15,1,1)
6:(0,31,0,20,2,0)
7:(15,18,15,15,1,1)
8:(0,30,0,27,2,0)
9:(18,18,15,15,1,1)
10:(0,30,0,30,2,0)
11:(0,18,15,15,1,1)
12:(0,31,0,13,2,0)
13:(2,18,15,15,1,1)
14:(0,31,0,15,2,0)
15:(5,18,15,15,1,1)
16:(0,31,0,18,2,0)
17:(10,18,15,15,1,1)
18:(0,31,0,23,2,0)
19:(4,10,10,10,0,1)
20:(0,18,0,12,1,0)
21:(12,18,12,12,1,1)
22:(0,28,0,22,2,0)
23:(7,18,12,12,1,1)
24:(0,28,0,17,2,0)
25:(15,18,12,12,1,1)
26:(0,27,0,24,2,0)
27:(18,18,12,12,1,1)
28:(0,27,0,27,2,0)
29:(0,18,12,12,1,1)
30:(0,29,0,11,2,0)
31:(2,18,12,12,1,1)
32:(0,28,0,12,2,0)
33:(5,18,12,12,1,1)
34:(0,28,0,15,2,0)
35:(10,18,12,12,1,1)
36:(0,28,0,20,2,0)
37:(8,10,10,10,0,1)
38:(0,18,0,16,1,0)
39:(12,18,16,16,1,1)
40:(0,31,0,25,2,0)
41:(7,18,16,16,1,1)
42:(0,32,0,21,2,0)
43:(15,18,16,16,1,1)
44:(0,31,0,28,2,0)
45:(18,18,16,16,1,1)
46:(0,31,0,31,2,0)
47:(0,18,16,16,1,1)
48:(0,32,0,14,2,0)
49:(2,18,16,16,1,1)
50:(0,32,0,16,2,0)
51:(5,18,16,16,1,1)
52:(0,32,0,19,2,0)
53:(10,18,16,16,1,1)
54:(0,32,0,24,2,0)
55:(10,10,10,10,0,1)
56:(0,18,0,18,1,0)
57:(12,18,18,18,1,1)
58:(0,33,0,27,2,0)
59:(7,18,18,18,1,1)
60:(0,34,0,23,2,0)
61:(15,18,18,18,1,1)
62:(0,33,0,30,2,0)
63:(18,18,18,18,1,1)
64:(0,33,0,33,2,0)
65:(0,18,18,18,1,1)
66:(0,34,0,16,2,0)
67:(2,18,18,18,1,1)
68:(0,34,0,18,2,0)
69:(5,18,18,18,1,1)
70:(0,34,0,21,2,0)
71:(10,18,18,18,1,1)
72:(0,33,0,25,2,0)
73:(0,10,10,10,0,1)
74:(0,19,0,9,1,0)
75:(13,19,9,9,1,1)
76:(0,26,0,20,2,0)
77:(8,19,9,9,1,1)
78:(0,26,0,15,2,0)
79:(16,19,9,9,1,1)
80:(0,26,0,23,2,0)
81:(19,19,9,9,1,1)
82:(0,25,0,25,2,0)
83:(0,19,9,9,1,1)
84:(0,27,0,8,2,0)
85:(2,19,9,9,1,1)
86:(0,27,0,10,2,0)
87:(5,19,9,9,1,1)
88:(0,26,0,12,2,0)
89:(10,19,9,9,1,1)
90:(0,26,0,17,2,0)
91:(1,10,10,10,0,1)
92:(0,19,0,10,1,0)
93:(13,19,10,10,1,1)
94:(0,27,0,21,2,0)
95:(8,19,10,10,1,1)
96:(0,27,0,16,2,0)
97:(16,19,10,10,1,1)
98:(19,19,10,10,1,1)
99:(0,26,0,26,2,0)
100:(0,19,10,10,1,1)
101:(0,28,0,9,2,0)
102:(2,19,10,10,1,1)
103:(0,28,0,11,2,0)
104:(5,19,10,10,1,1)
105:(0,27,0,13,2,0)
106:(10,19,10,10,1,1)
107:(0,27,0,18,2,0)
108:(2,10,10,10,0,1)
109:(0,19,0,11,1,0)
110:(13,19,11,11,1,1)
111:(8,19,11,11,1,1)
112:(16,19,11,11,1,1)
113:(19,19,11,11,1,1)
114:(0,19,11,11,1,1)
115:(0,29,0,10,2,0)
116:(2,19,11,11,1,1)
117:(0,29,0,12,2,0)
118:(5,19,11,11,1,1)
119:(0,28,0,14,2,0)
120:(10,19,11,11,1,1)
121:(0,28,0,19,2,0)
122:(5,10,10,10,0,1)
123:(0,18,0,13,1,0)
124:(12,18,13,13,1,1)
125:(0,29,0,23,2,0)
126:(7,18,13,13,1,1)
127:(0,29,0,18,2,0)
128:(15,18,13,13,1,1)
129:(0,28,0,25,2,0)
130:(18,18,13,13,1,1)
131:(0,28,0,28,2,0)
132:(0,18,13,13,1,1)
133:(0,30,0,12,2,0)
134:(2,18,13,13,1,1)
135:(0,29,0,13,2,0)
136:(5,18,13,13,1,1)
137:(0,29,0,16,2,0)
138:(10,18,13,13,1,1)
139:(0,29,0,21,2,0)
*/
