digraph MDP {
node [label="",shape="box"];
0 [label="0\n(0,10,0,10,0,0)"];
0 -> n0_0 [label="0:CSG: 1.0: [contribute1_4] -- 0.10714285714285714: [contribute2_2] + 0.8928571428571429: [contribute2_6]",arrowhead="none"];
n0_0 [ shape=point,width=0.1,height=0.1,label="" ];
n0_0 -> 1 [label="0.10714285714285714"];
n0_0 -> 8 [label="0.8928571428571429"];
1 [label="1\n(5,10,2,10,0,1)"];
1 -> n1_0 [label="0:CSG: 1.0: [update1] -- 1.0: [update2]",arrowhead="none"];
n1_0 [ shape=point,width=0.1,height=0.1,label="" ];
n1_0 -> 2 [label="1.0"];
2 [label="2\n(0,11,0,14,1,0)"];
2 -> n2_0 [label="0:CSG: 1.0: [contribute1_0] -- 1.0: [contribute2_7]",arrowhead="none"];
n2_0 [ shape=point,width=0.1,height=0.1,label="" ];
n2_0 -> 3 [label="1.0"];
3 [label="3\n(0,11,14,14,1,1)"];
3 -> n3_0 [label="0:CSG: 1.0: [update1] -- 1.0: [update2]",arrowhead="none"];
n3_0 [ shape=point,width=0.1,height=0.1,label="" ];
n3_0 -> 4 [label="1.0"];
4 [label="4\n(0,23,0,12,2,0)"];
4 -> n4_0 [label="0:CSG: 1.0: [contribute1_2] -- 1.0: [contribute2_4]",arrowhead="none"];
n4_0 [ shape=point,width=0.1,height=0.1,label="" ];
n4_0 -> 5 [label="1.0"];
5 [label="5\n(6,23,6,12,2,1)"];
5 -> n5_0 [label="0:CSG: 1.0: [update1] -- 1.0: [update2]",arrowhead="none"];
n5_0 [ shape=point,width=0.1,height=0.1,label="" ];
n5_0 -> 6 [label="1.0"];
6 [label="6\n(0,28,0,17,3,0)"];
6 -> n6_0 [label="0:CSG: 1.0: [<0>] -- 1.0: [<1>]",arrowhead="none"];
n6_0 [ shape=point,width=0.1,height=0.1,label="" ];
n6_0 -> 7 [label="1.0"];
7 [label="7\n(0,28,0,17,3,1)"];
7 -> n7_0 [label="0:CSG: Sat(0) -- Sat(1)",arrowhead="none"];
n7_0 [ shape=point,width=0.1,height=0.1,label="" ];
n7_0 -> 7 [label="1.0"];
8 [label="8\n(5,10,8,10,0,1)"];
8 -> n8_0 [label="0:CSG: 1.0: [update1] -- 1.0: [update2]",arrowhead="none"];
n8_0 [ shape=point,width=0.1,height=0.1,label="" ];
n8_0 -> 9 [label="1.0"];
9 [label="9\n(0,16,0,13,1,0)"];
9 -> n9_0 [label="0:CSG: 1.0: [contribute1_0] -- 1.0: [contribute2_5]",arrowhead="none"];
n9_0 [ shape=point,width=0.1,height=0.1,label="" ];
n9_0 -> 10 [label="1.0"];
10 [label="10\n(0,16,9,13,1,1)"];
10 -> n10_0 [label="0:CSG: 1.0: [update1] -- 1.0: [update2]",arrowhead="none"];
n10_0 [ shape=point,width=0.1,height=0.1,label="" ];
n10_0 -> 11 [label="1.0"];
11 [label="11\n(0,24,0,12,2,0)"];
11 -> n11_0 [label="0:CSG: 1.0: [contribute1_2] -- 1.0: [contribute2_4]",arrowhead="none"];
n11_0 [ shape=point,width=0.1,height=0.1,label="" ];
n11_0 -> 12 [label="1.0"];
12 [label="12\n(6,24,6,12,2,1)"];
12 -> n12_0 [label="0:CSG: 1.0: [update1] -- 1.0: [update2]",arrowhead="none"];
n12_0 [ shape=point,width=0.1,height=0.1,label="" ];
n12_0 -> 13 [label="1.0"];
13 [label="13\n(0,29,0,17,3,0)"];
13 -> n13_0 [label="0:CSG: 1.0: [<0>] -- 1.0: [<1>]",arrowhead="none"];
n13_0 [ shape=point,width=0.1,height=0.1,label="" ];
n13_0 -> 14 [label="1.0"];
14 [label="14\n(0,29,0,17,3,1)"];
14 -> n14_0 [label="0:CSG: Sat(0) -- Sat(1)",arrowhead="none"];
n14_0 [ shape=point,width=0.1,height=0.1,label="" ];
n14_0 -> 14 [label="1.0"];
}

/*
 -- Transitions --  
15 15 16
0 0 1 0.107142857143 CSG: 1.0: [contribute1_4] -- 0.10714285714285714: [contribute2_2] + 0.8928571428571429: [contribute2_6]
0 0 8 0.892857142857 CSG: 1.0: [contribute1_4] -- 0.10714285714285714: [contribute2_2] + 0.8928571428571429: [contribute2_6]
1 0 2 1 CSG: 1.0: [update1] -- 1.0: [update2]
2 0 3 1 CSG: 1.0: [contribute1_0] -- 1.0: [contribute2_7]
3 0 4 1 CSG: 1.0: [update1] -- 1.0: [update2]
4 0 5 1 CSG: 1.0: [contribute1_2] -- 1.0: [contribute2_4]
5 0 6 1 CSG: 1.0: [update1] -- 1.0: [update2]
6 0 7 1 CSG: 1.0: [<0>] -- 1.0: [<1>]
7 0 7 1 CSG: Sat(0) -- Sat(1)
8 0 9 1 CSG: 1.0: [update1] -- 1.0: [update2]
9 0 10 1 CSG: 1.0: [contribute1_0] -- 1.0: [contribute2_5]
10 0 11 1 CSG: 1.0: [update1] -- 1.0: [update2]
11 0 12 1 CSG: 1.0: [contribute1_2] -- 1.0: [contribute2_4]
12 0 13 1 CSG: 1.0: [update1] -- 1.0: [update2]
13 0 14 1 CSG: 1.0: [<0>] -- 1.0: [<1>]
14 0 14 1 CSG: Sat(0) -- Sat(1)

 -- States --  
(c1,p1,c2,p2,rounds,s)
0:(0,10,0,10,0,0)
1:(5,10,2,10,0,1)
2:(0,11,0,14,1,0)
3:(0,11,14,14,1,1)
4:(0,23,0,12,2,0)
5:(6,23,6,12,2,1)
6:(0,28,0,17,3,0)
7:(0,28,0,17,3,1)
8:(5,10,8,10,0,1)
9:(0,16,0,13,1,0)
10:(0,16,9,13,1,1)
11:(0,24,0,12,2,0)
12:(6,24,6,12,2,1)
13:(0,29,0,17,3,0)
14:(0,29,0,17,3,1)
*/
