PRISM-games
===========

Version: 3.0.beta (based on PRISM 4.5.dev)
Date: Sat Apr 04 20:49:05 CEST 2020
Hostname: Pierres-MBP.fritz.box
Memory limits: cudd=1g, java(heap)=1g
Command line: prism-games dpgg_p3_a4.prism dpgg_p3.props -const k=3 -const f=1.2

Parsing model file "dpgg_p3_a4.prism"...

Type:        CSG
Modules:     contributor1 contributor2 contributor3 rounds scheduler 
Variables:   c1 p1 c2 p2 c3 p3 rounds s 

Switching to explicit engine, which supports CSGs...

Parsing properties file "dpgg_p3.props"...

4 properties:
(1) <<player1>>R{"utility1"}max=? [ F rounds=k ]
(2) <<player2>>R{"utility2"}max=? [ F rounds=k ]
(3) <<player3>>R{"utility3"}max=? [ F rounds=k ]
(4) <<player1:player2:player3>>max=? (R{"utility1"}[F s=1&rounds=k] + R{"utility2"}[F s=1&rounds=k] + R{"utility3"}[F s=1&rounds=k])

---------------------------------------------------------------------

Model checking: <<player1>>R{"utility1"}max=? [ F rounds=k ]
Model constants: f=1.2,k=3

Building model...
Model constants: f=1.2,k=3

Computing reachable states... 4906 95858 states
Reachable states exploration and model construction done in 5.428 secs.
Sorting reachable states list...

Time for model construction: 5.809 seconds.

Warning: Deadlocks detected and fixed in 4056 states

Type:        CSG
States:      95858 (1 initial)
Transitions: 178136
Choices:     178136
Max/avg:     64/1.86
Building reward structure...

Starting expected reachability...
Max/avg (actions): (16,4)/(1.20,1.04)
Max/avg (actions): (4,16)/(1.04,1.20)
target=8112, inf=4056, rest=83690
Computing the upper bound where 0.25 is used instead of 0.0

Starting value iteration...

Value iteration converged after 7 iterations.
Computed an over-approximation of the solution (in 3.072 seconds), this will now be used to get the solution

Starting value iteration...

Value iteration converged after 7 iterations.
Expected reachability took 9.641 seconds.
Precomputation took 3.823 seconds.

Value in the initial state: 0.0

Time for model checking: 9.762 seconds.

Result: 0.0 (value in the initial state)

---------------------------------------------------------------------

Model checking: <<player2>>R{"utility2"}max=? [ F rounds=k ]
Model constants: f=1.2,k=3
Building reward structure...

Starting expected reachability...
Max/avg (actions): (16,4)/(1.20,1.04)
Max/avg (actions): (4,16)/(1.04,1.20)
target=8112, inf=4056, rest=83690
Computing the upper bound where 0.25 is used instead of 0.0

Starting value iteration...

Value iteration converged after 7 iterations.
Computed an over-approximation of the solution (in 2.207 seconds), this will now be used to get the solution

Starting value iteration...

Value iteration converged after 7 iterations.
Expected reachability took 7.441 seconds.
Precomputation took 3.034 seconds.

Value in the initial state: 0.0

Time for model checking: 7.489 seconds.

Result: 0.0 (value in the initial state)

---------------------------------------------------------------------

Model checking: <<player3>>R{"utility3"}max=? [ F rounds=k ]
Model constants: f=1.2,k=3
Building reward structure...

Starting expected reachability...
Max/avg (actions): (16,4)/(1.20,1.04)
Max/avg (actions): (4,16)/(1.04,1.20)
target=8112, inf=4056, rest=83690
Computing the upper bound where 0.25 is used instead of 0.0

Starting value iteration...

Value iteration converged after 7 iterations.
Computed an over-approximation of the solution (in 2.219 seconds), this will now be used to get the solution

Starting value iteration...

Value iteration converged after 7 iterations.
Expected reachability took 7.273 seconds.
Precomputation took 2.885 seconds.

Value in the initial state: 0.0

Time for model checking: 7.295 seconds.

Result: 0.0 (value in the initial state)

---------------------------------------------------------------------

Model checking: <<player1:player2:player3>>max=? (R{"utility1"}[F s=1&rounds=k] + R{"utility2"}[F s=1&rounds=k] + R{"utility3"}[F s=1&rounds=k])
Model constants: f=1.2,k=3

Building extended model...

States:      95858 (1 initial)
Transitions: 178136
Choices:     178136
Max/avg:     64/1.86

Max/avg (actions): (4,4,4)/(1.04,1.04,1.04)

Warning: Cannot use labelled polytoples on multi-coalitional properties. Changing to support enumeration.
0: (0.0,0.0,0.0)
1: (0.0,0.0,0.0)
0--1--2--3--4--5--6--7--8--9--10--11--12--13--14--0--1--2--3--4--5--6--0--1--2--3--0--1--2--3--0--1--2--3--0--1--2--3--0--1--2--3--0--1--2--3--4--5--6--0--1--2--3--0--1--2--3--0--1--2--3--0--1--2--3--4--5--6--7--8--9--10--11--12--13--14--0--1--2--3--0--1--2--3--0--1--2--3--0--1--2--3--4--5--6--0--1--2--3--0--1--2--3--0--1--2--3--0--1--2--3--0--1--2--3--0--1--2--3--0--1--2--3--0--1--2--3--0--1--2--3--0--1--2--3--0--1--2--3--0--1--2--3--4--5--6--7--8--9--10--11--12--13--14--0--1--2--3--4--5--6--0--1--2--3--0--1--2--3--4--5--6--7--8--9--10--11--12--13--14--15--0--1--2--3--0--1--2--3--0--1--2--3--0--1--2--3--0--1--2--3--0--1--2--3--0--1--2--3--0--1--2--3--0--1--2--3--4--5--6--0--1--2--3--0--1--2--3--0--1--2--3--0--1--2--3--0--1--2--3--0--1--2--3--0--1--2--3--0--1--2--3--0--1--2--3--0--1--2--3--0--1--2--3--0--1--2--3--0--1--2--3--0--1--2--3--4--5--6--0--1--2--3--0--1--2--3--0--1--2--3--0--1--2--3--0--1--2--3--0--1--2--3--0--1--2--3--0--1--2--3--0--1--2--3--0--1--2--3--0--1--2--3--0--1--2--3--4--5--6--0--1--2--3--0--1--2--3--0--1--2--3--4--5--6--7--8--9--10--11--12--13--14--15--0--1--2--3--0--1--2--3--4--5--6--7--0--1--2--3--0--1--2--3--0--1--2--3--0--1--2--3--0--1--2--3--0--1--2--3--0--1--2--3--0--1--2--3--0--1--2--3--0--1--2--3--0--1--2--3--0--1--2--3--0--1--2--3--0--1--2--3--4--5--6--7--0--1--2--3--0--1--2--3--0--1--2--3--0--1--2--3--0--1--2--3--0--1--2--3--0--1--2--3--0--1--2--3--0--1--2--3--0--1--2--3--0--1--2--3--0--1--2--3--0--1--2--3--0--1--2--3--0--1--2--3--0--1--2--3--0--1--2--3--0--1--2--3--0--1--2--3--0--1--2--3--0--1--2--3--0--1--2--3--4--5--6--7--0--1--2--3--0--1--2--3--0--1--2--3--0--1--2--3--0--1--2--3--0--1--2--3--0--1--2--3--0--1--2--3--0--1--2--3--0--1--2--3--0--1--2--3--0--1--2--3--0--1--2--3--0--1--2--3--4--5--6--7--8--9--10--11--12--13--14--0--1--2--3--4--5--6--7--8--9--10--11--12--13--14--0--1--2--3--0--1--2--3--0--1--2--3--0--1--2--3--4--5--6--7--0--1--2--3--0--1--2--3--0--1--2--3--0--1--2--3--0--1--2--3--0--1--2--3--0--1--2--3--0--1--2--3--4--5--6--7--0--1--2--3--0--1--2--3--0--1--2--3--0--1--2--3--0--1--2--3--0--1--2--3--0--1--2--3--0--1--2--3--0--1--2--3--0--1--2--3--0--1--2--3--0--1--2--3--0--1--2--3--0--1--2--3--0--1--2--3--0--1--2--3--0--1--2--3--0--1--2--3--0--1--2--3--0--1--2--3--0--1--2--3--0--1--2--3--0--1--2--3--0--1--2--3--0--1--2--3--0--1--2--3--0--1--2--3--0--1--2--3--0--1--2--3--4--5--6--7--0--1--2--3--0--1--2--3--0--1--2--3--0--1--2--3--0--1--2--3--0--1--2--3--0--1--2--3--0--1--2--3--0--1--2--3--4--5--6--7--0--1--2--3--4--5--6--7--8--9--10--11--12--13--14--0--1--2--3--0--1--2--3--0--1--2--3--4--5--6--7--0--1--2--3--0--1--2--3--0--1--2--3--0--1--2--3--0--1--2--3--0--1--2--3--0--1--2--3--0--1--2--3--0--1--2--3--4--5--6--0--1--2--3--0--1--2--3--0--1--2--3--0--1--2--3--0--1--2--3--4--5--6--0--1--2--3--0--1--2--3--0--1--2--3--0--1--2--3--0--1--2--3--0--1--2--3--0--1--2--3--0--1--2--3--0--1--2--3--0--1--2--3--0--1--2--3--0--1--2--3--0--1--2--3--0--1--2--3--0--1--2--3--0--1--2--3--4--5--6--7--0--1--2--3--0--1--2--3--0--1--2--3--0--1--2--3--0--1--2--3--4--5--6--0--1--2--3--0--1--2--3--0--1--2--3--0--1--2--3--0--1--2--3--0--1--2--3--0--1--2--3--0--1--2--3--0--1--2--3--0--1--2--3--4--5--6--0--1--2--3--0--1--2--3--0--1--2--3--0--1--2--3--0--1--2--3--0--1--2--3--0--1--2--3--0--1--2--3--0--1--2--3--0--1--2--3--0--1--2--3--0--1--2--3--4--5--6--7--8--9--10--11--12--13--14--0--1--2--3--0--1--2--3--0--1--2--3--0--1--2--3--0--1--2--3--0--1--2--3--4--5--6--0--1--2--3--0--1--2--3--4--5--6--0--1--2--3--0--1--2--3--4--5--6--7--8--9--10--11--12--13--14--15--0--1--2--3--0--1--2--3--0--1--2--3--0--1--2--3--0--1--2--3--0--1--2--3--0--1--2--3--0--1--2--3--0--1--2--3--0--1--2--3--0--1--2--3--0--1--2--3--0--1--2--3--0--1--2--3--0--1--2--3--0--1--2--3--0--1--2--3--0--1--2--3--0--1--2--3--0--1--2--3--0--1--2--3--0--1--2--3--0--1--2--3--0--1--2--3--0--1--2--3--0--1--2--3--0--1--2--3--0--1--2--3--0--1--2--3--0--1--2--3--0--1--2--3--0--1--2--3--0--1--2--3--0--1--2--3--0--1--2--3--4--5--6--0--1--2--3--0--1--2--3--0--1--2--3--0--1--2--3--0--1--2--3--0--1--2--3--0--1--2--3--0--1--2--3--0--1--2--3--0--1--2--3--4--5--6--0--1--2--3--0--1--2--3--0--1--2--3--0--1--2--3--0--1--2--3--4--5--6--7--8--9--10--11--12--13--14--15--0--1--2--3--4--5--6--7--0--1--2--3--0--1--2--3--0--1--2--3--0--1--2--3--0--1--2--3--0--1--2--3--0--1--2--3--4--5--6--0--1--2--3--0--1--2--3--0--1--2--3--0--1--2--3--0--1--2--3--0--1--2--3--0--1--2--3--0--1--2--3--0--1--2--3--0--1--2--3--0--1--2--3--0--1--2--3--0--1--2--3--0--1--2--3--0--1--2--3--0--1--2--3--0--1--2--3--0--1--2--3--0--1--2--3--0--1--2--3--0--1--2--3--0--1--2--3--0--1--2--3--0--1--2--3--0--1--2--3--0--1--2--3--0--1--2--3--0--1--2--3--0--1--2--3--0--1--2--3--0--1--2--3--0--1--2--3--0--1--2--3--0--1--2--3--0--1--2--3--0--1--2--3--4--5--6--7--0--1--2--3--0--1--2--3--0--1--2--3--0--1--2--3--0--1--2--3--0--1--2--3--0--1--2--3--0--1--2--3--0--1--2--3--0--1--2--3--0--1--2--3--0--1--2--3--4--5--6--7--0--1--2--3--0--1--2--3--0--1--2--3--0--1--2--3--0--1--2--3--0--1--2--3--0--1--2--3--0--1--2--3--0--1--2--3--0--1--2--3--0--1--2--3--0--1--2--3--0--1--2--3--4--5--6--7--0--1--2--3--0--1--2--3--0--1--2--3--0--1--2--3--4--5--6--7--8--9--10--11--12--13--14--15--0--1--2--3--0--1--2--3--0--1--2--3--0--1--2--3--4--5--6--7--0--1--2--3--0--1--2--3--0--1--2--3--0--1--2--3--0--1--2--3--0--1--2--3--0--1--2--3--0--1--2--3--0--1--2--3--0--1--2--3--4--5--6--7--0--1--2--3--0--1--2--3--0--1--2--3--0--1--2--3--0--1--2--3--0--1--2--3--0--1--2--3--0--1--2--3--0--1--2--3--4--5--6--7--0--1--2--3--4--5--6--7--8--9--10--11--12--13--14--0--1--2--3--0--1--2--3--0--1--2--3--0--1--2--3--4--5--6--7--8--9--10--11--12--13--14--15--0--1--2--3--0--1--2--3--4--5--6--7--0--1--2--3--0--1--2--3--0--1--2--3--0--1--2--3--0--1--2--3--0--1--2--3--0--1--2--3--0--1--2--3--0--1--2--3--0--1--2--3--0--1--2--3--4--5--6--7--0--1--2--3--0--1--2--3--0--1--2--3--0--1--2--3--0--1--2--3--0--1--2--3--0--1--2--3--0--1--2--3--0--1--2--3--0--1--2--3--0--1--2--3--4--5--6--7--0--1--2--3--0--1--2--3--0--1--2--3--4--5--6--7--0--1--2--3--0--1--2--3--0--1--2--3--0--1--2--3--0--1--2--3--0--1--2--3--0--1--2--3--0--1--2--3--0--1--2--3--0--1--2--3--4--5--6--7--8--9--10--11--12--13--14--0--1--2--3--4--5--6--7--8--9--10--11--12--13--14--0--1--2--3--0--1--2--3--4--5--6--7--0--1--2--3--0--1--2--3--0--1--2--3--4--5--6--7--0--1--2--3--0--1--2--3--0--1--2--3--0--1--2--3--0--1--2--3--4--5--6--7--0--1--2--3--0--1--2--3--0--1--2--3--0--1--2--3--0--1--2--3--0--1--2--3--4--5--6--7--0--1--2--3--4--5--6--7--8--9--10--11--12--13--14--0--1--2--3--0--1--2--3--0--1--2--3--0--1--2--3--0--1--2--3--0--1--2--3--0--1--2--3--0--1--2--3--4--5--6--7--0--1--2--3--0--1--2--3--0--1--2--3--4--5--6--7--0--1--2--3--0--1--2--3--0--1--2--3--0--1--2--3--0--1--2--3--0--1--2--3--0--1--2--3--0--1--2--3--0--1--2--3--0--1--2--3--0--1--2--3--0--1--2--3--0--1--2--3--0--1--2--3--0--1--2--3--0--1--2--3--0--1--2--3--0--1--2--3--0--1--2--3--0--1--2--3--0--1--2--3--4--5--6--7--0--1--2--3--0--1--2--3--0--1--2--3--0--1--2--3--0--1--2--3--0--1--2--3--0--1--2--3--0--1--2--3--0--1--2--3--4--5--6--7--0--1--2--3--4--5--6--7--8--9--10--11--12--13--14--0--1--2--3--0--1--2--3--0--1--2--3--0--1--2--3--4--5--6--7--0--1--2--3--0--1--2--3--0--1--2--3--0--1--2--3--4--5--6--7--0--1--2--3--0--1--2--3--0--1--2--3--0--1--2--3--0--1--2--3--0--1--2--3--0--1--2--3--4--5--6--7--0--1--2--3--0--1--2--3--0--1--2--3--0--1--2--3--0--1--2--3--0--1--2--3--0--1--2--3--0--1--2--3--0--1--2--3--0--1--2--3--0--1--2--3--4--5--6--7--0--1--2--3--0--1--2--3--0--1--2--3--0--1--2--3--0--1--2--3--0--1--2--3--0--1--2--3--4--5--6--0--1--2--3--0--1--2--3--0--1--2--3--0--1--2--3--0--1--2--3--0--1--2--3--0--1--2--3--0--1--2--3--0--1--2--3--0--1--2--3--0--1--2--3--0--1--2--3--0--1--2--3--4--5--6--7--0--1--2--3--0--1--2--3--0--1--2--3--0--1--2--3--0--1--2--3--4--5--6--7--0--1--2--3--0--1--2--3--0--1--2--3--0--1--2--3--2: (0.0,0.0,0.0)
0--1--2--3--4--5--6--7--8--9--10--11--12--13--14--0--1--2--3--4--5--6--0--1--2--3--0--1--2--3--0--1--2--3--0--1--2--3--0--1--2--3--0--1--2--3--4--5--6--0--1--2--3--0--1--2--3--0--1--2--3--0--1--2--3--4--5--6--7--8--9--10--11--12--13--14--0--1--2--3--0--1--2--3--0--1--2--3--0--1--2--3--4--5--6--0--1--2--3--0--1--2--3--0--1--2--3--0--1--2--3--0--1--2--3--0--1--2--3--0--1--2--3--0--1--2--3--0--1--2--3--0--1--2--3--0--1--2--3--0--1--2--3--4--5--6--7--8--9--10--11--12--13--14--0--1--2--3--4--5--6--0--1--2--3--0--1--2--3--4--5--6--7--8--9--10--11--12--13--14--15--0--1--2--3--0--1--2--3--0--1--2--3--0--1--2--3--0--1--2--3--0--1--2--3--0--1--2--3--0--1--2--3--0--1--2--3--4--5--6--0--1--2--3--0--1--2--3--0--1--2--3--0--1--2--3--0--1--2--3--0--1--2--3--0--1--2--3--0--1--2--3--0--1--2--3--0--1--2--3--0--1--2--3--0--1--2--3--0--1--2--3--0--1--2--3--4--5--6--0--1--2--3--0--1--2--3--0--1--2--3--0--1--2--3--0--1--2--3--0--1--2--3--0--1--2--3--0--1--2--3--0--1--2--3--0--1--2--3--0--1--2--3--0--1--2--3--4--5--6--0--1--2--3--0--1--2--3--0--1--2--3--4--5--6--7--8--9--10--11--12--13--14--15--0--1--2--3--0--1--2--3--4--5--6--7--0--1--2--3--0--1--2--3--0--1--2--3--0--1--2--3--0--1--2--3--0--1--2--3--0--1--2--3--0--1--2--3--0--1--2--3--0--1--2--3--0--1--2--3--0--1--2--3--0--1--2--3--0--1--2--3--4--5--6--7--0--1--2--3--0--1--2--3--0--1--2--3--0--1--2--3--0--1--2--3--0--1--2--3--0--1--2--3--0--1--2--3--0--1--2--3--0--1--2--3--0--1--2--3--0--1--2--3--0--1--2--3--0--1--2--3--0--1--2--3--0--1--2--3--0--1--2--3--0--1--2--3--0--1--2--3--0--1--2--3--0--1--2--3--0--1--2--3--4--5--6--7--0--1--2--3--0--1--2--3--0--1--2--3--0--1--2--3--0--1--2--3--0--1--2--3--0--1--2--3--0--1--2--3--0--1--2--3--0--1--2--3--0--1--2--3--0--1--2--3--0--1--2--3--0--1--2--3--4--5--6--7--8--9--10--11--12--13--14--0--1--2--3--4--5--6--7--8--9--10--11--12--13--14--0--1--2--3--0--1--2--3--0--1--2--3--0--1--2--3--4--5--6--7--0--1--2--3--0--1--2--3--0--1--2--3--0--1--2--3--0--1--2--3--0--1--2--3--0--1--2--3--0--1--2--3--4--5--6--7--0--1--2--3--0--1--2--3--0--1--2--3--0--1--2--3--0--1--2--3--0--1--2--3--0--1--2--3--0--1--2--3--0--1--2--3--0--1--2--3--0--1--2--3--0--1--2--3--0--1--2--3--0--1--2--3--0--1--2--3--0--1--2--3--0--1--2--3--0--1--2--3--0--1--2--3--0--1--2--3--0--1--2--3--0--1--2--3--0--1--2--3--0--1--2--3--0--1--2--3--0--1--2--3--0--1--2--3--0--1--2--3--0--1--2--3--4--5--6--7--0--1--2--3--0--1--2--3--0--1--2--3--0--1--2--3--0--1--2--3--0--1--2--3--0--1--2--3--0--1--2--3--0--1--2--3--4--5--6--7--0--1--2--3--4--5--6--7--8--9--10--11--12--13--14--0--1--2--3--0--1--2--3--0--1--2--3--4--5--6--7--0--1--2--3--0--1--2--3--0--1--2--3--0--1--2--3--0--1--2--3--0--1--2--3--0--1--2--3--0--1--2--3--0--1--2--3--4--5--6--0--1--2--3--0--1--2--3--0--1--2--3--0--1--2--3--0--1--2--3--4--5--6--0--1--2--3--0--1--2--3--0--1--2--3--0--1--2--3--0--1--2--3--0--1--2--3--0--1--2--3--0--1--2--3--0--1--2--3--0--1--2--3--0--1--2--3--0--1--2--3--0--1--2--3--0--1--2--3--0--1--2--3--0--1--2--3--4--5--6--7--0--1--2--3--0--1--2--3--0--1--2--3--0--1--2--3--0--1--2--3--4--5--6--0--1--2--3--0--1--2--3--0--1--2--3--0--1--2--3--0--1--2--3--0--1--2--3--0--1--2--3--0--1--2--3--0--1--2--3--0--1--2--3--4--5--6--0--1--2--3--0--1--2--3--0--1--2--3--0--1--2--3--0--1--2--3--0--1--2--3--0--1--2--3--0--1--2--3--0--1--2--3--0--1--2--3--0--1--2--3--0--1--2--3--4--5--6--7--8--9--10--11--12--13--14--0--1--2--3--0--1--2--3--0--1--2--3--0--1--2--3--0--1--2--3--0--1--2--3--4--5--6--0--1--2--3--0--1--2--3--4--5--6--0--1--2--3--0--1--2--3--4--5--6--7--8--9--10--11--12--13--14--15--0--1--2--3--0--1--2--3--0--1--2--3--0--1--2--3--0--1--2--3--0--1--2--3--0--1--2--3--0--1--2--3--0--1--2--3--0--1--2--3--0--1--2--3--0--1--2--3--0--1--2--3--0--1--2--3--0--1--2--3--0--1--2--3--0--1--2--3--0--1--2--3--0--1--2--3--0--1--2--3--0--1--2--3--0--1--2--3--0--1--2--3--0--1--2--3--0--1--2--3--0--1--2--3--0--1--2--3--0--1--2--3--0--1--2--3--0--1--2--3--0--1--2--3--0--1--2--3--0--1--2--3--0--1--2--3--0--1--2--3--4--5--6--0--1--2--3--0--1--2--3--0--1--2--3--0--1--2--3--0--1--2--3--0--1--2--3--0--1--2--3--0--1--2--3--0--1--2--3--0--1--2--3--4--5--6--0--1--2--3--0--1--2--3--0--1--2--3--0--1--2--3--0--1--2--3--4--5--6--7--8--9--10--11--12--13--14--15--0--1--2--3--4--5--6--7--0--1--2--3--0--1--2--3--0--1--2--3--0--1--2--3--0--1--2--3--0--1--2--3--0--1--2--3--4--5--6--0--1--2--3--0--1--2--3--0--1--2--3--0--1--2--3--0--1--2--3--0--1--2--3--0--1--2--3--0--1--2--3--0--1--2--3--0--1--2--3--0--1--2--3--0--1--2--3--0--1--2--3--0--1--2--3--0--1--2--3--0--1--2--3--0--1--2--3--0--1--2--3--0--1--2--3--0--1--2--3--0--1--2--3--0--1--2--3--0--1--2--3--0--1--2--3--0--1--2--3--0--1--2--3--0--1--2--3--0--1--2--3--0--1--2--3--0--1--2--3--0--1--2--3--0--1--2--3--0--1--2--3--0--1--2--3--0--1--2--3--0--1--2--3--4--5--6--7--0--1--2--3--0--1--2--3--0--1--2--3--0--1--2--3--0--1--2--3--0--1--2--3--0--1--2--3--0--1--2--3--0--1--2--3--0--1--2--3--0--1--2--3--0--1--2--3--4--5--6--7--0--1--2--3--0--1--2--3--0--1--2--3--0--1--2--3--0--1--2--3--0--1--2--3--0--1--2--3--0--1--2--3--0--1--2--3--0--1--2--3--0--1--2--3--0--1--2--3--0--1--2--3--4--5--6--7--0--1--2--3--0--1--2--3--0--1--2--3--0--1--2--3--4--5--6--7--8--9--10--11--12--13--14--15--0--1--2--3--0--1--2--3--0--1--2--3--0--1--2--3--4--5--6--7--0--1--2--3--0--1--2--3--0--1--2--3--0--1--2--3--0--1--2--3--0--1--2--3--0--1--2--3--0--1--2--3--0--1--2--3--0--1--2--3--4--5--6--7--0--1--2--3--0--1--2--3--0--1--2--3--0--1--2--3--0--1--2--3--0--1--2--3--0--1--2--3--0--1--2--3--0--1--2--3--4--5--6--7--0--1--2--3--4--5--6--7--8--9--10--11--12--13--14--0--1--2--3--0--1--2--3--0--1--2--3--0--1--2--3--4--5--6--7--8--9--10--11--12--13--14--15--0--1--2--3--0--1--2--3--4--5--6--7--0--1--2--3--0--1--2--3--0--1--2--3--0--1--2--3--0--1--2--3--0--1--2--3--0--1--2--3--0--1--2--3--0--1--2--3--0--1--2--3--0--1--2--3--4--5--6--7--0--1--2--3--0--1--2--3--0--1--2--3--0--1--2--3--0--1--2--3--0--1--2--3--0--1--2--3--0--1--2--3--0--1--2--3--0--1--2--3--0--1--2--3--4--5--6--7--0--1--2--3--0--1--2--3--0--1--2--3--4--5--6--7--0--1--2--3--0--1--2--3--0--1--2--3--0--1--2--3--0--1--2--3--0--1--2--3--0--1--2--3--0--1--2--3--0--1--2--3--0--1--2--3--4--5--6--7--8--9--10--11--12--13--14--0--1--2--3--4--5--6--7--8--9--10--11--12--13--14--0--1--2--3--0--1--2--3--4--5--6--7--0--1--2--3--0--1--2--3--0--1--2--3--4--5--6--7--0--1--2--3--0--1--2--3--0--1--2--3--0--1--2--3--0--1--2--3--4--5--6--7--0--1--2--3--0--1--2--3--0--1--2--3--0--1--2--3--0--1--2--3--0--1--2--3--4--5--6--7--0--1--2--3--4--5--6--7--8--9--10--11--12--13--14--0--1--2--3--0--1--2--3--0--1--2--3--0--1--2--3--0--1--2--3--0--1--2--3--0--1--2--3--0--1--2--3--4--5--6--7--0--1--2--3--0--1--2--3--0--1--2--3--4--5--6--7--0--1--2--3--0--1--2--3--0--1--2--3--0--1--2--3--0--1--2--3--0--1--2--3--0--1--2--3--0--1--2--3--0--1--2--3--0--1--2--3--0--1--2--3--0--1--2--3--0--1--2--3--0--1--2--3--0--1--2--3--0--1--2--3--0--1--2--3--0--1--2--3--0--1--2--3--0--1--2--3--0--1--2--3--4--5--6--7--0--1--2--3--0--1--2--3--0--1--2--3--0--1--2--3--0--1--2--3--0--1--2--3--0--1--2--3--0--1--2--3--0--1--2--3--4--5--6--7--0--1--2--3--4--5--6--7--8--9--10--11--12--13--14--0--1--2--3--0--1--2--3--0--1--2--3--0--1--2--3--4--5--6--7--0--1--2--3--0--1--2--3--0--1--2--3--0--1--2--3--4--5--6--7--0--1--2--3--0--1--2--3--0--1--2--3--0--1--2--3--0--1--2--3--0--1--2--3--0--1--2--3--4--5--6--7--0--1--2--3--0--1--2--3--0--1--2--3--0--1--2--3--0--1--2--3--0--1--2--3--0--1--2--3--0--1--2--3--0--1--2--3--0--1--2--3--0--1--2--3--4--5--6--7--0--1--2--3--0--1--2--3--0--1--2--3--0--1--2--3--0--1--2--3--0--1--2--3--0--1--2--3--4--5--6--0--1--2--3--0--1--2--3--0--1--2--3--0--1--2--3--0--1--2--3--0--1--2--3--0--1--2--3--0--1--2--3--0--1--2--3--0--1--2--3--0--1--2--3--0--1--2--3--0--1--2--3--4--5--6--7--0--1--2--3--0--1--2--3--0--1--2--3--0--1--2--3--0--1--2--3--4--5--6--7--0--1--2--3--0--1--2--3--0--1--2--3--0--1--2--3--3: (0.0,0.0,0.0)
0--1--2--3--0--1--2--3--4--5--6--7--8--9--10--11--12--13--14--0--1--2--3--4--5--6--0--1--2--3--0--1--2--3--0--1--2--3--0--1--2--3--0--1--2--3--0--1--2--3--4--5--6--0--1--2--3--0--1--2--3--0--1--2--3--0--1--2--3--4--5--6--7--8--9--10--11--12--13--14--0--1--2--3--0--1--2--3--0--1--2--3--0--1--2--3--4--5--6--0--1--2--3--0--1--2--3--0--1--2--3--0--1--2--3--0--1--2--3--0--1--2--3--0--1--2--3--0--1--2--3--0--1--2--3--0--1--2--3--0--1--2--3--0--1--2--3--0--1--2--3--4--5--6--7--8--9--10--11--12--13--14--0--1--2--3--4--5--6--0--1--2--3--0--1--2--3--4--5--6--7--8--9--10--11--12--13--14--15--0--1--2--3--0--1--2--3--0--1--2--3--0--1--2--3--0--1--2--3--0--1--2--3--0--1--2--3--0--1--2--3--0--1--2--3--4--5--6--0--1--2--3--0--1--2--3--0--1--2--3--0--1--2--3--0--1--2--3--0--1--2--3--0--1--2--3--0--1--2--3--0--1--2--3--0--1--2--3--0--1--2--3--0--1--2--3--0--1--2--3--0--1--2--3--4--5--6--0--1--2--3--0--1--2--3--0--1--2--3--0--1--2--3--0--1--2--3--0--1--2--3--0--1--2--3--0--1--2--3--0--1--2--3--0--1--2--3--0--1--2--3--0--1--2--3--4--5--6--0--1--2--3--0--1--2--3--0--1--2--3--4--5--6--7--8--9--10--11--12--13--14--15--0--1--2--3--0--1--2--3--4--5--6--7--0--1--2--3--0--1--2--3--0--1--2--3--0--1--2--3--0--1--2--3--0--1--2--3--0--1--2--3--0--1--2--3--0--1--2--3--0--1--2--3--0--1--2--3--0--1--2--3--0--1--2--3--0--1--2--3--4--5--6--7--0--1--2--3--0--1--2--3--0--1--2--3--0--1--2--3--0--1--2--3--0--1--2--3--0--1--2--3--0--1--2--3--0--1--2--3--0--1--2--3--0--1--2--3--0--1--2--3--0--1--2--3--0--1--2--3--0--1--2--3--0--1--2--3--0--1--2--3--0--1--2--3--0--1--2--3--0--1--2--3--0--1--2--3--0--1--2--3--0--1--2--3--4--5--6--7--0--1--2--3--0--1--2--3--0--1--2--3--0--1--2--3--0--1--2--3--0--1--2--3--0--1--2--3--0--1--2--3--0--1--2--3--0--1--2--3--0--1--2--3--0--1--2--3--0--1--2--3--0--1--2--3--0--1--2--3--4--5--6--7--8--9--10--11--12--13--14--0--1--2--3--4--5--6--7--8--9--10--11--12--13--14--0--1--2--3--0--1--2--3--0--1--2--3--0--1--2--3--4--5--6--7--0--1--2--3--0--1--2--3--0--1--2--3--0--1--2--3--0--1--2--3--0--1--2--3--0--1--2--3--0--1--2--3--4--5--6--7--0--1--2--3--0--1--2--3--0--1--2--3--0--1--2--3--0--1--2--3--0--1--2--3--0--1--2--3--0--1--2--3--0--1--2--3--0--1--2--3--0--1--2--3--0--1--2--3--0--1--2--3--0--1--2--3--0--1--2--3--0--1--2--3--0--1--2--3--0--1--2--3--0--1--2--3--0--1--2--3--0--1--2--3--0--1--2--3--0--1--2--3--0--1--2--3--0--1--2--3--0--1--2--3--0--1--2--3--0--1--2--3--0--1--2--3--4--5--6--7--0--1--2--3--0--1--2--3--0--1--2--3--0--1--2--3--0--1--2--3--0--1--2--3--0--1--2--3--0--1--2--3--0--1--2--3--0--1--2--3--4--5--6--7--0--1--2--3--4--5--6--7--8--9--10--11--12--13--14--0--1--2--3--0--1--2--3--0--1--2--3--4--5--6--7--0--1--2--3--0--1--2--3--0--1--2--3--0--1--2--3--0--1--2--3--0--1--2--3--0--1--2--3--0--1--2--3--0--1--2--3--4--5--6--0--1--2--3--0--1--2--3--0--1--2--3--0--1--2--3--0--1--2--3--0--1--2--3--4--5--6--0--1--2--3--0--1--2--3--0--1--2--3--0--1--2--3--0--1--2--3--0--1--2--3--0--1--2--3--0--1--2--3--0--1--2--3--0--1--2--3--0--1--2--3--0--1--2--3--0--1--2--3--0--1--2--3--0--1--2--3--0--1--2--3--4--5--6--7--0--1--2--3--0--1--2--3--0--1--2--3--0--1--2--3--0--1--2--3--4--5--6--0--1--2--3--0--1--2--3--0--1--2--3--0--1--2--3--0--1--2--3--0--1--2--3--0--1--2--3--0--1--2--3--0--1--2--3--0--1--2--3--4--5--6--0--1--2--3--0--1--2--3--0--1--2--3--0--1--2--3--0--1--2--3--0--1--2--3--0--1--2--3--0--1--2--3--0--1--2--3--0--1--2--3--0--1--2--3--0--1--2--3--0--1--2--3--4--5--6--7--8--9--10--11--12--13--14--0--1--2--3--0--1--2--3--0--1--2--3--0--1--2--3--0--1--2--3--0--1--2--3--4--5--6--0--1--2--3--0--1--2--3--4--5--6--0--1--2--3--0--1--2--3--4--5--6--7--8--9--10--11--12--13--14--15--0--1--2--3--0--1--2--3--0--1--2--3--0--1--2--3--0--1--2--3--0--1--2--3--0--1--2--3--0--1--2--3--0--1--2--3--0--1--2--3--0--1--2--3--0--1--2--3--0--1--2--3--0--1--2--3--0--1--2--3--0--1--2--3--0--1--2--3--0--1--2--3--0--1--2--3--0--1--2--3--0--1--2--3--0--1--2--3--0--1--2--3--0--1--2--3--0--1--2--3--0--1--2--3--0--1--2--3--0--1--2--3--0--1--2--3--0--1--2--3--0--1--2--3--0--1--2--3--0--1--2--3--0--1--2--3--0--1--2--3--4--5--6--0--1--2--3--0--1--2--3--0--1--2--3--0--1--2--3--0--1--2--3--0--1--2--3--0--1--2--3--0--1--2--3--0--1--2--3--0--1--2--3--4--5--6--0--1--2--3--0--1--2--3--0--1--2--3--0--1--2--3--0--1--2--3--4--5--6--7--8--9--10--11--12--13--14--15--0--1--2--3--4--5--6--7--0--1--2--3--0--1--2--3--0--1--2--3--0--1--2--3--0--1--2--3--0--1--2--3--0--1--2--3--4--5--6--0--1--2--3--0--1--2--3--0--1--2--3--0--1--2--3--0--1--2--3--0--1--2--3--0--1--2--3--0--1--2--3--0--1--2--3--0--1--2--3--0--1--2--3--0--1--2--3--0--1--2--3--0--1--2--3--0--1--2--3--0--1--2--3--0--1--2--3--0--1--2--3--0--1--2--3--0--1--2--3--0--1--2--3--0--1--2--3--0--1--2--3--0--1--2--3--0--1--2--3--0--1--2--3--0--1--2--3--0--1--2--3--0--1--2--3--0--1--2--3--0--1--2--3--0--1--2--3--0--1--2--3--0--1--2--3--0--1--2--3--0--1--2--3--4--5--6--7--0--1--2--3--0--1--2--3--0--1--2--3--0--1--2--3--0--1--2--3--0--1--2--3--0--1--2--3--0--1--2--3--0--1--2--3--0--1--2--3--0--1--2--3--0--1--2--3--4--5--6--7--0--1--2--3--0--1--2--3--0--1--2--3--0--1--2--3--0--1--2--3--0--1--2--3--0--1--2--3--0--1--2--3--0--1--2--3--0--1--2--3--0--1--2--3--0--1--2--3--0--1--2--3--4--5--6--7--0--1--2--3--0--1--2--3--0--1--2--3--0--1--2--3--4--5--6--7--8--9--10--11--12--13--14--15--0--1--2--3--0--1--2--3--0--1--2--3--0--1--2--3--4--5--6--7--0--1--2--3--0--1--2--3--0--1--2--3--0--1--2--3--0--1--2--3--0--1--2--3--0--1--2--3--0--1--2--3--0--1--2--3--0--1--2--3--4--5--6--7--0--1--2--3--0--1--2--3--0--1--2--3--0--1--2--3--0--1--2--3--0--1--2--3--0--1--2--3--0--1--2--3--0--1--2--3--0--1--2--3--4--5--6--7--0--1--2--3--4--5--6--7--8--9--10--11--12--13--14--0--1--2--3--0--1--2--3--0--1--2--3--0--1--2--3--4--5--6--7--8--9--10--11--12--13--14--15--0--1--2--3--0--1--2--3--4--5--6--7--0--1--2--3--0--1--2--3--0--1--2--3--0--1--2--3--0--1--2--3--0--1--2--3--0--1--2--3--0--1--2--3--0--1--2--3--0--1--2--3--0--1--2--3--4--5--6--7--0--1--2--3--0--1--2--3--0--1--2--3--0--1--2--3--0--1--2--3--0--1--2--3--0--1--2--3--0--1--2--3--0--1--2--3--0--1--2--3--0--1--2--3--4--5--6--7--0--1--2--3--0--1--2--3--0--1--2--3--0--1--2--3--4--5--6--7--0--1--2--3--0--1--2--3--0--1--2--3--0--1--2--3--0--1--2--3--0--1--2--3--0--1--2--3--0--1--2--3--0--1--2--3--0--1--2--3--0--1--2--3--4--5--6--7--8--9--10--11--12--13--14--0--1--2--3--4--5--6--7--8--9--10--11--12--13--14--0--1--2--3--0--1--2--3--4--5--6--7--0--1--2--3--0--1--2--3--0--1--2--3--4--5--6--7--0--1--2--3--0--1--2--3--0--1--2--3--0--1--2--3--0--1--2--3--4--5--6--7--0--1--2--3--0--1--2--3--0--1--2--3--0--1--2--3--0--1--2--3--0--1--2--3--0--1--2--3--4--5--6--7--0--1--2--3--4--5--6--7--8--9--10--11--12--13--14--0--1--2--3--0--1--2--3--0--1--2--3--0--1--2--3--0--1--2--3--0--1--2--3--0--1--2--3--0--1--2--3--4--5--6--7--0--1--2--3--0--1--2--3--0--1--2--3--4--5--6--7--0--1--2--3--0--1--2--3--0--1--2--3--0--1--2--3--0--1--2--3--0--1--2--3--0--1--2--3--0--1--2--3--0--1--2--3--0--1--2--3--0--1--2--3--0--1--2--3--0--1--2--3--0--1--2--3--0--1--2--3--0--1--2--3--0--1--2--3--0--1--2--3--0--1--2--3--0--1--2--3--0--1--2--3--4--5--6--7--0--1--2--3--0--1--2--3--0--1--2--3--0--1--2--3--0--1--2--3--0--1--2--3--0--1--2--3--0--1--2--3--0--1--2--3--0--1--2--3--4--5--6--7--0--1--2--3--4--5--6--7--8--9--10--11--12--13--14--0--1--2--3--0--1--2--3--0--1--2--3--0--1--2--3--4--5--6--7--0--1--2--3--0--1--2--3--0--1--2--3--0--1--2--3--4--5--6--7--0--1--2--3--0--1--2--3--0--1--2--3--0--1--2--3--0--1--2--3--0--1--2--3--0--1--2--3--4--5--6--7--0--1--2--3--0--1--2--3--0--1--2--3--0--1--2--3--0--1--2--3--0--1--2--3--0--1--2--3--0--1--2--3--0--1--2--3--0--1--2--3--0--1--2--3--4--5--6--7--0--1--2--3--0--1--2--3--0--1--2--3--0--1--2--3--0--1--2--3--0--1--2--3--0--1--2--3--4--5--6--0--1--2--3--0--1--2--3--0--1--2--3--0--1--2--3--0--1--2--3--0--1--2--3--0--1--2--3--0--1--2--3--0--1--2--3--0--1--2--3--0--1--2--3--0--1--2--3--0--1--2--3--4--5--6--7--0--1--2--3--0--1--2--3--0--1--2--3--0--1--2--3--0--1--2--3--4--5--6--7--0--1--2--3--0--1--2--3--0--1--2--3--0--1--2--3--4: (0.0,0.0,0.0)
0--1--2--3--0--1--2--3--4--5--6--7--8--9--10--11--12--13--14--0--1--2--3--4--5--6--0--1--2--3--0--1--2--3--0--1--2--3--0--1--2--3--0--1--2--3--0--1--2--3--4--5--6--0--1--2--3--0--1--2--3--0--1--2--3--0--1--2--3--4--5--6--7--8--9--10--11--12--13--14--0--1--2--3--0--1--2--3--0--1--2--3--0--1--2--3--4--5--6--0--1--2--3--0--1--2--3--0--1--2--3--0--1--2--3--0--1--2--3--0--1--2--3--0--1--2--3--0--1--2--3--0--1--2--3--0--1--2--3--0--1--2--3--0--1--2--3--0--1--2--3--4--5--6--7--8--9--10--11--12--13--14--0--1--2--3--4--5--6--0--1--2--3--0--1--2--3--4--5--6--7--8--9--10--11--12--13--14--15--0--1--2--3--0--1--2--3--0--1--2--3--0--1--2--3--0--1--2--3--0--1--2--3--0--1--2--3--0--1--2--3--0--1--2--3--4--5--6--0--1--2--3--0--1--2--3--0--1--2--3--0--1--2--3--0--1--2--3--0--1--2--3--0--1--2--3--0--1--2--3--0--1--2--3--0--1--2--3--0--1--2--3--0--1--2--3--0--1--2--3--0--1--2--3--4--5--6--0--1--2--3--0--1--2--3--0--1--2--3--0--1--2--3--0--1--2--3--0--1--2--3--0--1--2--3--0--1--2--3--0--1--2--3--0--1--2--3--0--1--2--3--0--1--2--3--4--5--6--0--1--2--3--0--1--2--3--0--1--2--3--4--5--6--7--8--9--10--11--12--13--14--15--0--1--2--3--0--1--2--3--4--5--6--7--0--1--2--3--0--1--2--3--0--1--2--3--0--1--2--3--0--1--2--3--0--1--2--3--0--1--2--3--0--1--2--3--0--1--2--3--0--1--2--3--0--1--2--3--0--1--2--3--0--1--2--3--0--1--2--3--4--5--6--7--0--1--2--3--0--1--2--3--0--1--2--3--0--1--2--3--0--1--2--3--0--1--2--3--0--1--2--3--0--1--2--3--0--1--2--3--0--1--2--3--0--1--2--3--0--1--2--3--0--1--2--3--0--1--2--3--0--1--2--3--0--1--2--3--0--1--2--3--0--1--2--3--0--1--2--3--0--1--2--3--0--1--2--3--0--1--2--3--0--1--2--3--4--5--6--7--0--1--2--3--0--1--2--3--0--1--2--3--0--1--2--3--0--1--2--3--0--1--2--3--0--1--2--3--0--1--2--3--0--1--2--3--0--1--2--3--0--1--2--3--0--1--2--3--0--1--2--3--0--1--2--3--0--1--2--3--4--5--6--7--8--9--10--11--12--13--14--0--1--2--3--4--5--6--7--8--9--10--11--12--13--14--0--1--2--3--0--1--2--3--0--1--2--3--0--1--2--3--4--5--6--7--0--1--2--3--0--1--2--3--0--1--2--3--0--1--2--3--0--1--2--3--0--1--2--3--0--1--2--3--0--1--2--3--4--5--6--7--0--1--2--3--0--1--2--3--0--1--2--3--0--1--2--3--0--1--2--3--0--1--2--3--0--1--2--3--0--1--2--3--0--1--2--3--0--1--2--3--0--1--2--3--0--1--2--3--0--1--2--3--0--1--2--3--0--1--2--3--0--1--2--3--0--1--2--3--0--1--2--3--0--1--2--3--0--1--2--3--0--1--2--3--0--1--2--3--0--1--2--3--0--1--2--3--0--1--2--3--0--1--2--3--0--1--2--3--0--1--2--3--0--1--2--3--4--5--6--7--0--1--2--3--0--1--2--3--0--1--2--3--0--1--2--3--0--1--2--3--0--1--2--3--0--1--2--3--0--1--2--3--0--1--2--3--0--1--2--3--4--5--6--7--0--1--2--3--4--5--6--7--8--9--10--11--12--13--14--0--1--2--3--0--1--2--3--0--1--2--3--4--5--6--7--0--1--2--3--0--1--2--3--0--1--2--3--0--1--2--3--0--1--2--3--0--1--2--3--0--1--2--3--0--1--2--3--0--1--2--3--4--5--6--0--1--2--3--0--1--2--3--0--1--2--3--0--1--2--3--0--1--2--3--0--1--2--3--4--5--6--0--1--2--3--0--1--2--3--0--1--2--3--0--1--2--3--0--1--2--3--0--1--2--3--0--1--2--3--0--1--2--3--0--1--2--3--0--1--2--3--0--1--2--3--0--1--2--3--0--1--2--3--0--1--2--3--0--1--2--3--0--1--2--3--4--5--6--7--0--1--2--3--0--1--2--3--0--1--2--3--0--1--2--3--0--1--2--3--4--5--6--0--1--2--3--0--1--2--3--0--1--2--3--0--1--2--3--0--1--2--3--0--1--2--3--0--1--2--3--0--1--2--3--0--1--2--3--0--1--2--3--4--5--6--0--1--2--3--0--1--2--3--0--1--2--3--0--1--2--3--0--1--2--3--0--1--2--3--0--1--2--3--0--1--2--3--0--1--2--3--0--1--2--3--0--1--2--3--0--1--2--3--0--1--2--3--4--5--6--7--8--9--10--11--12--13--14--0--1--2--3--0--1--2--3--0--1--2--3--0--1--2--3--0--1--2--3--0--1--2--3--4--5--6--0--1--2--3--0--1--2--3--4--5--6--0--1--2--3--0--1--2--3--4--5--6--7--8--9--10--11--12--13--14--15--0--1--2--3--0--1--2--3--0--1--2--3--0--1--2--3--0--1--2--3--0--1--2--3--0--1--2--3--0--1--2--3--0--1--2--3--0--1--2--3--0--1--2--3--0--1--2--3--0--1--2--3--0--1--2--3--0--1--2--3--0--1--2--3--0--1--2--3--0--1--2--3--0--1--2--3--0--1--2--3--0--1--2--3--0--1--2--3--0--1--2--3--0--1--2--3--0--1--2--3--0--1--2--3--0--1--2--3--0--1--2--3--0--1--2--3--0--1--2--3--0--1--2--3--0--1--2--3--0--1--2--3--0--1--2--3--0--1--2--3--4--5--6--0--1--2--3--0--1--2--3--0--1--2--3--0--1--2--3--0--1--2--3--0--1--2--3--0--1--2--3--0--1--2--3--0--1--2--3--0--1--2--3--4--5--6--0--1--2--3--0--1--2--3--0--1--2--3--0--1--2--3--0--1--2--3--4--5--6--7--8--9--10--11--12--13--14--15--0--1--2--3--4--5--6--7--0--1--2--3--0--1--2--3--0--1--2--3--0--1--2--3--0--1--2--3--0--1--2--3--0--1--2--3--4--5--6--0--1--2--3--0--1--2--3--0--1--2--3--0--1--2--3--0--1--2--3--0--1--2--3--0--1--2--3--0--1--2--3--0--1--2--3--0--1--2--3--0--1--2--3--0--1--2--3--0--1--2--3--0--1--2--3--0--1--2--3--0--1--2--3--0--1--2--3--0--1--2--3--0--1--2--3--0--1--2--3--0--1--2--3--0--1--2--3--0--1--2--3--0--1--2--3--0--1--2--3--0--1--2--3--0--1--2--3--0--1--2--3--0--1--2--3--0--1--2--3--0--1--2--3--0--1--2--3--0--1--2--3--0--1--2--3--0--1--2--3--0--1--2--3--4--5--6--7--0--1--2--3--0--1--2--3--0--1--2--3--0--1--2--3--0--1--2--3--0--1--2--3--0--1--2--3--0--1--2--3--0--1--2--3--0--1--2--3--0--1--2--3--0--1--2--3--4--5--6--7--0--1--2--3--0--1--2--3--0--1--2--3--0--1--2--3--0--1--2--3--0--1--2--3--0--1--2--3--0--1--2--3--0--1--2--3--0--1--2--3--0--1--2--3--0--1--2--3--0--1--2--3--4--5--6--7--0--1--2--3--0--1--2--3--0--1--2--3--0--1--2--3--4--5--6--7--8--9--10--11--12--13--14--15--0--1--2--3--0--1--2--3--0--1--2--3--0--1--2--3--4--5--6--7--0--1--2--3--0--1--2--3--0--1--2--3--0--1--2--3--0--1--2--3--0--1--2--3--0--1--2--3--0--1--2--3--0--1--2--3--0--1--2--3--4--5--6--7--0--1--2--3--0--1--2--3--0--1--2--3--0--1--2--3--0--1--2--3--0--1--2--3--0--1--2--3--0--1--2--3--0--1--2--3--0--1--2--3--4--5--6--7--0--1--2--3--4--5--6--7--8--9--10--11--12--13--14--0--1--2--3--0--1--2--3--0--1--2--3--0--1--2--3--4--5--6--7--8--9--10--11--12--13--14--15--0--1--2--3--0--1--2--3--4--5--6--7--0--1--2--3--0--1--2--3--0--1--2--3--0--1--2--3--0--1--2--3--0--1--2--3--0--1--2--3--0--1--2--3--0--1--2--3--0--1--2--3--0--1--2--3--4--5--6--7--0--1--2--3--0--1--2--3--0--1--2--3--0--1--2--3--0--1--2--3--0--1--2--3--0--1--2--3--0--1--2--3--0--1--2--3--0--1--2--3--0--1--2--3--4--5--6--7--0--1--2--3--0--1--2--3--0--1--2--3--0--1--2--3--4--5--6--7--0--1--2--3--0--1--2--3--0--1--2--3--0--1--2--3--0--1--2--3--0--1--2--3--0--1--2--3--0--1--2--3--0--1--2--3--0--1--2--3--0--1--2--3--4--5--6--7--8--9--10--11--12--13--14--0--1--2--3--4--5--6--7--8--9--10--11--12--13--14--0--1--2--3--0--1--2--3--4--5--6--7--0--1--2--3--0--1--2--3--0--1--2--3--4--5--6--7--0--1--2--3--0--1--2--3--0--1--2--3--0--1--2--3--0--1--2--3--4--5--6--7--0--1--2--3--0--1--2--3--0--1--2--3--0--1--2--3--0--1--2--3--0--1--2--3--0--1--2--3--4--5--6--7--0--1--2--3--4--5--6--7--8--9--10--11--12--13--14--0--1--2--3--0--1--2--3--0--1--2--3--0--1--2--3--0--1--2--3--0--1--2--3--0--1--2--3--0--1--2--3--4--5--6--7--0--1--2--3--0--1--2--3--0--1--2--3--4--5--6--7--0--1--2--3--0--1--2--3--0--1--2--3--0--1--2--3--0--1--2--3--0--1--2--3--0--1--2--3--0--1--2--3--0--1--2--3--0--1--2--3--0--1--2--3--0--1--2--3--0--1--2--3--0--1--2--3--0--1--2--3--0--1--2--3--0--1--2--3--0--1--2--3--0--1--2--3--0--1--2--3--0--1--2--3--4--5--6--7--0--1--2--3--0--1--2--3--0--1--2--3--0--1--2--3--0--1--2--3--0--1--2--3--0--1--2--3--0--1--2--3--0--1--2--3--0--1--2--3--4--5--6--7--0--1--2--3--4--5--6--7--8--9--10--11--12--13--14--0--1--2--3--0--1--2--3--0--1--2--3--0--1--2--3--4--5--6--7--0--1--2--3--0--1--2--3--0--1--2--3--0--1--2--3--4--5--6--7--0--1--2--3--0--1--2--3--0--1--2--3--0--1--2--3--0--1--2--3--0--1--2--3--0--1--2--3--4--5--6--7--0--1--2--3--0--1--2--3--0--1--2--3--0--1--2--3--0--1--2--3--0--1--2--3--0--1--2--3--0--1--2--3--0--1--2--3--0--1--2--3--0--1--2--3--4--5--6--7--0--1--2--3--0--1--2--3--0--1--2--3--0--1--2--3--0--1--2--3--0--1--2--3--0--1--2--3--4--5--6--0--1--2--3--0--1--2--3--0--1--2--3--0--1--2--3--0--1--2--3--0--1--2--3--0--1--2--3--0--1--2--3--0--1--2--3--0--1--2--3--0--1--2--3--0--1--2--3--0--1--2--3--4--5--6--7--0--1--2--3--0--1--2--3--0--1--2--3--0--1--2--3--0--1--2--3--4--5--6--7--0--1--2--3--0--1--2--3--0--1--2--3--0--1--2--3--5: (0.0,0.0,0.0)
0--1--2--3--0--1--2--3--4--5--6--7--8--9--10--11--12--13--14--0--1--2--3--4--5--6--0--1--2--3--0--1--2--3--0--1--2--3--0--1--2--3--0--1--2--3--0--1--2--3--4--5--6--0--1--2--3--0--1--2--3--0--1--2--3--0--1--2--3--4--5--6--7--8--9--10--11--12--13--14--0--1--2--3--0--1--2--3--0--1--2--3--0--1--2--3--4--5--6--0--1--2--3--0--1--2--3--0--1--2--3--0--1--2--3--0--1--2--3--0--1--2--3--0--1--2--3--0--1--2--3--0--1--2--3--0--1--2--3--0--1--2--3--0--1--2--3--0--1--2--3--4--5--6--7--8--9--10--11--12--13--14--0--1--2--3--4--5--6--0--1--2--3--0--1--2--3--4--5--6--7--8--9--10--11--12--13--14--15--0--1--2--3--0--1--2--3--0--1--2--3--0--1--2--3--0--1--2--3--0--1--2--3--0--1--2--3--0--1--2--3--0--1--2--3--4--5--6--0--1--2--3--0--1--2--3--0--1--2--3--0--1--2--3--0--1--2--3--0--1--2--3--0--1--2--3--0--1--2--3--0--1--2--3--0--1--2--3--0--1--2--3--0--1--2--3--0--1--2--3--0--1--2--3--4--5--6--0--1--2--3--0--1--2--3--0--1--2--3--0--1--2--3--0--1--2--3--0--1--2--3--0--1--2--3--0--1--2--3--0--1--2--3--0--1--2--3--0--1--2--3--0--1--2--3--4--5--6--0--1--2--3--0--1--2--3--0--1--2--3--4--5--6--7--8--9--10--11--12--13--14--15--0--1--2--3--0--1--2--3--4--5--6--7--0--1--2--3--0--1--2--3--0--1--2--3--0--1--2--3--0--1--2--3--0--1--2--3--0--1--2--3--0--1--2--3--0--1--2--3--0--1--2--3--0--1--2--3--0--1--2--3--0--1--2--3--0--1--2--3--4--5--6--7--0--1--2--3--0--1--2--3--0--1--2--3--0--1--2--3--0--1--2--3--0--1--2--3--0--1--2--3--0--1--2--3--0--1--2--3--0--1--2--3--0--1--2--3--0--1--2--3--0--1--2--3--0--1--2--3--0--1--2--3--0--1--2--3--0--1--2--3--0--1--2--3--0--1--2--3--0--1--2--3--0--1--2--3--0--1--2--3--0--1--2--3--4--5--6--7--0--1--2--3--0--1--2--3--0--1--2--3--0--1--2--3--0--1--2--3--0--1--2--3--0--1--2--3--0--1--2--3--0--1--2--3--0--1--2--3--0--1--2--3--0--1--2--3--0--1--2--3--0--1--2--3--0--1--2--3--4--5--6--7--8--9--10--11--12--13--14--0--1--2--3--4--5--6--7--8--9--10--11--12--13--14--0--1--2--3--0--1--2--3--0--1--2--3--0--1--2--3--4--5--6--7--0--1--2--3--0--1--2--3--0--1--2--3--0--1--2--3--0--1--2--3--0--1--2--3--0--1--2--3--0--1--2--3--4--5--6--7--0--1--2--3--0--1--2--3--0--1--2--3--0--1--2--3--0--1--2--3--0--1--2--3--0--1--2--3--0--1--2--3--0--1--2--3--0--1--2--3--0--1--2--3--0--1--2--3--0--1--2--3--0--1--2--3--0--1--2--3--0--1--2--3--0--1--2--3--0--1--2--3--0--1--2--3--0--1--2--3--0--1--2--3--0--1--2--3--0--1--2--3--0--1--2--3--0--1--2--3--0--1--2--3--0--1--2--3--0--1--2--3--0--1--2--3--4--5--6--7--0--1--2--3--0--1--2--3--0--1--2--3--0--1--2--3--0--1--2--3--0--1--2--3--0--1--2--3--0--1--2--3--0--1--2--3--0--1--2--3--4--5--6--7--0--1--2--3--4--5--6--7--8--9--10--11--12--13--14--0--1--2--3--0--1--2--3--0--1--2--3--4--5--6--7--0--1--2--3--0--1--2--3--0--1--2--3--0--1--2--3--0--1--2--3--0--1--2--3--0--1--2--3--0--1--2--3--0--1--2--3--4--5--6--0--1--2--3--0--1--2--3--0--1--2--3--0--1--2--3--0--1--2--3--0--1--2--3--4--5--6--0--1--2--3--0--1--2--3--0--1--2--3--0--1--2--3--0--1--2--3--0--1--2--3--0--1--2--3--0--1--2--3--0--1--2--3--0--1--2--3--0--1--2--3--0--1--2--3--0--1--2--3--0--1--2--3--0--1--2--3--0--1--2--3--4--5--6--7--0--1--2--3--0--1--2--3--0--1--2--3--0--1--2--3--0--1--2--3--4--5--6--0--1--2--3--0--1--2--3--0--1--2--3--0--1--2--3--0--1--2--3--0--1--2--3--0--1--2--3--0--1--2--3--0--1--2--3--0--1--2--3--4--5--6--0--1--2--3--0--1--2--3--0--1--2--3--0--1--2--3--0--1--2--3--0--1--2--3--0--1--2--3--0--1--2--3--0--1--2--3--0--1--2--3--0--1--2--3--0--1--2--3--0--1--2--3--4--5--6--7--8--9--10--11--12--13--14--0--1--2--3--0--1--2--3--0--1--2--3--0--1--2--3--0--1--2--3--0--1--2--3--4--5--6--0--1--2--3--0--1--2--3--4--5--6--0--1--2--3--0--1--2--3--4--5--6--7--8--9--10--11--12--13--14--15--0--1--2--3--0--1--2--3--0--1--2--3--0--1--2--3--0--1--2--3--0--1--2--3--0--1--2--3--0--1--2--3--0--1--2--3--0--1--2--3--0--1--2--3--0--1--2--3--0--1--2--3--0--1--2--3--0--1--2--3--0--1--2--3--0--1--2--3--0--1--2--3--0--1--2--3--0--1--2--3--0--1--2--3--0--1--2--3--0--1--2--3--0--1--2--3--0--1--2--3--0--1--2--3--0--1--2--3--0--1--2--3--0--1--2--3--0--1--2--3--0--1--2--3--0--1--2--3--0--1--2--3--0--1--2--3--0--1--2--3--4--5--6--0--1--2--3--0--1--2--3--0--1--2--3--0--1--2--3--0--1--2--3--0--1--2--3--0--1--2--3--0--1--2--3--0--1--2--3--0--1--2--3--4--5--6--0--1--2--3--0--1--2--3--0--1--2--3--0--1--2--3--0--1--2--3--4--5--6--7--8--9--10--11--12--13--14--15--0--1--2--3--4--5--6--7--0--1--2--3--0--1--2--3--0--1--2--3--0--1--2--3--0--1--2--3--0--1--2--3--0--1--2--3--4--5--6--0--1--2--3--0--1--2--3--0--1--2--3--0--1--2--3--0--1--2--3--0--1--2--3--0--1--2--3--0--1--2--3--0--1--2--3--0--1--2--3--0--1--2--3--0--1--2--3--0--1--2--3--0--1--2--3--0--1--2--3--0--1--2--3--0--1--2--3--0--1--2--3--0--1--2--3--0--1--2--3--0--1--2--3--0--1--2--3--0--1--2--3--0--1--2--3--0--1--2--3--0--1--2--3--0--1--2--3--0--1--2--3--0--1--2--3--0--1--2--3--0--1--2--3--0--1--2--3--0--1--2--3--0--1--2--3--0--1--2--3--0--1--2--3--4--5--6--7--0--1--2--3--0--1--2--3--0--1--2--3--0--1--2--3--0--1--2--3--0--1--2--3--0--1--2--3--0--1--2--3--0--1--2--3--0--1--2--3--0--1--2--3--0--1--2--3--4--5--6--7--0--1--2--3--0--1--2--3--0--1--2--3--0--1--2--3--0--1--2--3--0--1--2--3--0--1--2--3--0--1--2--3--0--1--2--3--0--1--2--3--0--1--2--3--0--1--2--3--0--1--2--3--4--5--6--7--0--1--2--3--0--1--2--3--0--1--2--3--0--1--2--3--4--5--6--7--8--9--10--11--12--13--14--15--0--1--2--3--0--1--2--3--0--1--2--3--0--1--2--3--4--5--6--7--0--1--2--3--0--1--2--3--0--1--2--3--0--1--2--3--0--1--2--3--0--1--2--3--0--1--2--3--0--1--2--3--0--1--2--3--0--1--2--3--4--5--6--7--0--1--2--3--0--1--2--3--0--1--2--3--0--1--2--3--0--1--2--3--0--1--2--3--0--1--2--3--0--1--2--3--0--1--2--3--0--1--2--3--4--5--6--7--0--1--2--3--4--5--6--7--8--9--10--11--12--13--14--0--1--2--3--0--1--2--3--0--1--2--3--0--1--2--3--4--5--6--7--8--9--10--11--12--13--14--15--0--1--2--3--0--1--2--3--4--5--6--7--0--1--2--3--0--1--2--3--0--1--2--3--0--1--2--3--0--1--2--3--0--1--2--3--0--1--2--3--0--1--2--3--0--1--2--3--0--1--2--3--0--1--2--3--4--5--6--7--0--1--2--3--0--1--2--3--0--1--2--3--0--1--2--3--0--1--2--3--0--1--2--3--0--1--2--3--0--1--2--3--0--1--2--3--0--1--2--3--0--1--2--3--4--5--6--7--0--1--2--3--0--1--2--3--0--1--2--3--0--1--2--3--4--5--6--7--0--1--2--3--0--1--2--3--0--1--2--3--0--1--2--3--0--1--2--3--0--1--2--3--0--1--2--3--0--1--2--3--0--1--2--3--0--1--2--3--0--1--2--3--4--5--6--7--8--9--10--11--12--13--14--0--1--2--3--4--5--6--7--8--9--10--11--12--13--14--0--1--2--3--0--1--2--3--4--5--6--7--0--1--2--3--0--1--2--3--0--1--2--3--4--5--6--7--0--1--2--3--0--1--2--3--0--1--2--3--0--1--2--3--0--1--2--3--4--5--6--7--0--1--2--3--0--1--2--3--0--1--2--3--0--1--2--3--0--1--2--3--0--1--2--3--0--1--2--3--4--5--6--7--0--1--2--3--4--5--6--7--8--9--10--11--12--13--14--0--1--2--3--0--1--2--3--0--1--2--3--0--1--2--3--0--1--2--3--0--1--2--3--0--1--2--3--0--1--2--3--4--5--6--7--0--1--2--3--0--1--2--3--0--1--2--3--4--5--6--7--0--1--2--3--0--1--2--3--0--1--2--3--0--1--2--3--0--1--2--3--0--1--2--3--0--1--2--3--0--1--2--3--0--1--2--3--0--1--2--3--0--1--2--3--0--1--2--3--0--1--2--3--0--1--2--3--0--1--2--3--0--1--2--3--0--1--2--3--0--1--2--3--0--1--2--3--0--1--2--3--0--1--2--3--4--5--6--7--0--1--2--3--0--1--2--3--0--1--2--3--0--1--2--3--0--1--2--3--0--1--2--3--0--1--2--3--0--1--2--3--0--1--2--3--0--1--2--3--4--5--6--7--0--1--2--3--4--5--6--7--8--9--10--11--12--13--14--0--1--2--3--0--1--2--3--0--1--2--3--0--1--2--3--4--5--6--7--0--1--2--3--0--1--2--3--0--1--2--3--0--1--2--3--4--5--6--7--0--1--2--3--0--1--2--3--0--1--2--3--0--1--2--3--0--1--2--3--0--1--2--3--0--1--2--3--4--5--6--7--0--1--2--3--0--1--2--3--0--1--2--3--0--1--2--3--0--1--2--3--0--1--2--3--0--1--2--3--0--1--2--3--0--1--2--3--0--1--2--3--0--1--2--3--4--5--6--7--0--1--2--3--0--1--2--3--0--1--2--3--0--1--2--3--0--1--2--3--0--1--2--3--0--1--2--3--4--5--6--0--1--2--3--0--1--2--3--0--1--2--3--0--1--2--3--0--1--2--3--0--1--2--3--0--1--2--3--0--1--2--3--0--1--2--3--0--1--2--3--0--1--2--3--0--1--2--3--0--1--2--3--4--5--6--7--0--1--2--3--0--1--2--3--0--1--2--3--0--1--2--3--0--1--2--3--4--5--6--7--0--1--2--3--0--1--2--3--0--1--2--3--0--1--2--3--6: (9.0,9.0,9.0)
0--1--2--3--0--1--2--3--4--5--6--7--8--9--10--11--12--13--14--0--1--2--3--4--5--6--0--1--2--3--0--1--2--3--0--1--2--3--0--1--2--3--0--1--2--3--0--1--2--3--4--5--6--0--1--2--3--0--1--2--3--0--1--2--3--0--1--2--3--4--5--6--7--8--9--10--11--12--13--14--0--1--2--3--0--1--2--3--0--1--2--3--0--1--2--3--4--5--6--0--1--2--3--0--1--2--3--0--1--2--3--0--1--2--3--0--1--2--3--0--1--2--3--0--1--2--3--0--1--2--3--0--1--2--3--0--1--2--3--0--1--2--3--0--1--2--3--0--1--2--3--4--5--6--7--8--9--10--11--12--13--14--0--1--2--3--4--5--6--0--1--2--3--0--1--2--3--4--5--6--7--8--9--10--11--12--13--14--15--0--1--2--3--0--1--2--3--0--1--2--3--0--1--2--3--0--1--2--3--0--1--2--3--0--1--2--3--0--1--2--3--0--1--2--3--4--5--6--0--1--2--3--0--1--2--3--0--1--2--3--0--1--2--3--0--1--2--3--0--1--2--3--0--1--2--3--0--1--2--3--0--1--2--3--0--1--2--3--0--1--2--3--0--1--2--3--0--1--2--3--0--1--2--3--4--5--6--0--1--2--3--0--1--2--3--0--1--2--3--0--1--2--3--0--1--2--3--0--1--2--3--0--1--2--3--0--1--2--3--0--1--2--3--0--1--2--3--0--1--2--3--0--1--2--3--4--5--6--0--1--2--3--0--1--2--3--0--1--2--3--4--5--6--7--8--9--10--11--12--13--14--15--0--1--2--3--0--1--2--3--4--5--6--7--0--1--2--3--0--1--2--3--0--1--2--3--0--1--2--3--0--1--2--3--0--1--2--3--0--1--2--3--0--1--2--3--0--1--2--3--0--1--2--3--0--1--2--3--0--1--2--3--0--1--2--3--0--1--2--3--4--5--6--7--0--1--2--3--0--1--2--3--0--1--2--3--0--1--2--3--0--1--2--3--0--1--2--3--0--1--2--3--0--1--2--3--0--1--2--3--0--1--2--3--0--1--2--3--0--1--2--3--0--1--2--3--0--1--2--3--0--1--2--3--0--1--2--3--0--1--2--3--0--1--2--3--0--1--2--3--0--1--2--3--0--1--2--3--0--1--2--3--0--1--2--3--4--5--6--7--0--1--2--3--0--1--2--3--0--1--2--3--0--1--2--3--0--1--2--3--0--1--2--3--0--1--2--3--0--1--2--3--0--1--2--3--0--1--2--3--0--1--2--3--0--1--2--3--0--1--2--3--0--1--2--3--0--1--2--3--4--5--6--7--8--9--10--11--12--13--14--0--1--2--3--4--5--6--7--8--9--10--11--12--13--14--0--1--2--3--0--1--2--3--0--1--2--3--0--1--2--3--4--5--6--7--0--1--2--3--0--1--2--3--0--1--2--3--0--1--2--3--0--1--2--3--0--1--2--3--0--1--2--3--0--1--2--3--4--5--6--7--0--1--2--3--0--1--2--3--0--1--2--3--0--1--2--3--0--1--2--3--0--1--2--3--0--1--2--3--0--1--2--3--0--1--2--3--0--1--2--3--0--1--2--3--0--1--2--3--0--1--2--3--0--1--2--3--0--1--2--3--0--1--2--3--0--1--2--3--0--1--2--3--0--1--2--3--0--1--2--3--0--1--2--3--0--1--2--3--0--1--2--3--0--1--2--3--0--1--2--3--0--1--2--3--0--1--2--3--0--1--2--3--0--1--2--3--4--5--6--7--0--1--2--3--0--1--2--3--0--1--2--3--0--1--2--3--0--1--2--3--0--1--2--3--0--1--2--3--0--1--2--3--0--1--2--3--0--1--2--3--4--5--6--7--0--1--2--3--4--5--6--7--8--9--10--11--12--13--14--0--1--2--3--0--1--2--3--0--1--2--3--4--5--6--7--0--1--2--3--0--1--2--3--0--1--2--3--0--1--2--3--0--1--2--3--0--1--2--3--0--1--2--3--0--1--2--3--0--1--2--3--4--5--6--0--1--2--3--0--1--2--3--0--1--2--3--0--1--2--3--0--1--2--3--0--1--2--3--4--5--6--0--1--2--3--0--1--2--3--0--1--2--3--0--1--2--3--0--1--2--3--0--1--2--3--0--1--2--3--0--1--2--3--0--1--2--3--0--1--2--3--0--1--2--3--0--1--2--3--0--1--2--3--0--1--2--3--0--1--2--3--0--1--2--3--4--5--6--7--0--1--2--3--0--1--2--3--0--1--2--3--0--1--2--3--0--1--2--3--4--5--6--0--1--2--3--0--1--2--3--0--1--2--3--0--1--2--3--0--1--2--3--0--1--2--3--0--1--2--3--0--1--2--3--0--1--2--3--0--1--2--3--4--5--6--0--1--2--3--0--1--2--3--0--1--2--3--0--1--2--3--0--1--2--3--0--1--2--3--0--1--2--3--0--1--2--3--0--1--2--3--0--1--2--3--0--1--2--3--0--1--2--3--0--1--2--3--4--5--6--7--8--9--10--11--12--13--14--0--1--2--3--0--1--2--3--0--1--2--3--0--1--2--3--0--1--2--3--0--1--2--3--4--5--6--0--1--2--3--0--1--2--3--4--5--6--0--1--2--3--0--1--2--3--4--5--6--7--8--9--10--11--12--13--14--15--0--1--2--3--0--1--2--3--0--1--2--3--0--1--2--3--0--1--2--3--0--1--2--3--0--1--2--3--0--1--2--3--0--1--2--3--0--1--2--3--0--1--2--3--0--1--2--3--0--1--2--3--0--1--2--3--0--1--2--3--0--1--2--3--0--1--2--3--0--1--2--3--0--1--2--3--0--1--2--3--0--1--2--3--0--1--2--3--0--1--2--3--0--1--2--3--0--1--2--3--0--1--2--3--0--1--2--3--0--1--2--3--0--1--2--3--0--1--2--3--0--1--2--3--0--1--2--3--0--1--2--3--0--1--2--3--0--1--2--3--4--5--6--0--1--2--3--0--1--2--3--0--1--2--3--0--1--2--3--0--1--2--3--0--1--2--3--0--1--2--3--0--1--2--3--0--1--2--3--0--1--2--3--4--5--6--0--1--2--3--0--1--2--3--0--1--2--3--0--1--2--3--0--1--2--3--4--5--6--7--8--9--10--11--12--13--14--15--0--1--2--3--4--5--6--7--0--1--2--3--0--1--2--3--0--1--2--3--0--1--2--3--0--1--2--3--0--1--2--3--0--1--2--3--4--5--6--0--1--2--3--0--1--2--3--0--1--2--3--0--1--2--3--0--1--2--3--0--1--2--3--0--1--2--3--0--1--2--3--0--1--2--3--0--1--2--3--0--1--2--3--0--1--2--3--0--1--2--3--0--1--2--3--0--1--2--3--0--1--2--3--0--1--2--3--0--1--2--3--0--1--2--3--0--1--2--3--0--1--2--3--0--1--2--3--0--1--2--3--0--1--2--3--0--1--2--3--0--1--2--3--0--1--2--3--0--1--2--3--0--1--2--3--0--1--2--3--0--1--2--3--0--1--2--3--0--1--2--3--0--1--2--3--0--1--2--3--0--1--2--3--4--5--6--7--0--1--2--3--0--1--2--3--0--1--2--3--0--1--2--3--0--1--2--3--0--1--2--3--0--1--2--3--0--1--2--3--0--1--2--3--0--1--2--3--0--1--2--3--0--1--2--3--4--5--6--7--0--1--2--3--0--1--2--3--0--1--2--3--0--1--2--3--0--1--2--3--0--1--2--3--0--1--2--3--0--1--2--3--0--1--2--3--0--1--2--3--0--1--2--3--0--1--2--3--0--1--2--3--4--5--6--7--0--1--2--3--0--1--2--3--0--1--2--3--0--1--2--3--4--5--6--7--8--9--10--11--12--13--14--15--0--1--2--3--0--1--2--3--0--1--2--3--0--1--2--3--4--5--6--7--0--1--2--3--0--1--2--3--0--1--2--3--0--1--2--3--0--1--2--3--0--1--2--3--0--1--2--3--0--1--2--3--0--1--2--3--0--1--2--3--4--5--6--7--0--1--2--3--0--1--2--3--0--1--2--3--0--1--2--3--0--1--2--3--0--1--2--3--0--1--2--3--0--1--2--3--0--1--2--3--0--1--2--3--4--5--6--7--0--1--2--3--4--5--6--7--8--9--10--11--12--13--14--0--1--2--3--0--1--2--3--0--1--2--3--0--1--2--3--4--5--6--7--8--9--10--11--12--13--14--15--0--1--2--3--0--1--2--3--4--5--6--7--0--1--2--3--0--1--2--3--0--1--2--3--0--1--2--3--0--1--2--3--0--1--2--3--0--1--2--3--0--1--2--3--0--1--2--3--0--1--2--3--0--1--2--3--4--5--6--7--0--1--2--3--0--1--2--3--0--1--2--3--0--1--2--3--0--1--2--3--0--1--2--3--0--1--2--3--0--1--2--3--0--1--2--3--0--1--2--3--0--1--2--3--4--5--6--7--0--1--2--3--0--1--2--3--0--1--2--3--0--1--2--3--4--5--6--7--0--1--2--3--0--1--2--3--0--1--2--3--0--1--2--3--0--1--2--3--0--1--2--3--0--1--2--3--0--1--2--3--0--1--2--3--0--1--2--3--0--1--2--3--4--5--6--7--8--9--10--11--12--13--14--0--1--2--3--4--5--6--7--8--9--10--11--12--13--14--0--1--2--3--0--1--2--3--4--5--6--7--0--1--2--3--0--1--2--3--0--1--2--3--4--5--6--7--0--1--2--3--0--1--2--3--0--1--2--3--0--1--2--3--0--1--2--3--4--5--6--7--0--1--2--3--0--1--2--3--0--1--2--3--0--1--2--3--0--1--2--3--0--1--2--3--0--1--2--3--4--5--6--7--0--1--2--3--4--5--6--7--8--9--10--11--12--13--14--0--1--2--3--0--1--2--3--0--1--2--3--0--1--2--3--0--1--2--3--0--1--2--3--0--1--2--3--0--1--2--3--4--5--6--7--0--1--2--3--0--1--2--3--0--1--2--3--4--5--6--7--0--1--2--3--0--1--2--3--0--1--2--3--0--1--2--3--0--1--2--3--0--1--2--3--0--1--2--3--0--1--2--3--0--1--2--3--0--1--2--3--0--1--2--3--0--1--2--3--0--1--2--3--0--1--2--3--0--1--2--3--0--1--2--3--0--1--2--3--0--1--2--3--0--1--2--3--0--1--2--3--0--1--2--3--4--5--6--7--0--1--2--3--0--1--2--3--0--1--2--3--0--1--2--3--0--1--2--3--0--1--2--3--0--1--2--3--0--1--2--3--0--1--2--3--0--1--2--3--4--5--6--7--0--1--2--3--4--5--6--7--8--9--10--11--12--13--14--0--1--2--3--0--1--2--3--0--1--2--3--0--1--2--3--4--5--6--7--0--1--2--3--0--1--2--3--0--1--2--3--0--1--2--3--4--5--6--7--0--1--2--3--0--1--2--3--0--1--2--3--0--1--2--3--0--1--2--3--0--1--2--3--0--1--2--3--4--5--6--7--0--1--2--3--0--1--2--3--0--1--2--3--0--1--2--3--0--1--2--3--0--1--2--3--0--1--2--3--0--1--2--3--0--1--2--3--0--1--2--3--0--1--2--3--4--5--6--7--0--1--2--3--0--1--2--3--0--1--2--3--0--1--2--3--0--1--2--3--0--1--2--3--0--1--2--3--4--5--6--0--1--2--3--0--1--2--3--0--1--2--3--0--1--2--3--0--1--2--3--0--1--2--3--0--1--2--3--0--1--2--3--0--1--2--3--0--1--2--3--0--1--2--3--0--1--2--3--0--1--2--3--4--5--6--7--0--1--2--3--0--1--2--3--0--1--2--3--0--1--2--3--0--1--2--3--4--5--6--7--0--1--2--3--0--1--2--3--0--1--2--3--0--1--2--3--7: (9.0,9.0,9.0)

Result for coalition player1: 9.0 (value in the intial state).
Result for coalition player2: 9.0 (value in the intial state).
Result for coalition player3: 9.0 (value in the intial state).

Value in the initial state: 27.0

Time for model checking: 77.121 seconds.

Result: 27.0 (value in the initial state)

---------------------------------------------------------------------

Note: There were 2 warnings during computation.

