digraph MDP {
node [label="",shape="box"];
0 [label="0\n(0,0,0,0)"];
0 -> n0_0 [label="0:CSG: 1.0: [contribute1_1] -- 1.0: [contribute2_3]",arrowhead="none"];
n0_0 [ shape=point,width=0.1,height=0.1,label="" ];
n0_0 -> 1 [label="1.0"];
1 [label="1\n(1,3,0,1)"];
1 -> n1_0 [label="0:CSG: 1.0: [update1] -- 1.0: [update2]",arrowhead="none"];
n1_0 [ shape=point,width=0.1,height=0.1,label="" ];
n1_0 -> 2 [label="1.0"];
2 [label="2\n(0,0,1,0)"];
2 -> n2_0 [label="0:CSG: Sat(0) -- Sat(1)",arrowhead="none"];
n2_0 [ shape=point,width=0.1,height=0.1,label="" ];
n2_0 -> 2 [label="1.0"];
}

/*
 -- Transitions --  
3 3 3
0 0 1 1 CSG: 1.0: [contribute1_1] -- 1.0: [contribute2_3]
1 0 2 1 CSG: 1.0: [update1] -- 1.0: [update2]
2 0 2 1 CSG: Sat(0) -- Sat(1)

 -- States --  
(c1,c2,rounds,s)
0:(0,0,0,0)
1:(1,3,0,1)
2:(0,0,1,0)
*/
