digraph MDP {
node [label="",shape="box"];
0 [label="0\n(0,6,0,6,0,0)"];
0 -> n0_0 [label="0:CSG: 1.0: [contribute1_2] -- 1.0: [contribute2_1]",arrowhead="none"];
n0_0 [ shape=point,width=0.1,height=0.1,label="" ];
n0_0 -> 1 [label="1.0"];
1 [label="1\n(4,6,2,6,0,1)"];
1 -> n1_0 [label="0:CSG: 1.0: [update1] -- 1.0: [update2]",arrowhead="none"];
n1_0 [ shape=point,width=0.1,height=0.1,label="" ];
n1_0 -> 2 [label="1.0"];
2 [label="2\n(0,6,0,8,1,0)"];
2 -> n2_0 [label="0:CSG: 1.0: [contribute1_3] -- 0.5: [contribute2_0] + 0.5: [contribute2_2]",arrowhead="none"];
n2_0 [ shape=point,width=0.1,height=0.1,label="" ];
n2_0 -> 3 [label="0.5"];
n2_0 -> 8 [label="0.5"];
3 [label="3\n(6,6,0,8,1,1)"];
3 -> n3_0 [label="0:CSG: 1.0: [update1] -- 1.0: [update2]",arrowhead="none"];
n3_0 [ shape=point,width=0.1,height=0.1,label="" ];
n3_0 -> 4 [label="1.0"];
4 [label="4\n(0,4,0,12,2,0)"];
4 -> n4_0 [label="0:CSG: 1.0: [contribute1_1] -- 1.0: [contribute2_1]",arrowhead="none"];
n4_0 [ shape=point,width=0.1,height=0.1,label="" ];
n4_0 -> 5 [label="1.0"];
5 [label="5\n(1,4,4,12,2,1)"];
5 -> n5_0 [label="0:CSG: 1.0: [update1] -- 1.0: [update2]",arrowhead="none"];
n5_0 [ shape=point,width=0.1,height=0.1,label="" ];
n5_0 -> 6 [label="1.0"];
6 [label="6\n(0,7,0,12,3,0)"];
6 -> n6_0 [label="0:CSG: 1.0: [<0>] -- 1.0: [<1>]",arrowhead="none"];
n6_0 [ shape=point,width=0.1,height=0.1,label="" ];
n6_0 -> 7 [label="1.0"];
7 [label="7\n(0,7,0,12,3,1)"];
7 -> n7_0 [label="0:CSG: Sat(0) -- Sat(1)",arrowhead="none"];
n7_0 [ shape=point,width=0.1,height=0.1,label="" ];
n7_0 -> 7 [label="1.0"];
8 [label="8\n(6,6,5,8,1,1)"];
8 -> n8_0 [label="0:CSG: 1.0: [update1] -- 1.0: [update2]",arrowhead="none"];
n8_0 [ shape=point,width=0.1,height=0.1,label="" ];
n8_0 -> 9 [label="1.0"];
9 [label="9\n(0,9,0,12,2,0)"];
9 -> n9_0 [label="0:CSG: 1.0: [contribute1_0] -- 1.0: [contribute2_0]",arrowhead="none"];
n9_0 [ shape=point,width=0.1,height=0.1,label="" ];
n9_0 -> 10 [label="1.0"];
10 [label="10\n(0,9,0,12,2,1)"];
10 -> n10_0 [label="0:CSG: 1.0: [update1] -- 1.0: [update2]",arrowhead="none"];
n10_0 [ shape=point,width=0.1,height=0.1,label="" ];
n10_0 -> 11 [label="1.0"];
11 [label="11\n(0,9,0,12,3,0)"];
11 -> n11_0 [label="0:CSG: 1.0: [<0>] -- 1.0: [<1>]",arrowhead="none"];
n11_0 [ shape=point,width=0.1,height=0.1,label="" ];
n11_0 -> 12 [label="1.0"];
12 [label="12\n(0,9,0,12,3,1)"];
12 -> n12_0 [label="0:CSG: Sat(0) -- Sat(1)",arrowhead="none"];
n12_0 [ shape=point,width=0.1,height=0.1,label="" ];
n12_0 -> 12 [label="1.0"];
}

/*
 -- Transitions --  
13 13 14
0 0 1 1 CSG: 1.0: [contribute1_2] -- 1.0: [contribute2_1]
1 0 2 1 CSG: 1.0: [update1] -- 1.0: [update2]
2 0 3 0.5 CSG: 1.0: [contribute1_3] -- 0.5: [contribute2_0] + 0.5: [contribute2_2]
2 0 8 0.5 CSG: 1.0: [contribute1_3] -- 0.5: [contribute2_0] + 0.5: [contribute2_2]
3 0 4 1 CSG: 1.0: [update1] -- 1.0: [update2]
4 0 5 1 CSG: 1.0: [contribute1_1] -- 1.0: [contribute2_1]
5 0 6 1 CSG: 1.0: [update1] -- 1.0: [update2]
6 0 7 1 CSG: 1.0: [<0>] -- 1.0: [<1>]
7 0 7 1 CSG: Sat(0) -- Sat(1)
8 0 9 1 CSG: 1.0: [update1] -- 1.0: [update2]
9 0 10 1 CSG: 1.0: [contribute1_0] -- 1.0: [contribute2_0]
10 0 11 1 CSG: 1.0: [update1] -- 1.0: [update2]
11 0 12 1 CSG: 1.0: [<0>] -- 1.0: [<1>]
12 0 12 1 CSG: Sat(0) -- Sat(1)

 -- States --  
(c1,p1,c2,p2,rounds,s)
0:(0,6,0,6,0,0)
1:(4,6,2,6,0,1)
2:(0,6,0,8,1,0)
3:(6,6,0,8,1,1)
4:(0,4,0,12,2,0)
5:(1,4,4,12,2,1)
6:(0,7,0,12,3,0)
7:(0,7,0,12,3,1)
8:(6,6,5,8,1,1)
9:(0,9,0,12,2,0)
10:(0,9,0,12,2,1)
11:(0,9,0,12,3,0)
12:(0,9,0,12,3,1)
*/
