digraph MDP {
node [label="",shape="box"];
0 [label="0\n(0,6,0,6,0,0)"];
0 -> n0_0 [label="0:CSG: 1.0: [contribute1_1] -- 1.0: [contribute2_3]",arrowhead="none"];
n0_0 [ shape=point,width=0.1,height=0.1,label="" ];
n0_0 -> 1 [label="1.0"];
1 [label="1\n(2,6,6,6,0,1)"];
1 -> n1_0 [label="0:CSG: 1.0: [update1] -- 1.0: [update2]",arrowhead="none"];
n1_0 [ shape=point,width=0.1,height=0.1,label="" ];
n1_0 -> 2 [label="1.0"];
2 [label="2\n(0,11,0,7,1,0)"];
2 -> n2_0 [label="0:CSG: 0.45454545454545453: [contribute1_3] + 0.5454545454545454: [contribute1_2] -- 0.2727272727272727: [contribute2_0] + 0.7272727272727273: [contribute2_1]",arrowhead="none"];
n2_0 [ shape=point,width=0.1,height=0.1,label="" ];
n2_0 -> 18 [label="0.396694214876033"];
n2_0 -> 3 [label="0.12396694214876032"];
n2_0 -> 8 [label="0.3305785123966942"];
n2_0 -> 13 [label="0.14876033057851237"];
3 [label="3\n(11,11,0,7,1,1)"];
3 -> n3_0 [label="0:CSG: 1.0: [update1] -- 1.0: [update2]",arrowhead="none"];
n3_0 [ shape=point,width=0.1,height=0.1,label="" ];
n3_0 -> 4 [label="1.0"];
4 [label="4\n(0,10,0,17,2,0)"];
4 -> n4_0 [label="0:CSG: 1.0: [contribute1_3] -- 1.0: [contribute2_1]",arrowhead="none"];
n4_0 [ shape=point,width=0.1,height=0.1,label="" ];
n4_0 -> 5 [label="1.0"];
5 [label="5\n(10,10,5,17,2,1)"];
5 -> n5_0 [label="0:CSG: 1.0: [update1] -- 1.0: [update2]",arrowhead="none"];
n5_0 [ shape=point,width=0.1,height=0.1,label="" ];
n5_0 -> 6 [label="1.0"];
6 [label="6\n(0,14,0,26,3,0)"];
6 -> n6_0 [label="0:CSG: 1.0: [<0>] -- 1.0: [<1>]",arrowhead="none"];
n6_0 [ shape=point,width=0.1,height=0.1,label="" ];
n6_0 -> 7 [label="1.0"];
7 [label="7\n(0,14,0,26,3,1)"];
7 -> n7_0 [label="0:CSG: Sat(0) -- Sat(1)",arrowhead="none"];
n7_0 [ shape=point,width=0.1,height=0.1,label="" ];
n7_0 -> 7 [label="1.0"];
8 [label="8\n(11,11,2,7,1,1)"];
8 -> n8_0 [label="0:CSG: 1.0: [update1] -- 1.0: [update2]",arrowhead="none"];
n8_0 [ shape=point,width=0.1,height=0.1,label="" ];
n8_0 -> 9 [label="1.0"];
9 [label="9\n(0,12,0,17,2,0)"];
9 -> n9_0 [label="0:CSG: 1.0: [contribute1_1] -- 1.0: [contribute2_2]",arrowhead="none"];
n9_0 [ shape=point,width=0.1,height=0.1,label="" ];
n9_0 -> 10 [label="1.0"];
10 [label="10\n(4,12,11,17,2,1)"];
10 -> n10_0 [label="0:CSG: 1.0: [update1] -- 1.0: [update2]",arrowhead="none"];
n10_0 [ shape=point,width=0.1,height=0.1,label="" ];
n10_0 -> 11 [label="1.0"];
11 [label="11\n(0,22,0,20,3,0)"];
11 -> n11_0 [label="0:CSG: 1.0: [<0>] -- 1.0: [<1>]",arrowhead="none"];
n11_0 [ shape=point,width=0.1,height=0.1,label="" ];
n11_0 -> 12 [label="1.0"];
12 [label="12\n(0,22,0,20,3,1)"];
12 -> n12_0 [label="0:CSG: Sat(0) -- Sat(1)",arrowhead="none"];
n12_0 [ shape=point,width=0.1,height=0.1,label="" ];
n12_0 -> 12 [label="1.0"];
13 [label="13\n(7,11,0,7,1,1)"];
13 -> n13_0 [label="0:CSG: 1.0: [update1] -- 1.0: [update2]",arrowhead="none"];
n13_0 [ shape=point,width=0.1,height=0.1,label="" ];
n13_0 -> 14 [label="1.0"];
14 [label="14\n(0,10,0,13,2,0)"];
14 -> n14_0 [label="0:CSG: 1.0: [contribute1_1] -- 1.0: [contribute2_3]",arrowhead="none"];
n14_0 [ shape=point,width=0.1,height=0.1,label="" ];
n14_0 -> 15 [label="1.0"];
15 [label="15\n(3,10,13,13,2,1)"];
15 -> n15_0 [label="0:CSG: 1.0: [update1] -- 1.0: [update2]",arrowhead="none"];
n15_0 [ shape=point,width=0.1,height=0.1,label="" ];
n15_0 -> 16 [label="1.0"];
16 [label="16\n(0,22,0,15,3,0)"];
16 -> n16_0 [label="0:CSG: 1.0: [<0>] -- 1.0: [<1>]",arrowhead="none"];
n16_0 [ shape=point,width=0.1,height=0.1,label="" ];
n16_0 -> 17 [label="1.0"];
17 [label="17\n(0,22,0,15,3,1)"];
17 -> n17_0 [label="0:CSG: Sat(0) -- Sat(1)",arrowhead="none"];
n17_0 [ shape=point,width=0.1,height=0.1,label="" ];
n17_0 -> 17 [label="1.0"];
18 [label="18\n(7,11,2,7,1,1)"];
18 -> n18_0 [label="0:CSG: 1.0: [update1] -- 1.0: [update2]",arrowhead="none"];
n18_0 [ shape=point,width=0.1,height=0.1,label="" ];
n18_0 -> 19 [label="1.0"];
19 [label="19\n(0,12,0,13,2,0)"];
19 -> n19_0 [label="0:CSG: 1.0: [contribute1_2] -- 1.0: [contribute2_2]",arrowhead="none"];
n19_0 [ shape=point,width=0.1,height=0.1,label="" ];
n19_0 -> 20 [label="1.0"];
20 [label="20\n(8,12,8,13,2,1)"];
20 -> n20_0 [label="0:CSG: 1.0: [update1] -- 1.0: [update2]",arrowhead="none"];
n20_0 [ shape=point,width=0.1,height=0.1,label="" ];
n20_0 -> 21 [label="1.0"];
21 [label="21\n(0,19,0,20,3,0)"];
21 -> n21_0 [label="0:CSG: 1.0: [<0>] -- 1.0: [<1>]",arrowhead="none"];
n21_0 [ shape=point,width=0.1,height=0.1,label="" ];
n21_0 -> 22 [label="1.0"];
22 [label="22\n(0,19,0,20,3,1)"];
22 -> n22_0 [label="0:CSG: Sat(0) -- Sat(1)",arrowhead="none"];
n22_0 [ shape=point,width=0.1,height=0.1,label="" ];
n22_0 -> 22 [label="1.0"];
}

/*
 -- Transitions --  
23 23 26
0 0 1 1 CSG: 1.0: [contribute1_1] -- 1.0: [contribute2_3]
1 0 2 1 CSG: 1.0: [update1] -- 1.0: [update2]
2 0 3 0.123966942149 CSG: 0.45454545454545453: [contribute1_3] + 0.5454545454545454: [contribute1_2] -- 0.2727272727272727: [contribute2_0] + 0.7272727272727273: [contribute2_1]
2 0 8 0.330578512397 CSG: 0.45454545454545453: [contribute1_3] + 0.5454545454545454: [contribute1_2] -- 0.2727272727272727: [contribute2_0] + 0.7272727272727273: [contribute2_1]
2 0 13 0.148760330579 CSG: 0.45454545454545453: [contribute1_3] + 0.5454545454545454: [contribute1_2] -- 0.2727272727272727: [contribute2_0] + 0.7272727272727273: [contribute2_1]
2 0 18 0.396694214876 CSG: 0.45454545454545453: [contribute1_3] + 0.5454545454545454: [contribute1_2] -- 0.2727272727272727: [contribute2_0] + 0.7272727272727273: [contribute2_1]
3 0 4 1 CSG: 1.0: [update1] -- 1.0: [update2]
4 0 5 1 CSG: 1.0: [contribute1_3] -- 1.0: [contribute2_1]
5 0 6 1 CSG: 1.0: [update1] -- 1.0: [update2]
6 0 7 1 CSG: 1.0: [<0>] -- 1.0: [<1>]
7 0 7 1 CSG: Sat(0) -- Sat(1)
8 0 9 1 CSG: 1.0: [update1] -- 1.0: [update2]
9 0 10 1 CSG: 1.0: [contribute1_1] -- 1.0: [contribute2_2]
10 0 11 1 CSG: 1.0: [update1] -- 1.0: [update2]
11 0 12 1 CSG: 1.0: [<0>] -- 1.0: [<1>]
12 0 12 1 CSG: Sat(0) -- Sat(1)
13 0 14 1 CSG: 1.0: [update1] -- 1.0: [update2]
14 0 15 1 CSG: 1.0: [contribute1_1] -- 1.0: [contribute2_3]
15 0 16 1 CSG: 1.0: [update1] -- 1.0: [update2]
16 0 17 1 CSG: 1.0: [<0>] -- 1.0: [<1>]
17 0 17 1 CSG: Sat(0) -- Sat(1)
18 0 19 1 CSG: 1.0: [update1] -- 1.0: [update2]
19 0 20 1 CSG: 1.0: [contribute1_2] -- 1.0: [contribute2_2]
20 0 21 1 CSG: 1.0: [update1] -- 1.0: [update2]
21 0 22 1 CSG: 1.0: [<0>] -- 1.0: [<1>]
22 0 22 1 CSG: Sat(0) -- Sat(1)

 -- States --  
(c1,p1,c2,p2,rounds,s)
0:(0,6,0,6,0,0)
1:(2,6,6,6,0,1)
2:(0,11,0,7,1,0)
3:(11,11,0,7,1,1)
4:(0,10,0,17,2,0)
5:(10,10,5,17,2,1)
6:(0,14,0,26,3,0)
7:(0,14,0,26,3,1)
8:(11,11,2,7,1,1)
9:(0,12,0,17,2,0)
10:(4,12,11,17,2,1)
11:(0,22,0,20,3,0)
12:(0,22,0,20,3,1)
13:(7,11,0,7,1,1)
14:(0,10,0,13,2,0)
15:(3,10,13,13,2,1)
16:(0,22,0,15,3,0)
17:(0,22,0,15,3,1)
18:(7,11,2,7,1,1)
19:(0,12,0,13,2,0)
20:(8,12,8,13,2,1)
21:(0,19,0,20,3,0)
22:(0,19,0,20,3,1)
*/
