digraph MDP {
node [label="",shape="box"];
0 [label="0\n(0,0,0,0,0,false,false,false)"];
0 -> n0_0 [label="0:CSG: 1.0: [contribute1_2] -- 1.0: [contribute2_2] -- 1.0: [contribute3_2]",arrowhead="none"];
n0_0 [ shape=point,width=0.1,height=0.1,label="" ];
n0_0 -> 1 [label="1.0"];
1 [label="1\n(2,2,2,0,1,false,false,false)"];
1 -> n1_0 [label="0:CSG: 1.0: [update1] -- 1.0: [update2] -- 1.0: [update3]",arrowhead="none"];
n1_0 [ shape=point,width=0.1,height=0.1,label="" ];
n1_0 -> 2 [label="1.0"];
2 [label="2\n(0,0,0,1,0,false,false,false)"];
2 -> n2_0 [label="0:CSG: 1.0: [<0>] -- 1.0: [<1>] -- 1.0: [<2>]",arrowhead="none"];
n2_0 [ shape=point,width=0.1,height=0.1,label="" ];
n2_0 -> 3 [label="1.0"];
3 [label="3\n(0,0,0,1,1,true,true,true)"];
3 -> n3_0 [label="0:Sat(0) -- Sat(1) -- Sat(2)",arrowhead="none"];
n3_0 [ shape=point,width=0.1,height=0.1,label="" ];
n3_0 -> 3 [label="1.0"];
}

/*
 -- Transitions --  
4 4 4
0 0 1 1 CSG: 1.0: [contribute1_2] -- 1.0: [contribute2_2] -- 1.0: [contribute3_2]
1 0 2 1 CSG: 1.0: [update1] -- 1.0: [update2] -- 1.0: [update3]
2 0 3 1 CSG: 1.0: [<0>] -- 1.0: [<1>] -- 1.0: [<2>]
3 0 3 1 Sat(0) -- Sat(1) -- Sat(2)

 -- States --  
(c1,c2,c3,rounds,s,_0,_1,_2)
0:(0,0,0,0,0,false,false,false)
1:(2,2,2,0,1,false,false,false)
2:(0,0,0,1,0,false,false,false)
3:(0,0,0,1,1,true,true,true)
*/
