digraph MDP {
node [label="",shape="box"];
0 [label="0\n(0,0,0,0)"];
0 -> n0_0 [label="0:1.0: [contribute2_0]--[contribute1_5]",arrowhead="none"];
n0_0 [ shape=point,width=0.1,height=0.1,label="" ];
n0_0 -> 1 [label="1.0"];
0 -> n0_1 [label="1:1.0: [contribute2_0]--[contribute1_3]",arrowhead="none"];
n0_1 [ shape=point,width=0.1,height=0.1,label="" ];
n0_1 -> 3 [label="1.0"];
0 -> n0_2 [label="2:1.0: [contribute2_0]--[contribute1_0]",arrowhead="none"];
n0_2 [ shape=point,width=0.1,height=0.1,label="" ];
n0_2 -> 4 [label="1.0"];
0 -> n0_3 [label="3:1.0: [contribute2_0]--[contribute1_6]",arrowhead="none"];
n0_3 [ shape=point,width=0.1,height=0.1,label="" ];
n0_3 -> 5 [label="1.0"];
0 -> n0_4 [label="4:1.0: [contribute2_0]--[contribute1_7]",arrowhead="none"];
n0_4 [ shape=point,width=0.1,height=0.1,label="" ];
n0_4 -> 6 [label="1.0"];
0 -> n0_5 [label="5:1.0: [contribute2_0]--[contribute1_1]",arrowhead="none"];
n0_5 [ shape=point,width=0.1,height=0.1,label="" ];
n0_5 -> 7 [label="1.0"];
0 -> n0_6 [label="6:1.0: [contribute2_0]--[contribute1_2]",arrowhead="none"];
n0_6 [ shape=point,width=0.1,height=0.1,label="" ];
n0_6 -> 8 [label="1.0"];
0 -> n0_7 [label="7:1.0: [contribute2_0]--[contribute1_4]",arrowhead="none"];
n0_7 [ shape=point,width=0.1,height=0.1,label="" ];
n0_7 -> 9 [label="1.0"];
1 [label="1\n(5,0,0,1)"];
1 -> n1_0 [label="0:1.0: [update2]--[update1]",arrowhead="none"];
n1_0 [ shape=point,width=0.1,height=0.1,label="" ];
n1_0 -> 2 [label="1.0"];
2 [label="2\n(0,0,1,0)"];
2 -> n2_0 [label="0:Sat",arrowhead="none"];
n2_0 [ shape=point,width=0.1,height=0.1,label="" ];
n2_0 -> 2 [label="1.0"];
3 [label="3\n(3,0,0,1)"];
3 -> n3_0 [label="0:1.0: [update2]--[update1]",arrowhead="none"];
n3_0 [ shape=point,width=0.1,height=0.1,label="" ];
n3_0 -> 2 [label="1.0"];
4 [label="4\n(0,0,0,1)"];
4 -> n4_0 [label="0:1.0: [update2]--[update1]",arrowhead="none"];
n4_0 [ shape=point,width=0.1,height=0.1,label="" ];
n4_0 -> 2 [label="1.0"];
5 [label="5\n(6,0,0,1)"];
5 -> n5_0 [label="0:1.0: [update2]--[update1]",arrowhead="none"];
n5_0 [ shape=point,width=0.1,height=0.1,label="" ];
n5_0 -> 2 [label="1.0"];
6 [label="6\n(7,0,0,1)"];
6 -> n6_0 [label="0:1.0: [update2]--[update1]",arrowhead="none"];
n6_0 [ shape=point,width=0.1,height=0.1,label="" ];
n6_0 -> 2 [label="1.0"];
7 [label="7\n(1,0,0,1)"];
7 -> n7_0 [label="0:1.0: [update2]--[update1]",arrowhead="none"];
n7_0 [ shape=point,width=0.1,height=0.1,label="" ];
n7_0 -> 2 [label="1.0"];
8 [label="8\n(2,0,0,1)"];
8 -> n8_0 [label="0:1.0: [update2]--[update1]",arrowhead="none"];
n8_0 [ shape=point,width=0.1,height=0.1,label="" ];
n8_0 -> 2 [label="1.0"];
9 [label="9\n(4,0,0,1)"];
9 -> n9_0 [label="0:1.0: [update2]--[update1]",arrowhead="none"];
n9_0 [ shape=point,width=0.1,height=0.1,label="" ];
n9_0 -> 2 [label="1.0"];
}

/*
 -- Transitions --  
10 17 17
0 0 1 1 1.0: [contribute2_0]--[contribute1_5]
0 1 3 1 1.0: [contribute2_0]--[contribute1_3]
0 2 4 1 1.0: [contribute2_0]--[contribute1_0]
0 3 5 1 1.0: [contribute2_0]--[contribute1_6]
0 4 6 1 1.0: [contribute2_0]--[contribute1_7]
0 5 7 1 1.0: [contribute2_0]--[contribute1_1]
0 6 8 1 1.0: [contribute2_0]--[contribute1_2]
0 7 9 1 1.0: [contribute2_0]--[contribute1_4]
1 0 2 1 1.0: [update2]--[update1]
2 0 2 1 Sat
3 0 2 1 1.0: [update2]--[update1]
4 0 2 1 1.0: [update2]--[update1]
5 0 2 1 1.0: [update2]--[update1]
6 0 2 1 1.0: [update2]--[update1]
7 0 2 1 1.0: [update2]--[update1]
8 0 2 1 1.0: [update2]--[update1]
9 0 2 1 1.0: [update2]--[update1]

 -- States --  
(c1,c2,rounds,s)
0:(0,0,0,0)
1:(5,0,0,1)
2:(0,0,1,0)
3:(3,0,0,1)
4:(0,0,0,1)
5:(6,0,0,1)
6:(7,0,0,1)
7:(1,0,0,1)
8:(2,0,0,1)
9:(4,0,0,1)
*/
