digraph MDP {
node [label="",shape="box"];
0 [label="0\n(0,0,0,0)"];
0 -> n0_0 [label="0:0.9999999999999998: [contribute2_0]--[contribute1_5]",arrowhead="none"];
n0_0 [ shape=point,width=0.1,height=0.1,label="" ];
n0_0 -> 1 [label="0.9999999999999998"];
0 -> n0_1 [label="1:0.9999999999999998: [contribute2_0]--[contribute1_3]",arrowhead="none"];
n0_1 [ shape=point,width=0.1,height=0.1,label="" ];
n0_1 -> 12 [label="0.9999999999999998"];
0 -> n0_2 [label="2:0.9999999999999998: [contribute2_0]--[contribute1_0]",arrowhead="none"];
n0_2 [ shape=point,width=0.1,height=0.1,label="" ];
n0_2 -> 13 [label="0.9999999999999998"];
0 -> n0_3 [label="3:0.9999999999999998: [contribute2_0]--[contribute1_6]",arrowhead="none"];
n0_3 [ shape=point,width=0.1,height=0.1,label="" ];
n0_3 -> 14 [label="0.9999999999999998"];
0 -> n0_4 [label="4:0.9999999999999998: [contribute2_0]--[contribute1_7]",arrowhead="none"];
n0_4 [ shape=point,width=0.1,height=0.1,label="" ];
n0_4 -> 15 [label="0.9999999999999998"];
0 -> n0_5 [label="5:0.9999999999999998: [contribute2_0]--[contribute1_1]",arrowhead="none"];
n0_5 [ shape=point,width=0.1,height=0.1,label="" ];
n0_5 -> 16 [label="0.9999999999999998"];
0 -> n0_6 [label="6:0.9999999999999998: [contribute2_0]--[contribute1_2]",arrowhead="none"];
n0_6 [ shape=point,width=0.1,height=0.1,label="" ];
n0_6 -> 17 [label="0.9999999999999998"];
0 -> n0_7 [label="7:0.9999999999999998: [contribute2_0]--[contribute1_4]",arrowhead="none"];
n0_7 [ shape=point,width=0.1,height=0.1,label="" ];
n0_7 -> 18 [label="0.9999999999999998"];
1 [label="1\n(5,0,0,1)"];
1 -> n1_0 [label="0:1.0: [update2]--[update1]",arrowhead="none"];
n1_0 [ shape=point,width=0.1,height=0.1,label="" ];
n1_0 -> 2 [label="1.0"];
2 [label="2\n(0,0,1,0)"];
2 -> n2_0 [label="0:0.9999999999999998: [contribute2_0]--[contribute1_5]",arrowhead="none"];
n2_0 [ shape=point,width=0.1,height=0.1,label="" ];
n2_0 -> 3 [label="0.9999999999999998"];
2 -> n2_1 [label="1:0.9999999999999998: [contribute2_0]--[contribute1_3]",arrowhead="none"];
n2_1 [ shape=point,width=0.1,height=0.1,label="" ];
n2_1 -> 5 [label="0.9999999999999998"];
2 -> n2_2 [label="2:0.9999999999999998: [contribute2_0]--[contribute1_0]",arrowhead="none"];
n2_2 [ shape=point,width=0.1,height=0.1,label="" ];
n2_2 -> 6 [label="0.9999999999999998"];
2 -> n2_3 [label="3:0.9999999999999998: [contribute2_0]--[contribute1_6]",arrowhead="none"];
n2_3 [ shape=point,width=0.1,height=0.1,label="" ];
n2_3 -> 7 [label="0.9999999999999998"];
2 -> n2_4 [label="4:0.9999999999999998: [contribute2_0]--[contribute1_7]",arrowhead="none"];
n2_4 [ shape=point,width=0.1,height=0.1,label="" ];
n2_4 -> 8 [label="0.9999999999999998"];
2 -> n2_5 [label="5:0.9999999999999998: [contribute2_0]--[contribute1_1]",arrowhead="none"];
n2_5 [ shape=point,width=0.1,height=0.1,label="" ];
n2_5 -> 9 [label="0.9999999999999998"];
2 -> n2_6 [label="6:0.9999999999999998: [contribute2_0]--[contribute1_2]",arrowhead="none"];
n2_6 [ shape=point,width=0.1,height=0.1,label="" ];
n2_6 -> 10 [label="0.9999999999999998"];
2 -> n2_7 [label="7:0.9999999999999998: [contribute2_0]--[contribute1_4]",arrowhead="none"];
n2_7 [ shape=point,width=0.1,height=0.1,label="" ];
n2_7 -> 11 [label="0.9999999999999998"];
3 [label="3\n(5,0,1,1)"];
3 -> n3_0 [label="0:1.0: [update2]--[update1]",arrowhead="none"];
n3_0 [ shape=point,width=0.1,height=0.1,label="" ];
n3_0 -> 4 [label="1.0"];
4 [label="4\n(0,0,2,0)"];
4 -> n4_0 [label="0:Sat",arrowhead="none"];
n4_0 [ shape=point,width=0.1,height=0.1,label="" ];
n4_0 -> 4 [label="1.0"];
5 [label="5\n(3,0,1,1)"];
5 -> n5_0 [label="0:1.0: [update2]--[update1]",arrowhead="none"];
n5_0 [ shape=point,width=0.1,height=0.1,label="" ];
n5_0 -> 4 [label="1.0"];
6 [label="6\n(0,0,1,1)"];
6 -> n6_0 [label="0:1.0: [update2]--[update1]",arrowhead="none"];
n6_0 [ shape=point,width=0.1,height=0.1,label="" ];
n6_0 -> 4 [label="1.0"];
7 [label="7\n(6,0,1,1)"];
7 -> n7_0 [label="0:1.0: [update2]--[update1]",arrowhead="none"];
n7_0 [ shape=point,width=0.1,height=0.1,label="" ];
n7_0 -> 4 [label="1.0"];
8 [label="8\n(7,0,1,1)"];
8 -> n8_0 [label="0:1.0: [update2]--[update1]",arrowhead="none"];
n8_0 [ shape=point,width=0.1,height=0.1,label="" ];
n8_0 -> 4 [label="1.0"];
9 [label="9\n(1,0,1,1)"];
9 -> n9_0 [label="0:1.0: [update2]--[update1]",arrowhead="none"];
n9_0 [ shape=point,width=0.1,height=0.1,label="" ];
n9_0 -> 4 [label="1.0"];
10 [label="10\n(2,0,1,1)"];
10 -> n10_0 [label="0:1.0: [update2]--[update1]",arrowhead="none"];
n10_0 [ shape=point,width=0.1,height=0.1,label="" ];
n10_0 -> 4 [label="1.0"];
11 [label="11\n(4,0,1,1)"];
11 -> n11_0 [label="0:1.0: [update2]--[update1]",arrowhead="none"];
n11_0 [ shape=point,width=0.1,height=0.1,label="" ];
n11_0 -> 4 [label="1.0"];
12 [label="12\n(3,0,0,1)"];
12 -> n12_0 [label="0:1.0: [update2]--[update1]",arrowhead="none"];
n12_0 [ shape=point,width=0.1,height=0.1,label="" ];
n12_0 -> 2 [label="1.0"];
13 [label="13\n(0,0,0,1)"];
13 -> n13_0 [label="0:1.0: [update2]--[update1]",arrowhead="none"];
n13_0 [ shape=point,width=0.1,height=0.1,label="" ];
n13_0 -> 2 [label="1.0"];
14 [label="14\n(6,0,0,1)"];
14 -> n14_0 [label="0:1.0: [update2]--[update1]",arrowhead="none"];
n14_0 [ shape=point,width=0.1,height=0.1,label="" ];
n14_0 -> 2 [label="1.0"];
15 [label="15\n(7,0,0,1)"];
15 -> n15_0 [label="0:1.0: [update2]--[update1]",arrowhead="none"];
n15_0 [ shape=point,width=0.1,height=0.1,label="" ];
n15_0 -> 2 [label="1.0"];
16 [label="16\n(1,0,0,1)"];
16 -> n16_0 [label="0:1.0: [update2]--[update1]",arrowhead="none"];
n16_0 [ shape=point,width=0.1,height=0.1,label="" ];
n16_0 -> 2 [label="1.0"];
17 [label="17\n(2,0,0,1)"];
17 -> n17_0 [label="0:1.0: [update2]--[update1]",arrowhead="none"];
n17_0 [ shape=point,width=0.1,height=0.1,label="" ];
n17_0 -> 2 [label="1.0"];
18 [label="18\n(4,0,0,1)"];
18 -> n18_0 [label="0:1.0: [update2]--[update1]",arrowhead="none"];
n18_0 [ shape=point,width=0.1,height=0.1,label="" ];
n18_0 -> 2 [label="1.0"];
}

/*
 -- Transitions --  
19 33 33
0 0 1 1 0.9999999999999998: [contribute2_0]--[contribute1_5]
0 1 12 1 0.9999999999999998: [contribute2_0]--[contribute1_3]
0 2 13 1 0.9999999999999998: [contribute2_0]--[contribute1_0]
0 3 14 1 0.9999999999999998: [contribute2_0]--[contribute1_6]
0 4 15 1 0.9999999999999998: [contribute2_0]--[contribute1_7]
0 5 16 1 0.9999999999999998: [contribute2_0]--[contribute1_1]
0 6 17 1 0.9999999999999998: [contribute2_0]--[contribute1_2]
0 7 18 1 0.9999999999999998: [contribute2_0]--[contribute1_4]
1 0 2 1 1.0: [update2]--[update1]
2 0 3 1 0.9999999999999998: [contribute2_0]--[contribute1_5]
2 1 5 1 0.9999999999999998: [contribute2_0]--[contribute1_3]
2 2 6 1 0.9999999999999998: [contribute2_0]--[contribute1_0]
2 3 7 1 0.9999999999999998: [contribute2_0]--[contribute1_6]
2 4 8 1 0.9999999999999998: [contribute2_0]--[contribute1_7]
2 5 9 1 0.9999999999999998: [contribute2_0]--[contribute1_1]
2 6 10 1 0.9999999999999998: [contribute2_0]--[contribute1_2]
2 7 11 1 0.9999999999999998: [contribute2_0]--[contribute1_4]
3 0 4 1 1.0: [update2]--[update1]
4 0 4 1 Sat
5 0 4 1 1.0: [update2]--[update1]
6 0 4 1 1.0: [update2]--[update1]
7 0 4 1 1.0: [update2]--[update1]
8 0 4 1 1.0: [update2]--[update1]
9 0 4 1 1.0: [update2]--[update1]
10 0 4 1 1.0: [update2]--[update1]
11 0 4 1 1.0: [update2]--[update1]
12 0 2 1 1.0: [update2]--[update1]
13 0 2 1 1.0: [update2]--[update1]
14 0 2 1 1.0: [update2]--[update1]
15 0 2 1 1.0: [update2]--[update1]
16 0 2 1 1.0: [update2]--[update1]
17 0 2 1 1.0: [update2]--[update1]
18 0 2 1 1.0: [update2]--[update1]

 -- States --  
(c1,c2,rounds,s)
0:(0,0,0,0)
1:(5,0,0,1)
2:(0,0,1,0)
3:(5,0,1,1)
4:(0,0,2,0)
5:(3,0,1,1)
6:(0,0,1,1)
7:(6,0,1,1)
8:(7,0,1,1)
9:(1,0,1,1)
10:(2,0,1,1)
11:(4,0,1,1)
12:(3,0,0,1)
13:(0,0,0,1)
14:(6,0,0,1)
15:(7,0,0,1)
16:(1,0,0,1)
17:(2,0,0,1)
18:(4,0,0,1)
*/
