digraph MDP {
node [label="",shape="box"];
0 [label="0\n(0,10,0,10,0,0)"];
0 -> n0_0 [label="0:CSG: 1.0: [contribute1_0] -- 1.0: [contribute2_0]",arrowhead="none"];
n0_0 [ shape=point,width=0.1,height=0.1,label="" ];
n0_0 -> 1 [label="1.0"];
1 [label="1\n(0,10,0,10,0,1)"];
1 -> n1_0 [label="0:CSG: 1.0: [update1] -- 1.0: [update2]",arrowhead="none"];
n1_0 [ shape=point,width=0.1,height=0.1,label="" ];
n1_0 -> 2 [label="1.0"];
2 [label="2\n(0,10,0,10,1,0)"];
2 -> n2_0 [label="0:CSG: 1.0: [contribute1_1] -- 1.0: [contribute2_3]",arrowhead="none"];
n2_0 [ shape=point,width=0.1,height=0.1,label="" ];
n2_0 -> 3 [label="1.0"];
3 [label="3\n(3,10,10,10,1,1)"];
3 -> n3_0 [label="0:CSG: 1.0: [update1] -- 1.0: [update2]",arrowhead="none"];
n3_0 [ shape=point,width=0.1,height=0.1,label="" ];
n3_0 -> 4 [label="1.0"];
4 [label="4\n(0,19,0,12,2,0)"];
4 -> n4_0 [label="0:CSG: 1.0: [<0>] -- 1.0: [<1>]",arrowhead="none"];
n4_0 [ shape=point,width=0.1,height=0.1,label="" ];
n4_0 -> 5 [label="1.0"];
5 [label="5\n(0,19,0,12,2,1)"];
5 -> n5_0 [label="0:CSG: Sat(0) -- Sat(1)",arrowhead="none"];
n5_0 [ shape=point,width=0.1,height=0.1,label="" ];
n5_0 -> 5 [label="1.0"];
}

/*
 -- Transitions --  
6 6 6
0 0 1 1 CSG: 1.0: [contribute1_0] -- 1.0: [contribute2_0]
1 0 2 1 CSG: 1.0: [update1] -- 1.0: [update2]
2 0 3 1 CSG: 1.0: [contribute1_1] -- 1.0: [contribute2_3]
3 0 4 1 CSG: 1.0: [update1] -- 1.0: [update2]
4 0 5 1 CSG: 1.0: [<0>] -- 1.0: [<1>]
5 0 5 1 CSG: Sat(0) -- Sat(1)

 -- States --  
(c1,p1,c2,p2,rounds,s)
0:(0,10,0,10,0,0)
1:(0,10,0,10,0,1)
2:(0,10,0,10,1,0)
3:(3,10,10,10,1,1)
4:(0,19,0,12,2,0)
5:(0,19,0,12,2,1)
*/
