digraph MDP {
node [label="",shape="box"];
0 [label="0\n(0,10,0,10,0,0)"];
0 -> n0_0 [label="0:1.0: [contribute2_0]--[contribute1_3]",arrowhead="none"];
n0_0 [ shape=point,width=0.1,height=0.1,label="" ];
n0_0 -> 1 [label="1.0"];
0 -> n0_1 [label="1:1.0: [contribute2_0]--[contribute1_0]",arrowhead="none"];
n0_1 [ shape=point,width=0.1,height=0.1,label="" ];
n0_1 -> 15 [label="1.0"];
0 -> n0_2 [label="2:1.0: [contribute2_0]--[contribute1_5]",arrowhead="none"];
n0_2 [ shape=point,width=0.1,height=0.1,label="" ];
n0_2 -> 26 [label="1.0"];
0 -> n0_3 [label="3:1.0: [contribute2_0]--[contribute1_1]",arrowhead="none"];
n0_3 [ shape=point,width=0.1,height=0.1,label="" ];
n0_3 -> 36 [label="1.0"];
0 -> n0_4 [label="4:1.0: [contribute2_0]--[contribute1_2]",arrowhead="none"];
n0_4 [ shape=point,width=0.1,height=0.1,label="" ];
n0_4 -> 44 [label="1.0"];
0 -> n0_5 [label="5:1.0: [contribute2_0]--[contribute1_4]",arrowhead="none"];
n0_5 [ shape=point,width=0.1,height=0.1,label="" ];
n0_5 -> 52 [label="1.0"];
1 [label="1\n(6,10,0,10,0,1)"];
1 -> n1_0 [label="0:1.0: [update2]--[update1]",arrowhead="none"];
n1_0 [ shape=point,width=0.1,height=0.1,label="" ];
n1_0 -> 2 [label="1.0"];
2 [label="2\n(0,10,0,16,1,0)"];
2 -> n2_0 [label="0:1.0: [contribute2_0]--[contribute1_3]",arrowhead="none"];
n2_0 [ shape=point,width=0.1,height=0.1,label="" ];
n2_0 -> 3 [label="1.0"];
2 -> n2_1 [label="1:1.0: [contribute2_0]--[contribute1_0]",arrowhead="none"];
n2_1 [ shape=point,width=0.1,height=0.1,label="" ];
n2_1 -> 5 [label="1.0"];
2 -> n2_2 [label="2:1.0: [contribute2_0]--[contribute1_5]",arrowhead="none"];
n2_2 [ shape=point,width=0.1,height=0.1,label="" ];
n2_2 -> 7 [label="1.0"];
2 -> n2_3 [label="3:1.0: [contribute2_0]--[contribute1_1]",arrowhead="none"];
n2_3 [ shape=point,width=0.1,height=0.1,label="" ];
n2_3 -> 9 [label="1.0"];
2 -> n2_4 [label="4:1.0: [contribute2_0]--[contribute1_2]",arrowhead="none"];
n2_4 [ shape=point,width=0.1,height=0.1,label="" ];
n2_4 -> 11 [label="1.0"];
2 -> n2_5 [label="5:1.0: [contribute2_0]--[contribute1_4]",arrowhead="none"];
n2_5 [ shape=point,width=0.1,height=0.1,label="" ];
n2_5 -> 13 [label="1.0"];
3 [label="3\n(6,10,0,16,1,1)"];
3 -> n3_0 [label="0:1.0: [update2]--[update1]",arrowhead="none"];
n3_0 [ shape=point,width=0.1,height=0.1,label="" ];
n3_0 -> 4 [label="1.0"];
4 [label="4\n(0,10,0,22,2,0)"];
4 -> n4_0 [label="0:Sat",arrowhead="none"];
n4_0 [ shape=point,width=0.1,height=0.1,label="" ];
n4_0 -> 4 [label="1.0"];
5 [label="5\n(0,10,0,16,1,1)"];
5 -> n5_0 [label="0:1.0: [update2]--[update1]",arrowhead="none"];
n5_0 [ shape=point,width=0.1,height=0.1,label="" ];
n5_0 -> 6 [label="1.0"];
6 [label="6\n(0,10,0,16,2,0)"];
6 -> n6_0 [label="0:Sat",arrowhead="none"];
n6_0 [ shape=point,width=0.1,height=0.1,label="" ];
n6_0 -> 6 [label="1.0"];
7 [label="7\n(10,10,0,16,1,1)"];
7 -> n7_0 [label="0:1.0: [update2]--[update1]",arrowhead="none"];
n7_0 [ shape=point,width=0.1,height=0.1,label="" ];
n7_0 -> 8 [label="1.0"];
8 [label="8\n(0,10,0,26,2,0)"];
8 -> n8_0 [label="0:Sat",arrowhead="none"];
n8_0 [ shape=point,width=0.1,height=0.1,label="" ];
n8_0 -> 8 [label="1.0"];
9 [label="9\n(2,10,0,16,1,1)"];
9 -> n9_0 [label="0:1.0: [update2]--[update1]",arrowhead="none"];
n9_0 [ shape=point,width=0.1,height=0.1,label="" ];
n9_0 -> 10 [label="1.0"];
10 [label="10\n(0,10,0,18,2,0)"];
10 -> n10_0 [label="0:Sat",arrowhead="none"];
n10_0 [ shape=point,width=0.1,height=0.1,label="" ];
n10_0 -> 10 [label="1.0"];
11 [label="11\n(4,10,0,16,1,1)"];
11 -> n11_0 [label="0:1.0: [update2]--[update1]",arrowhead="none"];
n11_0 [ shape=point,width=0.1,height=0.1,label="" ];
n11_0 -> 12 [label="1.0"];
12 [label="12\n(0,10,0,20,2,0)"];
12 -> n12_0 [label="0:Sat",arrowhead="none"];
n12_0 [ shape=point,width=0.1,height=0.1,label="" ];
n12_0 -> 12 [label="1.0"];
13 [label="13\n(8,10,0,16,1,1)"];
13 -> n13_0 [label="0:1.0: [update2]--[update1]",arrowhead="none"];
n13_0 [ shape=point,width=0.1,height=0.1,label="" ];
n13_0 -> 14 [label="1.0"];
14 [label="14\n(0,10,0,24,2,0)"];
14 -> n14_0 [label="0:Sat",arrowhead="none"];
n14_0 [ shape=point,width=0.1,height=0.1,label="" ];
n14_0 -> 14 [label="1.0"];
15 [label="15\n(0,10,0,10,0,1)"];
15 -> n15_0 [label="0:1.0: [update2]--[update1]",arrowhead="none"];
n15_0 [ shape=point,width=0.1,height=0.1,label="" ];
n15_0 -> 16 [label="1.0"];
16 [label="16\n(0,10,0,10,1,0)"];
16 -> n16_0 [label="0:1.0: [contribute2_0]--[contribute1_3]",arrowhead="none"];
n16_0 [ shape=point,width=0.1,height=0.1,label="" ];
n16_0 -> 17 [label="1.0"];
16 -> n16_1 [label="1:1.0: [contribute2_0]--[contribute1_0]",arrowhead="none"];
n16_1 [ shape=point,width=0.1,height=0.1,label="" ];
n16_1 -> 18 [label="1.0"];
16 -> n16_2 [label="2:1.0: [contribute2_0]--[contribute1_5]",arrowhead="none"];
n16_2 [ shape=point,width=0.1,height=0.1,label="" ];
n16_2 -> 20 [label="1.0"];
16 -> n16_3 [label="3:1.0: [contribute2_0]--[contribute1_1]",arrowhead="none"];
n16_3 [ shape=point,width=0.1,height=0.1,label="" ];
n16_3 -> 21 [label="1.0"];
16 -> n16_4 [label="4:1.0: [contribute2_0]--[contribute1_2]",arrowhead="none"];
n16_4 [ shape=point,width=0.1,height=0.1,label="" ];
n16_4 -> 23 [label="1.0"];
16 -> n16_5 [label="5:1.0: [contribute2_0]--[contribute1_4]",arrowhead="none"];
n16_5 [ shape=point,width=0.1,height=0.1,label="" ];
n16_5 -> 25 [label="1.0"];
17 [label="17\n(6,10,0,10,1,1)"];
17 -> n17_0 [label="0:1.0: [update2]--[update1]",arrowhead="none"];
n17_0 [ shape=point,width=0.1,height=0.1,label="" ];
n17_0 -> 6 [label="1.0"];
18 [label="18\n(0,10,0,10,1,1)"];
18 -> n18_0 [label="0:1.0: [update2]--[update1]",arrowhead="none"];
n18_0 [ shape=point,width=0.1,height=0.1,label="" ];
n18_0 -> 19 [label="1.0"];
19 [label="19\n(0,10,0,10,2,0)"];
19 -> n19_0 [label="0:Sat",arrowhead="none"];
n19_0 [ shape=point,width=0.1,height=0.1,label="" ];
n19_0 -> 19 [label="1.0"];
20 [label="20\n(10,10,0,10,1,1)"];
20 -> n20_0 [label="0:1.0: [update2]--[update1]",arrowhead="none"];
n20_0 [ shape=point,width=0.1,height=0.1,label="" ];
n20_0 -> 12 [label="1.0"];
21 [label="21\n(2,10,0,10,1,1)"];
21 -> n21_0 [label="0:1.0: [update2]--[update1]",arrowhead="none"];
n21_0 [ shape=point,width=0.1,height=0.1,label="" ];
n21_0 -> 22 [label="1.0"];
22 [label="22\n(0,10,0,12,2,0)"];
22 -> n22_0 [label="0:Sat",arrowhead="none"];
n22_0 [ shape=point,width=0.1,height=0.1,label="" ];
n22_0 -> 22 [label="1.0"];
23 [label="23\n(4,10,0,10,1,1)"];
23 -> n23_0 [label="0:1.0: [update2]--[update1]",arrowhead="none"];
n23_0 [ shape=point,width=0.1,height=0.1,label="" ];
n23_0 -> 24 [label="1.0"];
24 [label="24\n(0,10,0,14,2,0)"];
24 -> n24_0 [label="0:Sat",arrowhead="none"];
n24_0 [ shape=point,width=0.1,height=0.1,label="" ];
n24_0 -> 24 [label="1.0"];
25 [label="25\n(8,10,0,10,1,1)"];
25 -> n25_0 [label="0:1.0: [update2]--[update1]",arrowhead="none"];
n25_0 [ shape=point,width=0.1,height=0.1,label="" ];
n25_0 -> 10 [label="1.0"];
26 [label="26\n(10,10,0,10,0,1)"];
26 -> n26_0 [label="0:1.0: [update2]--[update1]",arrowhead="none"];
n26_0 [ shape=point,width=0.1,height=0.1,label="" ];
n26_0 -> 27 [label="1.0"];
27 [label="27\n(0,10,0,20,1,0)"];
27 -> n27_0 [label="0:1.0: [contribute2_0]--[contribute1_3]",arrowhead="none"];
n27_0 [ shape=point,width=0.1,height=0.1,label="" ];
n27_0 -> 28 [label="1.0"];
27 -> n27_1 [label="1:1.0: [contribute2_0]--[contribute1_0]",arrowhead="none"];
n27_1 [ shape=point,width=0.1,height=0.1,label="" ];
n27_1 -> 29 [label="1.0"];
27 -> n27_2 [label="2:1.0: [contribute2_0]--[contribute1_5]",arrowhead="none"];
n27_2 [ shape=point,width=0.1,height=0.1,label="" ];
n27_2 -> 30 [label="1.0"];
27 -> n27_3 [label="3:1.0: [contribute2_0]--[contribute1_1]",arrowhead="none"];
n27_3 [ shape=point,width=0.1,height=0.1,label="" ];
n27_3 -> 32 [label="1.0"];
27 -> n27_4 [label="4:1.0: [contribute2_0]--[contribute1_2]",arrowhead="none"];
n27_4 [ shape=point,width=0.1,height=0.1,label="" ];
n27_4 -> 33 [label="1.0"];
27 -> n27_5 [label="5:1.0: [contribute2_0]--[contribute1_4]",arrowhead="none"];
n27_5 [ shape=point,width=0.1,height=0.1,label="" ];
n27_5 -> 34 [label="1.0"];
28 [label="28\n(6,10,0,20,1,1)"];
28 -> n28_0 [label="0:1.0: [update2]--[update1]",arrowhead="none"];
n28_0 [ shape=point,width=0.1,height=0.1,label="" ];
n28_0 -> 8 [label="1.0"];
29 [label="29\n(0,10,0,20,1,1)"];
29 -> n29_0 [label="0:1.0: [update2]--[update1]",arrowhead="none"];
n29_0 [ shape=point,width=0.1,height=0.1,label="" ];
n29_0 -> 12 [label="1.0"];
30 [label="30\n(10,10,0,20,1,1)"];
30 -> n30_0 [label="0:1.0: [update2]--[update1]",arrowhead="none"];
n30_0 [ shape=point,width=0.1,height=0.1,label="" ];
n30_0 -> 31 [label="1.0"];
31 [label="31\n(0,10,0,30,2,0)"];
31 -> n31_0 [label="0:Sat",arrowhead="none"];
n31_0 [ shape=point,width=0.1,height=0.1,label="" ];
n31_0 -> 31 [label="1.0"];
32 [label="32\n(2,10,0,20,1,1)"];
32 -> n32_0 [label="0:1.0: [update2]--[update1]",arrowhead="none"];
n32_0 [ shape=point,width=0.1,height=0.1,label="" ];
n32_0 -> 4 [label="1.0"];
33 [label="33\n(4,10,0,20,1,1)"];
33 -> n33_0 [label="0:1.0: [update2]--[update1]",arrowhead="none"];
n33_0 [ shape=point,width=0.1,height=0.1,label="" ];
n33_0 -> 14 [label="1.0"];
34 [label="34\n(8,10,0,20,1,1)"];
34 -> n34_0 [label="0:1.0: [update2]--[update1]",arrowhead="none"];
n34_0 [ shape=point,width=0.1,height=0.1,label="" ];
n34_0 -> 35 [label="1.0"];
35 [label="35\n(0,10,0,28,2,0)"];
35 -> n35_0 [label="0:Sat",arrowhead="none"];
n35_0 [ shape=point,width=0.1,height=0.1,label="" ];
n35_0 -> 35 [label="1.0"];
36 [label="36\n(2,10,0,10,0,1)"];
36 -> n36_0 [label="0:1.0: [update2]--[update1]",arrowhead="none"];
n36_0 [ shape=point,width=0.1,height=0.1,label="" ];
n36_0 -> 37 [label="1.0"];
37 [label="37\n(0,10,0,12,1,0)"];
37 -> n37_0 [label="0:1.0: [contribute2_0]--[contribute1_3]",arrowhead="none"];
n37_0 [ shape=point,width=0.1,height=0.1,label="" ];
n37_0 -> 38 [label="1.0"];
37 -> n37_1 [label="1:1.0: [contribute2_0]--[contribute1_0]",arrowhead="none"];
n37_1 [ shape=point,width=0.1,height=0.1,label="" ];
n37_1 -> 39 [label="1.0"];
37 -> n37_2 [label="2:1.0: [contribute2_0]--[contribute1_5]",arrowhead="none"];
n37_2 [ shape=point,width=0.1,height=0.1,label="" ];
n37_2 -> 40 [label="1.0"];
37 -> n37_3 [label="3:1.0: [contribute2_0]--[contribute1_1]",arrowhead="none"];
n37_3 [ shape=point,width=0.1,height=0.1,label="" ];
n37_3 -> 41 [label="1.0"];
37 -> n37_4 [label="4:1.0: [contribute2_0]--[contribute1_2]",arrowhead="none"];
n37_4 [ shape=point,width=0.1,height=0.1,label="" ];
n37_4 -> 42 [label="1.0"];
37 -> n37_5 [label="5:1.0: [contribute2_0]--[contribute1_4]",arrowhead="none"];
n37_5 [ shape=point,width=0.1,height=0.1,label="" ];
n37_5 -> 43 [label="1.0"];
38 [label="38\n(6,10,0,12,1,1)"];
38 -> n38_0 [label="0:1.0: [update2]--[update1]",arrowhead="none"];
n38_0 [ shape=point,width=0.1,height=0.1,label="" ];
n38_0 -> 10 [label="1.0"];
39 [label="39\n(0,10,0,12,1,1)"];
39 -> n39_0 [label="0:1.0: [update2]--[update1]",arrowhead="none"];
n39_0 [ shape=point,width=0.1,height=0.1,label="" ];
n39_0 -> 22 [label="1.0"];
40 [label="40\n(10,10,0,12,1,1)"];
40 -> n40_0 [label="0:1.0: [update2]--[update1]",arrowhead="none"];
n40_0 [ shape=point,width=0.1,height=0.1,label="" ];
n40_0 -> 4 [label="1.0"];
41 [label="41\n(2,10,0,12,1,1)"];
41 -> n41_0 [label="0:1.0: [update2]--[update1]",arrowhead="none"];
n41_0 [ shape=point,width=0.1,height=0.1,label="" ];
n41_0 -> 24 [label="1.0"];
42 [label="42\n(4,10,0,12,1,1)"];
42 -> n42_0 [label="0:1.0: [update2]--[update1]",arrowhead="none"];
n42_0 [ shape=point,width=0.1,height=0.1,label="" ];
n42_0 -> 6 [label="1.0"];
43 [label="43\n(8,10,0,12,1,1)"];
43 -> n43_0 [label="0:1.0: [update2]--[update1]",arrowhead="none"];
n43_0 [ shape=point,width=0.1,height=0.1,label="" ];
n43_0 -> 12 [label="1.0"];
44 [label="44\n(4,10,0,10,0,1)"];
44 -> n44_0 [label="0:1.0: [update2]--[update1]",arrowhead="none"];
n44_0 [ shape=point,width=0.1,height=0.1,label="" ];
n44_0 -> 45 [label="1.0"];
45 [label="45\n(0,10,0,14,1,0)"];
45 -> n45_0 [label="0:1.0: [contribute2_0]--[contribute1_3]",arrowhead="none"];
n45_0 [ shape=point,width=0.1,height=0.1,label="" ];
n45_0 -> 46 [label="1.0"];
45 -> n45_1 [label="1:1.0: [contribute2_0]--[contribute1_0]",arrowhead="none"];
n45_1 [ shape=point,width=0.1,height=0.1,label="" ];
n45_1 -> 47 [label="1.0"];
45 -> n45_2 [label="2:1.0: [contribute2_0]--[contribute1_5]",arrowhead="none"];
n45_2 [ shape=point,width=0.1,height=0.1,label="" ];
n45_2 -> 48 [label="1.0"];
45 -> n45_3 [label="3:1.0: [contribute2_0]--[contribute1_1]",arrowhead="none"];
n45_3 [ shape=point,width=0.1,height=0.1,label="" ];
n45_3 -> 49 [label="1.0"];
45 -> n45_4 [label="4:1.0: [contribute2_0]--[contribute1_2]",arrowhead="none"];
n45_4 [ shape=point,width=0.1,height=0.1,label="" ];
n45_4 -> 50 [label="1.0"];
45 -> n45_5 [label="5:1.0: [contribute2_0]--[contribute1_4]",arrowhead="none"];
n45_5 [ shape=point,width=0.1,height=0.1,label="" ];
n45_5 -> 51 [label="1.0"];
46 [label="46\n(6,10,0,14,1,1)"];
46 -> n46_0 [label="0:1.0: [update2]--[update1]",arrowhead="none"];
n46_0 [ shape=point,width=0.1,height=0.1,label="" ];
n46_0 -> 12 [label="1.0"];
47 [label="47\n(0,10,0,14,1,1)"];
47 -> n47_0 [label="0:1.0: [update2]--[update1]",arrowhead="none"];
n47_0 [ shape=point,width=0.1,height=0.1,label="" ];
n47_0 -> 24 [label="1.0"];
48 [label="48\n(10,10,0,14,1,1)"];
48 -> n48_0 [label="0:1.0: [update2]--[update1]",arrowhead="none"];
n48_0 [ shape=point,width=0.1,height=0.1,label="" ];
n48_0 -> 14 [label="1.0"];
49 [label="49\n(2,10,0,14,1,1)"];
49 -> n49_0 [label="0:1.0: [update2]--[update1]",arrowhead="none"];
n49_0 [ shape=point,width=0.1,height=0.1,label="" ];
n49_0 -> 6 [label="1.0"];
50 [label="50\n(4,10,0,14,1,1)"];
50 -> n50_0 [label="0:1.0: [update2]--[update1]",arrowhead="none"];
n50_0 [ shape=point,width=0.1,height=0.1,label="" ];
n50_0 -> 10 [label="1.0"];
51 [label="51\n(8,10,0,14,1,1)"];
51 -> n51_0 [label="0:1.0: [update2]--[update1]",arrowhead="none"];
n51_0 [ shape=point,width=0.1,height=0.1,label="" ];
n51_0 -> 4 [label="1.0"];
52 [label="52\n(8,10,0,10,0,1)"];
52 -> n52_0 [label="0:1.0: [update2]--[update1]",arrowhead="none"];
n52_0 [ shape=point,width=0.1,height=0.1,label="" ];
n52_0 -> 53 [label="1.0"];
53 [label="53\n(0,10,0,18,1,0)"];
53 -> n53_0 [label="0:1.0: [contribute2_0]--[contribute1_3]",arrowhead="none"];
n53_0 [ shape=point,width=0.1,height=0.1,label="" ];
n53_0 -> 54 [label="1.0"];
53 -> n53_1 [label="1:1.0: [contribute2_0]--[contribute1_0]",arrowhead="none"];
n53_1 [ shape=point,width=0.1,height=0.1,label="" ];
n53_1 -> 55 [label="1.0"];
53 -> n53_2 [label="2:1.0: [contribute2_0]--[contribute1_5]",arrowhead="none"];
n53_2 [ shape=point,width=0.1,height=0.1,label="" ];
n53_2 -> 56 [label="1.0"];
53 -> n53_3 [label="3:1.0: [contribute2_0]--[contribute1_1]",arrowhead="none"];
n53_3 [ shape=point,width=0.1,height=0.1,label="" ];
n53_3 -> 57 [label="1.0"];
53 -> n53_4 [label="4:1.0: [contribute2_0]--[contribute1_2]",arrowhead="none"];
n53_4 [ shape=point,width=0.1,height=0.1,label="" ];
n53_4 -> 58 [label="1.0"];
53 -> n53_5 [label="5:1.0: [contribute2_0]--[contribute1_4]",arrowhead="none"];
n53_5 [ shape=point,width=0.1,height=0.1,label="" ];
n53_5 -> 59 [label="1.0"];
54 [label="54\n(6,10,0,18,1,1)"];
54 -> n54_0 [label="0:1.0: [update2]--[update1]",arrowhead="none"];
n54_0 [ shape=point,width=0.1,height=0.1,label="" ];
n54_0 -> 14 [label="1.0"];
55 [label="55\n(0,10,0,18,1,1)"];
55 -> n55_0 [label="0:1.0: [update2]--[update1]",arrowhead="none"];
n55_0 [ shape=point,width=0.1,height=0.1,label="" ];
n55_0 -> 10 [label="1.0"];
56 [label="56\n(10,10,0,18,1,1)"];
56 -> n56_0 [label="0:1.0: [update2]--[update1]",arrowhead="none"];
n56_0 [ shape=point,width=0.1,height=0.1,label="" ];
n56_0 -> 35 [label="1.0"];
57 [label="57\n(2,10,0,18,1,1)"];
57 -> n57_0 [label="0:1.0: [update2]--[update1]",arrowhead="none"];
n57_0 [ shape=point,width=0.1,height=0.1,label="" ];
n57_0 -> 12 [label="1.0"];
58 [label="58\n(4,10,0,18,1,1)"];
58 -> n58_0 [label="0:1.0: [update2]--[update1]",arrowhead="none"];
n58_0 [ shape=point,width=0.1,height=0.1,label="" ];
n58_0 -> 4 [label="1.0"];
59 [label="59\n(8,10,0,18,1,1)"];
59 -> n59_0 [label="0:1.0: [update2]--[update1]",arrowhead="none"];
n59_0 [ shape=point,width=0.1,height=0.1,label="" ];
n59_0 -> 8 [label="1.0"];
}

/*
 -- Transitions --  
60 95 95
0 0 1 1 1.0: [contribute2_0]--[contribute1_3]
0 1 15 1 1.0: [contribute2_0]--[contribute1_0]
0 2 26 1 1.0: [contribute2_0]--[contribute1_5]
0 3 36 1 1.0: [contribute2_0]--[contribute1_1]
0 4 44 1 1.0: [contribute2_0]--[contribute1_2]
0 5 52 1 1.0: [contribute2_0]--[contribute1_4]
1 0 2 1 1.0: [update2]--[update1]
2 0 3 1 1.0: [contribute2_0]--[contribute1_3]
2 1 5 1 1.0: [contribute2_0]--[contribute1_0]
2 2 7 1 1.0: [contribute2_0]--[contribute1_5]
2 3 9 1 1.0: [contribute2_0]--[contribute1_1]
2 4 11 1 1.0: [contribute2_0]--[contribute1_2]
2 5 13 1 1.0: [contribute2_0]--[contribute1_4]
3 0 4 1 1.0: [update2]--[update1]
4 0 4 1 Sat
5 0 6 1 1.0: [update2]--[update1]
6 0 6 1 Sat
7 0 8 1 1.0: [update2]--[update1]
8 0 8 1 Sat
9 0 10 1 1.0: [update2]--[update1]
10 0 10 1 Sat
11 0 12 1 1.0: [update2]--[update1]
12 0 12 1 Sat
13 0 14 1 1.0: [update2]--[update1]
14 0 14 1 Sat
15 0 16 1 1.0: [update2]--[update1]
16 0 17 1 1.0: [contribute2_0]--[contribute1_3]
16 1 18 1 1.0: [contribute2_0]--[contribute1_0]
16 2 20 1 1.0: [contribute2_0]--[contribute1_5]
16 3 21 1 1.0: [contribute2_0]--[contribute1_1]
16 4 23 1 1.0: [contribute2_0]--[contribute1_2]
16 5 25 1 1.0: [contribute2_0]--[contribute1_4]
17 0 6 1 1.0: [update2]--[update1]
18 0 19 1 1.0: [update2]--[update1]
19 0 19 1 Sat
20 0 12 1 1.0: [update2]--[update1]
21 0 22 1 1.0: [update2]--[update1]
22 0 22 1 Sat
23 0 24 1 1.0: [update2]--[update1]
24 0 24 1 Sat
25 0 10 1 1.0: [update2]--[update1]
26 0 27 1 1.0: [update2]--[update1]
27 0 28 1 1.0: [contribute2_0]--[contribute1_3]
27 1 29 1 1.0: [contribute2_0]--[contribute1_0]
27 2 30 1 1.0: [contribute2_0]--[contribute1_5]
27 3 32 1 1.0: [contribute2_0]--[contribute1_1]
27 4 33 1 1.0: [contribute2_0]--[contribute1_2]
27 5 34 1 1.0: [contribute2_0]--[contribute1_4]
28 0 8 1 1.0: [update2]--[update1]
29 0 12 1 1.0: [update2]--[update1]
30 0 31 1 1.0: [update2]--[update1]
31 0 31 1 Sat
32 0 4 1 1.0: [update2]--[update1]
33 0 14 1 1.0: [update2]--[update1]
34 0 35 1 1.0: [update2]--[update1]
35 0 35 1 Sat
36 0 37 1 1.0: [update2]--[update1]
37 0 38 1 1.0: [contribute2_0]--[contribute1_3]
37 1 39 1 1.0: [contribute2_0]--[contribute1_0]
37 2 40 1 1.0: [contribute2_0]--[contribute1_5]
37 3 41 1 1.0: [contribute2_0]--[contribute1_1]
37 4 42 1 1.0: [contribute2_0]--[contribute1_2]
37 5 43 1 1.0: [contribute2_0]--[contribute1_4]
38 0 10 1 1.0: [update2]--[update1]
39 0 22 1 1.0: [update2]--[update1]
40 0 4 1 1.0: [update2]--[update1]
41 0 24 1 1.0: [update2]--[update1]
42 0 6 1 1.0: [update2]--[update1]
43 0 12 1 1.0: [update2]--[update1]
44 0 45 1 1.0: [update2]--[update1]
45 0 46 1 1.0: [contribute2_0]--[contribute1_3]
45 1 47 1 1.0: [contribute2_0]--[contribute1_0]
45 2 48 1 1.0: [contribute2_0]--[contribute1_5]
45 3 49 1 1.0: [contribute2_0]--[contribute1_1]
45 4 50 1 1.0: [contribute2_0]--[contribute1_2]
45 5 51 1 1.0: [contribute2_0]--[contribute1_4]
46 0 12 1 1.0: [update2]--[update1]
47 0 24 1 1.0: [update2]--[update1]
48 0 14 1 1.0: [update2]--[update1]
49 0 6 1 1.0: [update2]--[update1]
50 0 10 1 1.0: [update2]--[update1]
51 0 4 1 1.0: [update2]--[update1]
52 0 53 1 1.0: [update2]--[update1]
53 0 54 1 1.0: [contribute2_0]--[contribute1_3]
53 1 55 1 1.0: [contribute2_0]--[contribute1_0]
53 2 56 1 1.0: [contribute2_0]--[contribute1_5]
53 3 57 1 1.0: [contribute2_0]--[contribute1_1]
53 4 58 1 1.0: [contribute2_0]--[contribute1_2]
53 5 59 1 1.0: [contribute2_0]--[contribute1_4]
54 0 14 1 1.0: [update2]--[update1]
55 0 10 1 1.0: [update2]--[update1]
56 0 35 1 1.0: [update2]--[update1]
57 0 12 1 1.0: [update2]--[update1]
58 0 4 1 1.0: [update2]--[update1]
59 0 8 1 1.0: [update2]--[update1]

 -- States --  
(c1,p1,c2,p2,rounds,s)
0:(0,10,0,10,0,0)
1:(6,10,0,10,0,1)
2:(0,10,0,16,1,0)
3:(6,10,0,16,1,1)
4:(0,10,0,22,2,0)
5:(0,10,0,16,1,1)
6:(0,10,0,16,2,0)
7:(10,10,0,16,1,1)
8:(0,10,0,26,2,0)
9:(2,10,0,16,1,1)
10:(0,10,0,18,2,0)
11:(4,10,0,16,1,1)
12:(0,10,0,20,2,0)
13:(8,10,0,16,1,1)
14:(0,10,0,24,2,0)
15:(0,10,0,10,0,1)
16:(0,10,0,10,1,0)
17:(6,10,0,10,1,1)
18:(0,10,0,10,1,1)
19:(0,10,0,10,2,0)
20:(10,10,0,10,1,1)
21:(2,10,0,10,1,1)
22:(0,10,0,12,2,0)
23:(4,10,0,10,1,1)
24:(0,10,0,14,2,0)
25:(8,10,0,10,1,1)
26:(10,10,0,10,0,1)
27:(0,10,0,20,1,0)
28:(6,10,0,20,1,1)
29:(0,10,0,20,1,1)
30:(10,10,0,20,1,1)
31:(0,10,0,30,2,0)
32:(2,10,0,20,1,1)
33:(4,10,0,20,1,1)
34:(8,10,0,20,1,1)
35:(0,10,0,28,2,0)
36:(2,10,0,10,0,1)
37:(0,10,0,12,1,0)
38:(6,10,0,12,1,1)
39:(0,10,0,12,1,1)
40:(10,10,0,12,1,1)
41:(2,10,0,12,1,1)
42:(4,10,0,12,1,1)
43:(8,10,0,12,1,1)
44:(4,10,0,10,0,1)
45:(0,10,0,14,1,0)
46:(6,10,0,14,1,1)
47:(0,10,0,14,1,1)
48:(10,10,0,14,1,1)
49:(2,10,0,14,1,1)
50:(4,10,0,14,1,1)
51:(8,10,0,14,1,1)
52:(8,10,0,10,0,1)
53:(0,10,0,18,1,0)
54:(6,10,0,18,1,1)
55:(0,10,0,18,1,1)
56:(10,10,0,18,1,1)
57:(2,10,0,18,1,1)
58:(4,10,0,18,1,1)
59:(8,10,0,18,1,1)
*/
